cva6-model-runs/wbuffer_traces/test_2/wbuffer_model_wave_pipeline.vcd
$date
	Mon Jan 22 07:56:34 2024
$end
$version
	Icarus Verilog
$end
$timescale
	1s
$end
$scope module wbuffer_tb $end
$var wire 1 ! de_io_cache_en_i $end
$var wire 1 " de_io_miss_ack_i $end
$var wire 2 # de_io_miss_rtrn_id_i [1:0] $end
$var wire 1 $ de_io_miss_rtrn_vld_i $end
$var wire 8 % de_io_miss_vld_bits_o [7:0] $end
$var wire 1 & de_io_miss_we_o $end
$var wire 1 ' de_io_rd_ack_i $end
$var wire 32 ( de_io_rd_data_i [31:0] $end
$var wire 8 ) de_io_rd_hit_oh_i [7:0] $end
$var wire 1 * de_io_rd_tag_only_o $end
$var wire 8 + de_io_rd_vld_bits_i [7:0] $end
$var wire 77 , de_io_req_port_i [76:0] $end
$var wire 1 - de_io_wr_ack_i $end
$var wire 8 . de_io_wr_cl_idx_i [7:0] $end
$var wire 1 / de_io_wr_cl_vld_i $end
$var wire 1 0 mo_io_cache_en_i $end
$var wire 1 1 mo_io_empty_o $end
$var wire 1 2 mo_io_miss_ack_i $end
$var wire 2 3 mo_io_miss_id_o [1:0] $end
$var wire 1 4 mo_io_miss_nc_o $end
$var wire 34 5 mo_io_miss_paddr_o [33:0] $end
$var wire 1 6 mo_io_miss_req_o $end
$var wire 2 7 mo_io_miss_rtrn_id_i [1:0] $end
$var wire 1 8 mo_io_miss_rtrn_vld_i $end
$var wire 3 9 mo_io_miss_size_o [2:0] $end
$var wire 8 : mo_io_miss_vld_bits_o [7:0] $end
$var wire 32 ; mo_io_miss_wdata_o [31:0] $end
$var wire 1 < mo_io_miss_we_o $end
$var wire 1 = mo_io_miss_wuser_o $end
$var wire 1 > mo_io_not_ni_o $end
$var wire 1 ? mo_io_rd_ack_i $end
$var wire 32 @ mo_io_rd_data_i [31:0] $end
$var wire 8 A mo_io_rd_hit_oh_i [7:0] $end
$var wire 8 B mo_io_rd_idx_o [7:0] $end
$var wire 4 C mo_io_rd_off_o [3:0] $end
$var wire 1 D mo_io_rd_req_o $end
$var wire 22 E mo_io_rd_tag_o [21:0] $end
$var wire 1 F mo_io_rd_tag_only_o $end
$var wire 8 G mo_io_rd_vld_bits_i [7:0] $end
$var wire 77 H mo_io_req_port_i [76:0] $end
$var wire 136 I mo_io_tx_paddr_o [135:0] $end
$var wire 4 J mo_io_tx_vld_o [3:0] $end
$var wire 688 K mo_io_wbuffer_data_o [687:0] $end
$var wire 1 L mo_io_wr_ack_i $end
$var wire 8 M mo_io_wr_cl_idx_i [7:0] $end
$var wire 1 N mo_io_wr_cl_vld_i $end
$var wire 4 O mo_io_wr_data_be_o [3:0] $end
$var wire 32 P mo_io_wr_data_o [31:0] $end
$var wire 8 Q mo_io_wr_idx_o [7:0] $end
$var wire 4 R mo_io_wr_off_o [3:0] $end
$var wire 1 S mo_io_wr_user_o $end
$var reg 32 T CLK_CYCLE [31:0] $end
$var reg 1 U clk $end
$var reg 2 V com_entry_index [1:0] $end
$var reg 1 W prev_dirty_0 $end
$var reg 1 X prev_dirty_1 $end
$var reg 1 Y prev_dirty_2 $end
$var reg 1 Z prev_dirty_3 $end
$var reg 12 [ prev_index_0 [11:0] $end
$var reg 12 \ prev_index_1 [11:0] $end
$var reg 12 ] prev_index_2 [11:0] $end
$var reg 12 ^ prev_index_3 [11:0] $end
$var reg 1 _ prev_valid_0 $end
$var reg 1 ` prev_valid_1 $end
$var reg 1 a prev_valid_2 $end
$var reg 1 b prev_valid_3 $end
$var reg 2 c re_entry_index [1:0] $end
$var reg 1 d req_enabled $end
$var reg 12 e req_index [11:0] $end
$var reg 1 f reset $end
$var reg 1 g tb_io_miss_ack_i $end
$var reg 2 h tb_io_miss_rtrn_id_i [1:0] $end
$var reg 1 i tb_io_miss_rtrn_vld_i $end
$var reg 1 j tb_io_rd_ack_i $end
$var reg 8 k tb_io_rd_hit_oh_i [7:0] $end
$var reg 77 l tb_io_req_port_i [76:0] $end
$var reg 3 m txn_ctr [2:0] $end
$var reg 3 n wbuffer_data_o_0 [2:0] $end
$var reg 3 o wbuffer_data_o_1 [2:0] $end
$var reg 3 p wbuffer_data_o_2 [2:0] $end
$var reg 3 q wbuffer_data_o_3 [2:0] $end
$var reg 3 r wbuffer_data_o_4 [2:0] $end
$var reg 3 s wbuffer_data_o_5 [2:0] $end
$var reg 3 t wbuffer_data_o_6 [2:0] $end
$var reg 3 u wbuffer_data_o_7 [2:0] $end
$var integer 32 v seed [31:0] $end
$scope module model $end
$var wire 1 0 cache_en_i $end
$var wire 1 U clk_i $end
$var wire 1 1 empty_o $end
$var wire 3 w mem_ack_ptr [2:0] $end
$var wire 3 x mem_resp_ptr [2:0] $end
$var wire 1 2 miss_ack_i $end
$var wire 2 y miss_id_o [1:0] $end
$var wire 1 4 miss_nc_o $end
$var wire 34 z miss_paddr_o [33:0] $end
$var wire 1 6 miss_req_o $end
$var wire 2 { miss_rtrn_id_i [1:0] $end
$var wire 1 8 miss_rtrn_vld_i $end
$var wire 3 | miss_size_o [2:0] $end
$var wire 8 } miss_vld_bits_o [7:0] $end
$var wire 32 ~ miss_wdata_o [31:0] $end
$var wire 1 < miss_we_o $end
$var wire 1 = miss_wuser_o $end
$var wire 1 > not_ni_o $end
$var wire 688 !" port_io_wbuffer_q [687:0] $end
$var wire 1 ? rd_ack_i $end
$var wire 32 "" rd_data_i [31:0] $end
$var wire 8 #" rd_hit_oh_i [7:0] $end
$var wire 8 $" rd_idx_o [7:0] $end
$var wire 4 %" rd_off_o [3:0] $end
$var wire 1 D rd_req_o $end
$var wire 22 &" rd_tag_o [21:0] $end
$var wire 1 F rd_tag_only_o $end
$var wire 8 '" rd_vld_bits_i [7:0] $end
$var wire 3 (" redo_ptr [2:0] $end
$var wire 1 )" replay $end
$var wire 77 *" req_port_i [76:0] $end
$var wire 1 f rst_ni $end
$var wire 1 +" synth__txn_ack_write $end
$var wire 1 ," synth__txn_clr_write $end
$var wire 1 -" synth__txn_prop_write $end
$var wire 1 ." synth__txn_rcv_write $end
$var wire 136 /" tx_paddr_o [135:0] $end
$var wire 4 0" tx_vld_o [3:0] $end
$var wire 688 1" wbuffer_data_o [687:0] $end
$var wire 1 L wr_ack_i $end
$var wire 8 2" wr_cl_idx_i [7:0] $end
$var wire 1 N wr_cl_vld_i $end
$var wire 4 3" wr_data_be_o [3:0] $end
$var wire 32 4" wr_data_o [31:0] $end
$var wire 8 5" wr_idx_o [7:0] $end
$var wire 4 6" wr_off_o [3:0] $end
$var wire 1 S wr_user_o $end
$var wire 3 7" write_ptr [2:0] $end
$var reg 1 8" inner_miss_rtrn_vld_i $end
$var reg 14 9" prev_req_0 [13:0] $end
$var reg 14 :" prev_req_1 [13:0] $end
$var reg 14 ;" prev_req_2 [13:0] $end
$var reg 14 <" prev_req_3 [13:0] $end
$var reg 35 =" req_port_o [34:0] $end
$var reg 3 >" wbuffer_summary_q_0 [2:0] $end
$var reg 3 ?" wbuffer_summary_q_1 [2:0] $end
$var reg 3 @" wbuffer_summary_q_2 [2:0] $end
$var reg 3 A" wbuffer_summary_q_3 [2:0] $end
$var reg 3 B" wbuffer_summary_q_4 [2:0] $end
$var reg 3 C" wbuffer_summary_q_5 [2:0] $end
$var reg 3 D" wbuffer_summary_q_6 [2:0] $end
$var reg 3 E" wbuffer_summary_q_7 [2:0] $end
$var reg 8 F" wr_req_o [7:0] $end
$upscope $end
$scope module wbuffer_i $end
$var wire 1 ! cache_en_i $end
$var wire 1 G" check_en_d $end
$var wire 1 U clk_i $end
$var wire 1 H" is_ni $end
$var wire 3 I" mem_ack_ptr_o [2:0] $end
$var wire 3 J" mem_resp_ptr_o [2:0] $end
$var wire 1 " miss_ack_i $end
$var wire 2 K" miss_id_o [1:0] $end
$var wire 1 L" miss_nc_o $end
$var wire 1 M" miss_req_o $end
$var wire 2 N" miss_rtrn_id_i [1:0] $end
$var wire 1 $ miss_rtrn_vld_i $end
$var wire 8 O" miss_vld_bits_o [7:0] $end
$var wire 1 & miss_we_o $end
$var wire 1 P" ni_conflict $end
$var wire 8 Q" port_rd_hit_oh_q [7:0] $end
$var wire 1 ' rd_ack_i $end
$var wire 32 R" rd_data_i [31:0] $end
$var wire 8 S" rd_hit_oh_d [7:0] $end
$var wire 8 T" rd_hit_oh_i [7:0] $end
$var wire 22 U" rd_tag_o [21:0] $end
$var wire 1 * rd_tag_only_o $end
$var wire 8 V" rd_vld_bits_i [7:0] $end
$var wire 1 W" rdy $end
$var wire 3 X" redo_ptr_o [2:0] $end
$var wire 77 Y" req_port_i [76:0] $end
$var wire 1 f rst_ni $end
$var wire 1 Z" sv2v_tmp_3FCC7 [1:1] $end
$var wire 1 [" sv2v_tmp_AD78A [1:1] $end
$var wire 32 \" sv2v_tmp_D43F8 [32:1] $end
$var wire 32 ]" tx_stat_data_o [31:0] $end
$var wire 688 ^" wbuffer_data_o [687:0] $end
$var wire 1 - wr_ack_i $end
$var wire 8 _" wr_cl_idx_d [7:0] $end
$var wire 8 `" wr_cl_idx_i [7:0] $end
$var wire 1 a" wr_cl_vld_d $end
$var wire 1 / wr_cl_vld_i $end
$var wire 4 b" wr_data_be_o [3:0] $end
$var wire 3 c" write_ptr_o [2:0] $end
$var reg 33 d" CLK_CYCLE [32:0] $end
$var reg 1 e" check_en_q $end
$var reg 1 f" check_en_q1 $end
$var reg 3 g" check_ptr_q [2:0] $end
$var reg 3 h" check_ptr_q1 [2:0] $end
$var reg 1 i" dirty_rd_en $end
$var reg 1 j" evict $end
$var reg 8 k" ni_pending_d [7:0] $end
$var reg 8 l" ni_pending_q [7:0] $end
$var reg 8 m" rd_hit_oh_q [7:0] $end
$var reg 22 n" rd_tag_q [21:0] $end
$var reg 35 o" req_port_o [34:0] $end
$var reg 32 p" tx_stat_d [31:0] $end
$var reg 32 q" tx_stat_q [31:0] $end
$var reg 688 r" wbuffer_d [687:0] $end
$var reg 688 s" wbuffer_q [687:0] $end
$var reg 1 t" wbuffer_wren $end
$var reg 8 u" wr_cl_idx_q [7:0] $end
$var reg 1 v" wr_cl_vld_q $end
$var reg 8 w" wr_req_o [7:0] $end
$scope function ariane_pkg_is_inside_cacheable_regions $end
$scope begin sv2v_autoblock_1 $end
$upscope $end
$upscope $end
$scope function ariane_pkg_is_inside_nonidempotent_regions $end
$scope begin sv2v_autoblock_2 $end
$upscope $end
$upscope $end
$scope function ariane_pkg_range_check $end
$upscope $end
$scope function sv2v_cast_43C66 $end
$upscope $end
$scope function sv2v_cast_65 $end
$upscope $end
$scope function sv2v_cast_BB1B5 $end
$upscope $end
$scope function wt_cache_pkg_repData32 $end
$scope begin sv2v_autoblock_3 $end
$upscope $end
$scope begin sv2v_autoblock_4 $end
$upscope $end
$upscope $end
$scope function wt_cache_pkg_repData64 $end
$scope begin sv2v_autoblock_5 $end
$upscope $end
$scope begin sv2v_autoblock_6 $end
$upscope $end
$scope begin sv2v_autoblock_7 $end
$upscope $end
$upscope $end
$scope function wt_cache_pkg_toSize32 $end
$upscope $end
$scope function wt_cache_pkg_toSize64 $end
$upscope $end
$scope function wt_cache_pkg_to_byte_enable4 $end
$upscope $end
$scope function wt_cache_pkg_to_byte_enable8 $end
$upscope $end
$scope begin gen_assert1[0] $end
$upscope $end
$scope begin gen_assert1[1] $end
$upscope $end
$scope begin gen_assert1[2] $end
$upscope $end
$scope begin gen_assert1[3] $end
$upscope $end
$scope begin gen_assert1[4] $end
$upscope $end
$scope begin gen_assert1[5] $end
$upscope $end
$scope begin gen_assert1[6] $end
$upscope $end
$scope begin gen_assert1[7] $end
$upscope $end
$scope begin gen_flags[0] $end
$upscope $end
$scope begin gen_flags[1] $end
$upscope $end
$scope begin gen_flags[2] $end
$upscope $end
$scope begin gen_flags[3] $end
$upscope $end
$scope begin gen_flags[4] $end
$upscope $end
$scope begin gen_flags[5] $end
$upscope $end
$scope begin gen_flags[6] $end
$upscope $end
$scope begin gen_flags[7] $end
$upscope $end
$scope begin gen_tx_vld[0] $end
$upscope $end
$scope begin gen_tx_vld[1] $end
$upscope $end
$scope begin gen_tx_vld[2] $end
$upscope $end
$scope begin gen_tx_vld[3] $end
$upscope $end
$scope module i_clean_rr $end
$var wire 1 U clk_i $end
$var wire 688 x" data_i [687:0] $end
$var wire 1 y" flush_i $end
$var wire 1 G" gnt_i $end
$var wire 8 z" req_i [7:0] $end
$var wire 3 {" rr_i [2:0] $end
$var wire 1 f rst_ni $end
$scope function sv2v_cast_8367E $end
$upscope $end
$scope begin genblk1 $end
$var reg 3 |" rr_q [2:0] $end
$scope begin gen_int_rr $end
$scope function sv2v_cast_5699A $end
$upscope $end
$scope begin gen_no_lock $end
$upscope $end
$scope begin p_rr_regs $end
$upscope $end
$upscope $end
$scope begin gen_levels[0] $end
$scope begin gen_level[0] $end
$scope begin gen_other_levels $end
$scope function sv2v_cast_5699A $end
$upscope $end
$upscope $end
$upscope $end
$upscope $end
$scope begin gen_levels[1] $end
$scope begin gen_level[0] $end
$scope begin gen_other_levels $end
$scope function sv2v_cast_5699A $end
$upscope $end
$upscope $end
$upscope $end
$scope begin gen_level[1] $end
$scope begin gen_other_levels $end
$scope function sv2v_cast_5699A $end
$upscope $end
$upscope $end
$upscope $end
$upscope $end
$scope begin gen_levels[2] $end
$scope begin gen_level[0] $end
$scope begin gen_first_level $end
$scope begin genblk1 $end
$scope function sv2v_cast_5699A $end
$upscope $end
$upscope $end
$upscope $end
$upscope $end
$scope begin gen_level[1] $end
$scope begin gen_first_level $end
$scope begin genblk1 $end
$scope function sv2v_cast_5699A $end
$upscope $end
$upscope $end
$upscope $end
$upscope $end
$scope begin gen_level[2] $end
$scope begin gen_first_level $end
$scope begin genblk1 $end
$scope function sv2v_cast_5699A $end
$upscope $end
$upscope $end
$upscope $end
$upscope $end
$scope begin gen_level[3] $end
$scope begin gen_first_level $end
$scope begin genblk1 $end
$scope function sv2v_cast_5699A $end
$upscope $end
$upscope $end
$upscope $end
$upscope $end
$upscope $end
$scope begin p_assert $end
$upscope $end
$upscope $end
$upscope $end
$scope module i_dirty_rr $end
$var wire 1 U clk_i $end
$var wire 688 }" data_i [687:0] $end
$var wire 1 ~" flush_i $end
$var wire 1 i" gnt_i $end
$var wire 8 !# req_i [7:0] $end
$var wire 3 "# rr_i [2:0] $end
$var wire 1 f rst_ni $end
$scope function sv2v_cast_8367E $end
$upscope $end
$scope begin genblk1 $end
$var reg 3 ## rr_q [2:0] $end
$scope begin gen_int_rr $end
$scope function sv2v_cast_5699A $end
$upscope $end
$scope begin gen_lock $end
$var wire 1 $# lock_d $end
$var wire 8 %# req_tmp [7:0] $end
$var reg 1 &# lock_q $end
$var reg 8 '# req_q [7:0] $end
$scope begin p_lock_reg $end
$upscope $end
$scope begin p_req_regs $end
$upscope $end
$upscope $end
$scope begin p_rr_regs $end
$upscope $end
$upscope $end
$scope begin gen_levels[0] $end
$scope begin gen_level[0] $end
$scope begin gen_other_levels $end
$scope function sv2v_cast_5699A $end
$upscope $end
$upscope $end
$upscope $end
$upscope $end
$scope begin gen_levels[1] $end
$scope begin gen_level[0] $end
$scope begin gen_other_levels $end
$scope function sv2v_cast_5699A $end
$upscope $end
$upscope $end
$upscope $end
$scope begin gen_level[1] $end
$scope begin gen_other_levels $end
$scope function sv2v_cast_5699A $end
$upscope $end
$upscope $end
$upscope $end
$upscope $end
$scope begin gen_levels[2] $end
$scope begin gen_level[0] $end
$scope begin gen_first_level $end
$scope begin genblk1 $end
$scope function sv2v_cast_5699A $end
$upscope $end
$upscope $end
$upscope $end
$upscope $end
$scope begin gen_level[1] $end
$scope begin gen_first_level $end
$scope begin genblk1 $end
$scope function sv2v_cast_5699A $end
$upscope $end
$upscope $end
$upscope $end
$upscope $end
$scope begin gen_level[2] $end
$scope begin gen_first_level $end
$scope begin genblk1 $end
$scope function sv2v_cast_5699A $end
$upscope $end
$upscope $end
$upscope $end
$upscope $end
$scope begin gen_level[3] $end
$scope begin gen_first_level $end
$scope begin genblk1 $end
$scope function sv2v_cast_5699A $end
$upscope $end
$upscope $end
$upscope $end
$upscope $end
$upscope $end
$scope begin p_assert $end
$upscope $end
$upscope $end
$upscope $end
$scope module i_hit_lzc $end
$var wire 1 (# empty_o $end
$var wire 8 )# in_i [7:0] $end
$var reg 8 *# in_tmp [7:0] $end
$scope function sv2v_cast_7179C $end
$upscope $end
$scope function sv2v_cast_D3735_signed $end
$upscope $end
$scope begin g_index_lut[0] $end
$upscope $end
$scope begin g_index_lut[1] $end
$upscope $end
$scope begin g_index_lut[2] $end
$upscope $end
$scope begin g_index_lut[3] $end
$upscope $end
$scope begin g_index_lut[4] $end
$upscope $end
$scope begin g_index_lut[5] $end
$upscope $end
$scope begin g_index_lut[6] $end
$upscope $end
$scope begin g_index_lut[7] $end
$upscope $end
$scope begin g_levels[0] $end
$scope begin genblk1 $end
$scope begin g_level[0] $end
$upscope $end
$upscope $end
$upscope $end
$scope begin g_levels[1] $end
$scope begin genblk1 $end
$scope begin g_level[0] $end
$upscope $end
$scope begin g_level[1] $end
$upscope $end
$upscope $end
$upscope $end
$scope begin g_levels[2] $end
$scope begin g_last_level $end
$scope begin g_level[0] $end
$scope begin genblk1 $end
$upscope $end
$upscope $end
$scope begin g_level[1] $end
$scope begin genblk1 $end
$upscope $end
$upscope $end
$scope begin g_level[2] $end
$scope begin genblk1 $end
$upscope $end
$upscope $end
$scope begin g_level[3] $end
$scope begin genblk1 $end
$upscope $end
$upscope $end
$upscope $end
$upscope $end
$scope begin flip_vector $end
$scope begin sv2v_autoblock_1 $end
$var reg 32 +# i [31:0] $end
$upscope $end
$upscope $end
$upscope $end
$scope module i_rtrn_id_fifo $end
$var wire 1 U clk_i $end
$var wire 2 ,# data_i [1:0] $end
$var wire 1 -# flush_i $end
$var wire 1 j" pop_i $end
$var wire 1 $ push_i $end
$var wire 1 f rst_ni $end
$var wire 1 .# testmode_i $end
$var reg 2 /# data_o [1:0] $end
$var reg 1 0# gate_clock $end
$var reg 8 1# mem_n [7:0] $end
$var reg 8 2# mem_q [7:0] $end
$var reg 2 3# read_pointer_n [1:0] $end
$var reg 2 4# read_pointer_q [1:0] $end
$var reg 3 5# status_cnt_n [2:0] $end
$var reg 3 6# status_cnt_q [2:0] $end
$var reg 2 7# write_pointer_n [1:0] $end
$var reg 2 8# write_pointer_q [1:0] $end
$scope begin genblk1 $end
$upscope $end
$scope begin read_write_comb $end
$upscope $end
$upscope $end
$scope module i_tx_id_rr $end
$var wire 1 U clk_i $end
$var wire 4 9# data_i [3:0] $end
$var wire 1 :# flush_i $end
$var wire 1 i" gnt_i $end
$var wire 4 ;# req_i [3:0] $end
$var wire 2 <# rr_i [1:0] $end
$var wire 1 f rst_ni $end
$scope function sv2v_cast_8367E $end
$upscope $end
$scope begin genblk1 $end
$var reg 2 =# rr_q [1:0] $end
$scope begin gen_int_rr $end
$scope function sv2v_cast_5699A $end
$upscope $end
$scope begin gen_lock $end
$var wire 1 ># lock_d $end
$var wire 4 ?# req_tmp [3:0] $end
$var reg 1 @# lock_q $end
$var reg 4 A# req_q [3:0] $end
$scope begin p_lock_reg $end
$upscope $end
$scope begin p_req_regs $end
$upscope $end
$upscope $end
$scope begin p_rr_regs $end
$upscope $end
$upscope $end
$scope begin gen_levels[0] $end
$scope begin gen_level[0] $end
$scope begin gen_other_levels $end
$scope function sv2v_cast_5699A $end
$upscope $end
$upscope $end
$upscope $end
$upscope $end
$scope begin gen_levels[1] $end
$scope begin gen_level[0] $end
$scope begin gen_first_level $end
$scope begin genblk1 $end
$scope function sv2v_cast_5699A $end
$upscope $end
$upscope $end
$upscope $end
$upscope $end
$scope begin gen_level[1] $end
$scope begin gen_first_level $end
$scope begin genblk1 $end
$scope function sv2v_cast_5699A $end
$upscope $end
$upscope $end
$upscope $end
$upscope $end
$upscope $end
$scope begin p_assert $end
$upscope $end
$upscope $end
$upscope $end
$scope module i_vld_bdirty $end
$var wire 1 B# empty_o $end
$var wire 4 C# in_i [3:0] $end
$var reg 4 D# in_tmp [3:0] $end
$scope function sv2v_cast_7179C $end
$upscope $end
$scope function sv2v_cast_D3735_signed $end
$upscope $end
$scope begin g_index_lut[0] $end
$upscope $end
$scope begin g_index_lut[1] $end
$upscope $end
$scope begin g_index_lut[2] $end
$upscope $end
$scope begin g_index_lut[3] $end
$upscope $end
$scope begin g_levels[0] $end
$scope begin genblk1 $end
$scope begin g_level[0] $end
$upscope $end
$upscope $end
$upscope $end
$scope begin g_levels[1] $end
$scope begin g_last_level $end
$scope begin g_level[0] $end
$scope begin genblk1 $end
$upscope $end
$upscope $end
$scope begin g_level[1] $end
$scope begin genblk1 $end
$upscope $end
$upscope $end
$upscope $end
$upscope $end
$scope begin flip_vector $end
$scope begin sv2v_autoblock_1 $end
$var reg 32 E# i [31:0] $end
$upscope $end
$upscope $end
$upscope $end
$scope module i_vld_lzc $end
$var wire 1 F# empty_o $end
$var wire 8 G# in_i [7:0] $end
$var reg 8 H# in_tmp [7:0] $end
$scope function sv2v_cast_7179C $end
$upscope $end
$scope function sv2v_cast_D3735_signed $end
$upscope $end
$scope begin g_index_lut[0] $end
$upscope $end
$scope begin g_index_lut[1] $end
$upscope $end
$scope begin g_index_lut[2] $end
$upscope $end
$scope begin g_index_lut[3] $end
$upscope $end
$scope begin g_index_lut[4] $end
$upscope $end
$scope begin g_index_lut[5] $end
$upscope $end
$scope begin g_index_lut[6] $end
$upscope $end
$scope begin g_index_lut[7] $end
$upscope $end
$scope begin g_levels[0] $end
$scope begin genblk1 $end
$scope begin g_level[0] $end
$upscope $end
$upscope $end
$upscope $end
$scope begin g_levels[1] $end
$scope begin genblk1 $end
$scope begin g_level[0] $end
$upscope $end
$scope begin g_level[1] $end
$upscope $end
$upscope $end
$upscope $end
$scope begin g_levels[2] $end
$scope begin g_last_level $end
$scope begin g_level[0] $end
$scope begin genblk1 $end
$upscope $end
$upscope $end
$scope begin g_level[1] $end
$scope begin genblk1 $end
$upscope $end
$upscope $end
$scope begin g_level[2] $end
$scope begin genblk1 $end
$upscope $end
$upscope $end
$scope begin g_level[3] $end
$scope begin genblk1 $end
$upscope $end
$upscope $end
$upscope $end
$upscope $end
$scope begin flip_vector $end
$scope begin sv2v_autoblock_1 $end
$var reg 32 I# i [31:0] $end
$upscope $end
$upscope $end
$upscope $end
$scope begin p_buffer $end
$scope begin sv2v_autoblock_10 $end
$var reg 32 J# k [31:0] $end
$upscope $end
$scope begin sv2v_autoblock_11 $end
$var reg 32 K# k [31:0] $end
$upscope $end
$scope begin sv2v_autoblock_8 $end
$var reg 32 L# k [31:0] $end
$upscope $end
$scope begin sv2v_autoblock_9 $end
$var reg 32 M# k [31:0] $end
$upscope $end
$upscope $end
$scope begin p_regs $end
$upscope $end
$scope begin p_tx_stat $end
$upscope $end
$upscope $end
$scope task cache_lower_resp $end
$upscope $end
$scope task cache_rd_resp $end
$var reg 8 N# way [7:0] $end
$upscope $end
$scope task core_lower_req $end
$upscope $end
$scope task core_wr_req $end
$var reg 12 O# address_index [11:0] $end
$var reg 22 P# address_tag [21:0] $end
$var reg 32 Q# data_wdata [31:0] $end
$upscope $end
$scope task display_time $end
$upscope $end
$scope task get_buffer_entries $end
$upscope $end
$scope task get_buffer_entry $end
$var reg 86 R# entry [85:0] $end
$upscope $end
$scope task get_header $end
$upscope $end
$scope task get_txn_header $end
$upscope $end
$scope task get_txn_stat $end
$var reg 8 S# entry [7:0] $end
$upscope $end
$scope task get_txn_stats $end
$upscope $end
$scope task make_cache_way_resp $end
$var reg 3 T# way [2:0] $end
$upscope $end
$scope task make_delay $end
$upscope $end
$scope task make_mem_ack $end
$upscope $end
$scope task make_mem_resp $end
$var reg 3 U# txn_id [2:0] $end
$upscope $end
$scope task make_write_request $end
$var reg 12 V# addr [11:0] $end
$var reg 32 W# data [31:0] $end
$var reg 22 X# tag [21:0] $end
$upscope $end
$scope task mem_miss_ack $end
$upscope $end
$scope task mem_miss_lower $end
$upscope $end
$scope task mem_resp_ack $end
$var reg 2 Y# txn_id [1:0] $end
$upscope $end
$scope task mem_resp_lower $end
$upscope $end
$upscope $end
$enddefinitions $end
#0
$dumpvars
bx Y#
bx X#
bx W#
bx V#
bx U#
bx T#
bx S#
bx R#
bx Q#
bx P#
bx O#
bx N#
bx M#
b1000 L#
bx K#
bx J#
bx I#
bx H#
bx G#
xF#
bx E#
bx D#
bx C#
xB#
bx A#
x@#
bx ?#
x>#
bx =#
b0 <#
bx ;#
0:#
b0 9#
bx 8#
bx 7#
bx 6#
bx 5#
bx 4#
bx 3#
bx 2#
bx 1#
10#
bx /#
0.#
0-#
b0 ,#
bx +#
bx *#
bx )#
x(#
bx '#
x&#
bx %#
x$#
bx ##
b0 "#
bx !#
0~"
bx }"
bx |"
b0 {"
bx z"
0y"
bx x"
b0 w"
0v"
b0 u"
0t"
bx s"
bx r"
bx q"
bx p"
b0 o"
bx n"
bx m"
bx l"
bx k"
0j"
0i"
bx h"
bz g"
xf"
xe"
bx d"
bx c"
bx b"
0a"
b0 `"
b0 _"
bx ^"
bx ]"
b0 \"
0["
0Z"
b0 Y"
bx X"
xW"
b0 V"
bx U"
b0 T"
b0 S"
b0 R"
b0 Q"
0P"
b0 O"
b0 N"
xM"
1L"
bx K"
bx J"
bx I"
0H"
0G"
bx F"
bx E"
bx D"
bx C"
bx B"
bx A"
bx @"
bx ?"
bx >"
bx ="
bx <"
bx ;"
bx :"
bx 9"
x8"
bx 7"
bz 6"
bz 5"
bz 4"
bz 3"
b0 2"
bz 1"
bz 0"
bz /"
0."
0-"
x,"
0+"
b0 *"
x)"
bx ("
b0 '"
bz &"
bz %"
bz $"
b0 #"
b0 ""
bz !"
bz ~
bz }
bz |
b0 {
bz z
bz y
bx x
bx w
b1110010001 v
bx u
bx t
bx s
bx r
bx q
bx p
bx o
bx n
b0 m
b0 l
b0 k
0j
0i
b0 h
0g
1f
b0 e
0d
bx c
xb
xa
x`
x_
bx ^
bx ]
bx \
bx [
xZ
xY
xX
xW
bx V
1U
b0 T
zS
bz R
bz Q
bz P
bz O
0N
b0 M
1L
bz K
bz J
bz I
b0 H
b0 G
zF
bz E
zD
bz C
bz B
b0 A
b0 @
0?
z>
z=
z<
bz ;
bz :
bz 9
08
b0 7
z6
bz 5
z4
bz 3
02
z1
00
0/
b0 .
1-
b0 ,
b0 +
1*
b0 )
b0 (
0'
1&
b0 %
0$
b0 #
0"
0!
$end
#10
0U
#20
1B#
b0 D#
b100 E#
b0 C#
b111 w
b111 I"
1W"
0$#
1(#
b0 ("
b0 X"
b0 7"
b0 c"
0F#
b0 K"
1>#
b0 *#
b1000 +#
0M"
b0 !#
b0 )#
b11111111 H#
b1000 I#
b0 z"
b1111 ;#
b11111111 G#
b0 b"
b0 p"
b1000 L#
b0 k"
b0 r"
b0 u
b0 t
b0 s
b0 r
b0 q
b0 p
b0 o
b0 n
b0 %#
b0 ?#
b0 1#
b0 x
b0 J"
b0 /#
b0 5#
b0 7#
b0 3#
b1 T
b0 m"
b0 U"
b0 n"
0f"
0e"
b0 h"
b0 g"
b0 l"
b0 ]"
b0 q"
b0 ^"
b0 s"
b0 x"
b0 }"
b0 d"
b0 |"
b0 '#
0&#
b0 ##
b0 A#
0@#
b0 =#
b0 2#
b0 6#
b0 8#
b0 4#
0)"
b0 V
b0 c
0Z
0Y
0X
0W
0b
0a
0`
0_
b0 ^
b0 ]
b0 \
b0 [
b0 <"
b0 ;"
b0 :"
b0 9"
0,"
08"
1U
0f
#30
0U
#40
b10 T
b0 E"
b0 D"
b0 C"
b0 B"
b0 A"
b0 @"
b0 ?"
b0 >"
1U
#50
0U
#60
b1111 ?#
b11 T
b111 g"
b1 d"
b1111 A#
1@#
1U
1f
#70
0U
#80
b1000 L#
b100 T
b111 h"
b10 d"
1U
#90
0U
#100
b101 T
b11 d"
1U
#110
0U
#120
b110 T
b100 d"
1U
#130
0U
#140
b111 T
b101 d"
1U
#150
0U
#160
b1000 T
b110 d"
1U
#170
0U
#180
b1001 T
b111 d"
1U
#190
0U
#200
b1010 T
b1000 d"
1U
#210
0U
#220
1."
b100000 e
1d
b100 K#
b1000000000001000000000000000000000000111100110110111111110000000000000 r"
b10000000000000000000000000000000000 o"
1t"
b1000 L#
b1011 T
b1001 d"
b10000000000000000000001000000000000000000000000001111001101101011110000 H
b10000000000000000000001000000000000000000000000001111001101101011110000 *"
b10000000000000000000001000000000000000000000000001111001101101011110000 ,
b10000000000000000000001000000000000000000000000001111001101101011110000 Y"
b10000000000000000000001000000000000000000000000001111001101101011110000 l
1U
b11110011011 Q#
b100000 P#
b100000 O#
b11110011011 W#
b100000 X#
b100000 V#
#230
0U
#240
0B#
b1111 D#
b100 E#
b1111 C#
b0 w
b0 I"
1$#
b1 ("
b1 X"
b1 7"
b1 c"
1M"
b1 !#
1G"
b1 z"
b11111110 H#
b1000 I#
b11111110 G#
b0 e
0d
b110 n
b1000 L#
0t"
b0 o"
b1100 T
b1000000000001000000000000000000000000111100110110111111110000000000000 ^"
b1000000000001000000000000000000000000111100110110111111110000000000000 s"
b1000000000001000000000000000000000000111100110110111111110000000000000 x"
b1000000000001000000000000000000000000111100110110111111110000000000000 }"
b1010 d"
b0 H
b0 *"
b0 ,
b0 Y"
b0 l
b100 A
b100 #"
b100 Q"
b100 S"
b100 )
b100 T"
b100 k
1?
1'
1j
0-"
0."
0)"
1_
b100000 [
b110 >"
1U
b100 N#
#250
0U
#260
b1000 L#
b1 %#
0G"
b1101 T
b100 m"
b100000 U"
b100000 n"
1e"
b0 g"
b1011 d"
b1 |"
b1 '#
1&#
0?
0'
0j
b1000000100000 9"
1U
#270
0U
