cva6-model-runs/lsu_traces/lsu_traces_2/test_1/lsu_model_wave_pipeline.vcd
$date
	Mon Jan 22 14:46:09 2024
$end
$version
	Icarus Verilog
$end
$timescale
	1s
$end
$scope module cva6_lsu_model_tb $end
$var wire 32 ! de_io_instr_i [31:0] $end
$var wire 1 " de_io_instr_valid_i $end
$var wire 1 # de_io_is_load_i $end
$var wire 1 $ de_io_load_mem_resp_i $end
$var wire 1 % de_io_store_mem_resp_i $end
$var reg 32 & CLK_CYCLE [31:0] $end
$var reg 32 ' addr [31:0] $end
$var reg 1 ( choice $end
$var reg 1 ) clk $end
$var reg 1 * load_state $end
$var reg 1 + reset $end
$var reg 1 , store_state $end
$var reg 1 - store_uncommitted $end
$var reg 32 . tb_io_instr_i [31:0] $end
$var reg 1 / tb_io_instr_valid_i $end
$var reg 1 0 tb_io_is_load_i $end
$var reg 1 1 tb_io_load_mem_resp_i $end
$var reg 1 2 tb_io_store_commit_i $end
$var reg 1 3 tb_io_store_mem_resp_i $end
$var reg 2 4 wait_ctr [1:0] $end
$var integer 32 5 i [31:0] $end
$var integer 32 6 seed [31:0] $end
$scope module model_i $end
$var wire 1 ) clk_i $end
$var wire 32 7 instr_i [31:0] $end
$var wire 1 " instr_valid_i $end
$var wire 1 # is_load_i $end
$var wire 1 $ load_mem_resp_i $end
$var wire 1 8 no_dep $end
$var wire 1 9 ready_o $end
$var wire 1 + rst_ni $end
$var wire 1 2 store_commit_i $end
$var wire 1 % store_mem_resp_i $end
$var reg 32 : CLK_CYCLE [31:0] $end
$var reg 32 ; inner_instr_i [31:0] $end
$var reg 1 < inner_instr_valid_i $end
$var reg 1 = inner_is_load_i $end
$var reg 1 > inner_load_mem_resp_i $end
$var reg 1 ? inner_store_mem_resp_i $end
$var reg 8 @ instr_i_pc [7:0] $end
$var reg 32 A load_instr_i_queue [31:0] $end
$var reg 8 B load_instr_i_queue_pc [7:0] $end
$var reg 2 C load_instr_queue_state [1:0] $end
$var reg 2 D queue_commit_ptr [1:0] $end
$var reg 2 E queue_serve_ptr [1:0] $end
$var reg 2 F queue_store_ptr [1:0] $end
$var reg 1 G ready_flag $end
$var reg 32 H store_instr_i_queue_flatten_0 [31:0] $end
$var reg 8 I store_instr_i_queue_flatten_0_pc [7:0] $end
$var reg 32 J store_instr_i_queue_flatten_1 [31:0] $end
$var reg 8 K store_instr_i_queue_flatten_1_pc [7:0] $end
$var reg 32 L store_instr_i_queue_flatten_2 [31:0] $end
$var reg 8 M store_instr_i_queue_flatten_2_pc [7:0] $end
$var reg 32 N store_instr_i_queue_flatten_3 [31:0] $end
$var reg 8 O store_instr_i_queue_flatten_3_pc [7:0] $end
$var reg 2 P store_instr_queue_state_flatten_0 [1:0] $end
$var reg 2 Q store_instr_queue_state_flatten_1 [1:0] $end
$var reg 2 R store_instr_queue_state_flatten_2 [1:0] $end
$var reg 2 S store_instr_queue_state_flatten_3 [1:0] $end
$var reg 32 T x_inner_instr_i [31:0] $end
$var reg 1 U x_inner_instr_valid_i $end
$var reg 1 V x_inner_is_load_i $end
$var reg 1 W x_inner_store_mem_resp_i $end
$upscope $end
$scope module shim_i $end
$var wire 1 ) clk_i $end
$var wire 65 X de_io_amo_resp_i [64:0] $end
$var wire 1 Y de_io_amo_valid_commit_i $end
$var wire 1 Z de_io_asid_i $end
$var wire 1 [ de_io_asid_to_be_flushed_i $end
$var wire 1 \ de_io_commit_i $end
$var wire 1 ] de_io_dcache_wbuffer_empty_i $end
$var wire 1 ^ de_io_dcache_wbuffer_not_ni_i $end
$var wire 1 _ de_io_dtlb_miss_o $end
$var wire 1 ` de_io_en_ld_st_translation_i $end
$var wire 1 a de_io_enable_translation_i $end
$var wire 1 b de_io_flush_i $end
$var wire 1 c de_io_flush_tlb_i $end
$var wire 33 d de_io_icache_areq_i [32:0] $end
$var wire 1 e de_io_itlb_miss_o $end
$var wire 2 f de_io_ld_st_priv_lvl_i [1:0] $end
$var wire 1 g de_io_mxr_i $end
$var wire 512 h de_io_pmpaddr_i [511:0] $end
$var wire 128 i de_io_pmpcfg_i [127:0] $end
$var wire 2 j de_io_priv_lvl_i [1:0] $end
$var wire 22 k de_io_satp_ppn_i [21:0] $end
$var wire 1 l de_io_sum_i $end
$var wire 32 m de_io_vaddr_to_be_flushed_i [31:0] $end
$var wire 32 n instr_i [31:0] $end
$var wire 1 " instr_valid_i $end
$var wire 1 # is_load_i $end
$var wire 1 $ load_mem_resp_i $end
$var wire 1 o ready_o $end
$var wire 1 + rst_ni $end
$var wire 1 2 store_commit_i $end
$var wire 1 % store_mem_resp_i $end
$var reg 32 p dummy_data [31:0] $end
$var reg 3 q load_memreq_state [2:0] $end
$var reg 2 r load_req_state [1:0] $end
$var reg 2 s store_req_state [1:0] $end
$var reg 1 t tb_io_commit_i $end
$var reg 3 u tb_io_commit_tran_id_i [2:0] $end
$var reg 105 v tb_io_dcache_req_ports_i [104:0] $end
$var reg 111 w tb_io_fu_data_i [110:0] $end
$var reg 1 x tb_io_lsu_valid_i $end
$var reg 1 y x_load_mem_resp_i $end
$scope module lsu_i $end
$var wire 65 z amo_resp_i [64:0] $end
$var wire 1 Y amo_valid_commit_i $end
$var wire 1 Z asid_i $end
$var wire 1 [ asid_to_be_flushed_i $end
$var wire 1 ) clk_i $end
$var wire 1 \ commit_i $end
$var wire 3 { commit_tran_id_i [2:0] $end
$var wire 105 | dcache_req_ports_i [104:0] $end
$var wire 1 ] dcache_wbuffer_empty_i $end
$var wire 1 ^ dcache_wbuffer_not_ni_i $end
$var wire 1 } dtlb_hit $end
$var wire 1 _ dtlb_miss_o $end
$var wire 1 ` en_ld_st_translation_i $end
$var wire 1 a enable_translation_i $end
$var wire 1 b flush_i $end
$var wire 1 c flush_tlb_i $end
$var wire 111 ~ fu_data_i [110:0] $end
$var wire 33 !" icache_areq_i [32:0] $end
$var wire 1 e itlb_miss_o $end
$var wire 2 "" ld_st_priv_lvl_i [1:0] $end
$var wire 2 #" load_state_o [1:0] $end
$var wire 1 x lsu_valid_i $end
$var wire 65 $" mmu_exception [64:0] $end
$var wire 1 g mxr_i $end
$var wire 512 %" pmpaddr_i [511:0] $end
$var wire 128 &" pmpcfg_i [127:0] $end
$var wire 2 '" priv_lvl_i [1:0] $end
$var wire 1 + rst_ni $end
$var wire 22 (" satp_ppn_i [21:0] $end
$var wire 32 )" st_result [31:0] $end
$var wire 8 *" store_state_o [7:0] $end
$var wire 1 l sum_i $end
$var wire 32 +" vaddr_i [31:0] $end
$var wire 32 ," vaddr_to_be_flushed_i [31:0] $end
$var reg 1 -" data_misaligned $end
$var reg 1 ." ld_valid_i $end
$var reg 65 /" misaligned_exception [64:0] $end
$var reg 34 0" mmu_paddr [33:0] $end
$var reg 32 1" mmu_vaddr [31:0] $end
$var reg 1 2" st_valid_i $end
$var reg 1 3" translation_req $end
$var reg 1 4" translation_valid $end
$scope function ariane_pkg_be_gen $end
$upscope $end
$scope function ariane_pkg_be_gen_32 $end
$upscope $end
$scope function ariane_pkg_extract_transfer_size $end
$upscope $end
$scope begin gen_no_mmu $end
$upscope $end
$scope module i_load_unit $end
$var wire 1 ) clk_i $end
$var wire 3 5" commit_tran_id_i [2:0] $end
$var wire 1 ^ dcache_wbuffer_not_ni_i $end
$var wire 1 } dtlb_hit_i $end
$var wire 22 6" dtlb_ppn_i [21:0] $end
$var wire 65 7" ex_i [64:0] $end
$var wire 1 b flush_i $end
$var wire 1 8" inflight_stores $end
$var wire 34 9" paddr_i [33:0] $end
$var wire 1 :" paddr_ni $end
$var wire 35 ;" req_port_i [34:0] $end
$var wire 1 + rst_ni $end
$var wire 1 <" sign_bit $end
$var wire 1 =" stall_ni $end
$var wire 1 >" sv2v_tmp_52ECA [1:1] $end
$var wire 32 ?" sv2v_tmp_82AC4 [32:1] $end
$var wire 1 ." valid_i $end
$var reg 65 @" ex_o [64:0] $end
$var reg 1 A" fp_sign_q $end
$var reg 2 B" idx_q [1:0] $end
$var reg 13 C" load_data_d [12:0] $end
$var reg 13 D" load_data_q [12:0] $end
$var reg 1 E" pop_ld_o $end
$var reg 77 F" req_port_o [76:0] $end
$var reg 32 G" result_o [31:0] $end
$var reg 1 H" signed_q $end
$var reg 4 I" state_d [3:0] $end
$var reg 4 J" state_q [3:0] $end
$var reg 3 K" trans_id_o [2:0] $end
$var reg 1 L" translation_req_o $end
$var reg 1 M" valid_o $end
$scope function ariane_pkg_extract_transfer_size $end
$upscope $end
$scope function ariane_pkg_is_inside_nonidempotent_regions $end
$scope begin sv2v_autoblock_1 $end
$upscope $end
$upscope $end
$scope function ariane_pkg_range_check $end
$upscope $end
$scope function sv2v_cast_65 $end
$upscope $end
$scope begin gen_sign_bits[0] $end
$upscope $end
$scope begin gen_sign_bits[1] $end
$upscope $end
$scope begin gen_sign_bits[2] $end
$upscope $end
$scope begin gen_sign_bits[3] $end
$upscope $end
$scope begin load_control $end
$upscope $end
$scope begin p_regs $end
$upscope $end
$scope begin rvalid_output $end
$upscope $end
$upscope $end
$scope module i_pipe_reg_load $end
$var wire 1 ) clk_i $end
$var wire 101 N" d_i [100:0] $end
$var wire 1 + rst_ni $end
$var reg 101 O" d_o [100:0] $end
$scope begin genblk1 $end
$upscope $end
$upscope $end
$scope module i_pipe_reg_store $end
$var wire 1 ) clk_i $end
$var wire 101 P" d_i [100:0] $end
$var wire 1 + rst_ni $end
$var reg 101 Q" d_o [100:0] $end
$scope begin genblk1 $end
$upscope $end
$upscope $end
$scope module i_store_unit $end
$var wire 1 R" amo_buffer_ready $end
$var wire 1 S" amo_buffer_valid $end
$var wire 65 T" amo_resp_i [64:0] $end
$var wire 1 Y amo_valid_commit_i $end
$var wire 1 ) clk_i $end
$var wire 1 \ commit_i $end
$var wire 1 } dtlb_hit_i $end
$var wire 65 U" ex_i [64:0] $end
$var wire 1 b flush_i $end
$var wire 34 V" paddr_i [33:0] $end
$var wire 12 W" page_offset_i [11:0] $end
$var wire 35 X" req_port_i [34:0] $end
$var wire 32 Y" result_o [31:0] $end
$var wire 1 + rst_ni $end
$var wire 1 Z" st_ready $end
$var wire 2 [" state_q_0 [1:0] $end
$var wire 2 \" state_q_1 [1:0] $end
$var wire 2 ]" state_q_2 [1:0] $end
$var wire 2 ^" state_q_3 [1:0] $end
$var wire 1 _" store_buffer_valid $end
$var wire 8 `" store_state_o [7:0] $end
$var wire 1 2" valid_i $end
$var wire 32 a" vaddr_o [31:0] $end
$var wire 3 b" trans_id_o [2:0] $end
$var wire 1 c" store_buffer_ready $end
$var wire 1 d" store_buffer_empty_o $end
$var wire 77 e" req_port_o [76:0] $end
$var wire 1 f" page_offset_matches_o $end
$var wire 1 g" no_st_pending_o $end
$var wire 85 h" lsu_ctrl_i [84:0] $end
$var wire 1 i" instr_is_amo $end
$var wire 1 j" commit_ready_o $end
$var wire 135 k" amo_req_o [134:0] $end
$var reg 4 l" amo_op_d [3:0] $end
$var reg 4 m" amo_op_q [3:0] $end
$var reg 65 n" ex_o [64:0] $end
$var reg 1 o" pop_st_o $end
$var reg 4 p" st_be_n [3:0] $end
$var reg 4 q" st_be_q [3:0] $end
$var reg 32 r" st_data_n [31:0] $end
$var reg 32 s" st_data_q [31:0] $end
$var reg 2 t" st_data_size_n [1:0] $end
$var reg 2 u" st_data_size_q [1:0] $end
$var reg 1 v" st_valid $end
$var reg 1 w" st_valid_without_flush $end
$var reg 2 x" state_d [1:0] $end
$var reg 2 y" state_q [1:0] $end
$var reg 3 z" trans_id_n [2:0] $end
$var reg 3 {" trans_id_q [2:0] $end
$var reg 1 |" translation_req_o $end
$var reg 1 }" valid_o $end
$scope function ariane_pkg_data_align $end
$upscope $end
$scope function ariane_pkg_extract_transfer_size $end
$upscope $end
$scope function ariane_pkg_is_amo $end
$upscope $end
$scope module i_amo_buffer $end
$var wire 72 ~" amo_data_out [71:0] $end
$var wire 4 !# amo_op_i [3:0] $end
$var wire 65 "# amo_resp_i [64:0] $end
$var wire 1 ## amo_valid $end
$var wire 1 Y amo_valid_commit_i $end
$var wire 1 ) clk_i $end
$var wire 32 $# data_i [31:0] $end
$var wire 2 %# data_size_i [1:0] $end
$var wire 1 &# flush_amo_buffer $end
$var wire 1 b flush_i $end
$var wire 34 '# paddr_i [33:0] $end
$var wire 1 R" ready_o $end
$var wire 1 + rst_ni $end
$var wire 1 S" valid_i $end
$var wire 1 g" no_st_pending_i $end
$var wire 135 (# amo_req_o [134:0] $end
$var wire 72 )# amo_data_in [71:0] $end
$upscope $end
$scope module store_buffer_i $end
$var wire 4 *# be_i [3:0] $end
$var wire 1 ) clk_i $end
$var wire 1 \ commit_i $end
$var wire 32 +# data_i [31:0] $end
$var wire 2 ,# data_size_i [1:0] $end
$var wire 1 b flush_i $end
$var wire 34 -# paddr_i [33:0] $end
$var wire 12 .# page_offset_i [11:0] $end
$var wire 35 /# req_port_i [34:0] $end
$var wire 1 + rst_ni $end
$var wire 1 d" store_buffer_empty_o $end
$var wire 1 0# sv2v_tmp_80AC7 [1:1] $end
$var wire 1 1# sv2v_tmp_A682E [1:1] $end
$var wire 1 2# sv2v_tmp_F170F [1:1] $end
$var wire 1 _" valid_i $end
$var wire 1 w" valid_without_flush_i $end
$var wire 12 3# sv2v_tmp_9099D [12:1] $end
$var wire 4 4# sv2v_tmp_8DCF7 [4:1] $end
$var wire 22 5# sv2v_tmp_71805 [22:1] $end
$var wire 32 6# sv2v_tmp_6B7F3 [32:1] $end
$var wire 2 7# sv2v_tmp_51F0D [2:1] $end
$var wire 2 8# state_q_3 [1:0] $end
$var wire 2 9# state_q_2 [1:0] $end
$var wire 2 :# state_q_1 [1:0] $end
$var wire 2 ;# state_q_0 [1:0] $end
$var reg 292 <# commit_queue_n [291:0] $end
$var reg 292 =# commit_queue_q [291:0] $end
$var reg 2 ># commit_read_pointer_n [1:0] $end
$var reg 2 ?# commit_read_pointer_q [1:0] $end
$var reg 1 j" commit_ready_o $end
$var reg 3 @# commit_status_cnt_n [2:0] $end
$var reg 3 A# commit_status_cnt_q [2:0] $end
$var reg 2 B# commit_write_pointer_n [1:0] $end
$var reg 2 C# commit_write_pointer_q [1:0] $end
$var reg 1 g" no_st_pending_o $end
$var reg 1 f" page_offset_matches_o $end
$var reg 1 c" ready_o $end
$var reg 77 D# req_port_o [76:0] $end
$var reg 292 E# speculative_queue_n [291:0] $end
$var reg 292 F# speculative_queue_q [291:0] $end
$var reg 2 G# speculative_read_pointer_n [1:0] $end
$var reg 2 H# speculative_read_pointer_q [1:0] $end
$var reg 3 I# speculative_status_cnt_n [2:0] $end
$var reg 3 J# speculative_status_cnt_q [2:0] $end
$var reg 2 K# speculative_write_pointer_n [1:0] $end
$var reg 2 L# speculative_write_pointer_q [1:0] $end
$scope function sv2v_cast_79500 $end
$upscope $end
$scope begin core_if $end
$var reg 5 M# speculative_status_cnt [4:0] $end
$scope begin sv2v_autoblock_1 $end
$var reg 32 N# i [31:0] $end
$upscope $end
$upscope $end
$scope begin p_commit $end
$upscope $end
$scope begin p_spec $end
$upscope $end
$scope begin store_if $end
$var reg 5 O# commit_status_cnt [4:0] $end
$upscope $end
$scope begin sv2v_autoblock_2 $end
$var reg 2 P# _sv2v_jump [0:1] $end
$scope begin address_checker $end
$scope begin sv2v_autoblock_3 $end
$var reg 32 Q# i [31:0] $end
$scope begin sv2v_autoblock_4 $end
$var reg 32 R# _sv2v_value_on_break [31:0] $end
$upscope $end
$upscope $end
$scope begin sv2v_autoblock_5 $end
$var reg 32 S# i [31:0] $end
$scope begin sv2v_autoblock_6 $end
$var reg 32 T# _sv2v_value_on_break [31:0] $end
$upscope $end
$upscope $end
$upscope $end
$upscope $end
$upscope $end
$scope begin store_control $end
$upscope $end
$upscope $end
$scope module lsu_bypass_i $end
$var wire 1 ) clk_i $end
$var wire 1 b flush_i $end
$var wire 85 U# lsu_req_i [84:0] $end
$var wire 1 x lsu_req_valid_i $end
$var wire 1 E" pop_ld_i $end
$var wire 1 o" pop_st_i $end
$var wire 1 V# ready_o $end
$var wire 1 + rst_ni $end
$var wire 1 W# empty $end
$var reg 85 X# lsu_ctrl_o [84:0] $end
$var reg 170 Y# mem_n [169:0] $end
$var reg 170 Z# mem_q [169:0] $end
$var reg 1 [# read_pointer $end
$var reg 1 \# read_pointer_n $end
$var reg 1 ]# read_pointer_q $end
$var reg 2 ^# status_cnt [1:0] $end
$var reg 2 _# status_cnt_n [1:0] $end
$var reg 2 `# status_cnt_q [1:0] $end
$var reg 1 a# write_pointer $end
$var reg 1 b# write_pointer_n $end
$var reg 1 c# write_pointer_q $end
$scope begin output_assignments $end
$upscope $end
$scope begin sv2v_autoblock_1 $end
$upscope $end
$upscope $end
$scope begin data_misaligned_detection $end
$upscope $end
$scope begin which_op $end
$upscope $end
$upscope $end
$scope task load_commit $end
$var reg 3 d# commit_id [2:0] $end
$upscope $end
$scope task lower_load_request $end
$upscope $end
$scope task lower_store_request $end
$upscope $end
$scope task raise_load_request $end
$var reg 32 e# addr [31:0] $end
$var reg 3 f# commit_id [2:0] $end
$upscope $end
$scope task raise_store_request $end
$var reg 32 g# addr [31:0] $end
$var reg 3 h# commit_id [2:0] $end
$var reg 32 i# data [31:0] $end
$upscope $end
$scope task serve_store_1 $end
$upscope $end
$scope task serve_store_2 $end
$upscope $end
$scope task store_commit $end
$upscope $end
$scope task store_decommit $end
$upscope $end
$upscope $end
$upscope $end
$enddefinitions $end
#0
$dumpvars
bx i#
bx h#
bx g#
bx f#
bx e#
bx d#
xc#
xb#
xa#
bx `#
bx _#
bx ^#
x]#
x\#
x[#
bx Z#
bx Y#
bx X#
xW#
xV#
bx0000xxxxxxxxxxxxxxx U#
b11 T#
b100 S#
b11 R#
b100 Q#
b0 P#
b0xxx O#
bx N#
b0xxx M#
bx L#
bx K#
bx J#
bx I#
bx H#
bx G#
bx F#
bx E#
bx01xxxxxx00 D#
bx C#
bx B#
bx A#
bx @#
bx ?#
bx >#
bx =#
bx <#
bx ;#
bx :#
bx 9#
bx 8#
bx 7#
bx 6#
bx 5#
bx 4#
bx 3#
02#
01#
10#
b0xxxxxxxxxxxxxxxxxxxxxxxxxxxxxxxxxx /#
bx .#
b0xxxxxxxxxxxxxxxxxxxxxxxxxxxxxxxx -#
bx ,#
bx +#
bx *#
bx00xxxxxxxxxxxxxxxxxxxxxxxxxxxxxxxxxxxxxxxxxxxxxxxxxxxxxxxxxxxxxxxxxx )#
b0zzzzzz000000000000000000000000000000zzzzzzzzzzzzzzzzzzzzzzzzzzzzzzzzzz00000000000000000000000000000000zzzzzzzzzzzzzzzzzzzzzzzzzzzzzzzz (#
b0xxxxxxxxxxxxxxxxxxxxxxxxxxxxxxxx '#
0&#
bx %#
bx $#
z##
b0 "#
bx !#
bz ~"
0}"
0|"
bx {"
bx z"
bx y"
bx x"
0w"
0v"
bx u"
b11 t"
bx s"
b0 r"
bx q"
bx p"
0o"
b0 n"
bx m"
b0 l"
b0zzzzzz000000000000000000000000000000zzzzzzzzzzzzzzzzzzzzzzzzzzzzzzzzzz00000000000000000000000000000000zzzzzzzzzzzzzzzzzzzzzzzzzzzzzzzz k"
xj"
0i"
bx h"
xg"
0f"
bx01xxxxxx00 e"
xd"
xc"
bx b"
bx a"
bz `"
0_"
bz ^"
bz ]"
bz \"
bz ["
xZ"
b0 Y"
b0xxxxxxxxxxxxxxxxxxxxxxxxxxxxxxxxxx X"
bx W"
b0xxxxxxxxxxxxxxxxxxxxxxxxxxxxxxxx V"
b0 U"
b0 T"
0S"
zR"
b0xxx0000000000000000000000000000000000000000000000000000000000000000000000000000000000000000000000000 Q"
b0xxx0000000000000000000000000000000000000000000000000000000000000000000000000000000000000000000000000 P"
b0xxxxxxxxxxxxxxxxxxxxxxxxxxxxxxxxxxxxxxxxxxxxxxxxxxxxxxxxxxxxxxxxxxxxxxxxxxxxxxxxxxxxxxxxxxxxxxxxxxx0 O"
b0xxxxxxxxxxxxxxxxxxxxxxxxxxxxxxxxxxx00000000000000000000000000000000000000000000000000000000000000000 N"
0M"
0L"
bx K"
bx J"
bx I"
xH"
bx G"
bx00xxxxxxxxxxxxxxxxxxxx00000000000000000000000000000000x00xxxx1100 F"
0E"
bx D"
bx C"
bx B"
xA"
b0 @"
b0 ?"
0>"
0="
x<"
bx0 ;"
0:"
b0xxxxxxxxxxxxxxxxxxxxxxxxxxxxxxxx 9"
18"
b0 7"
bx 6"
bx 5"
x4"
x3"
x2"
bx 1"
b0xxxxxxxxxxxxxxxxxxxxxxxxxxxxxxxx 0"
b0 /"
x."
0-"
b0 ,"
bx +"
bz *"
b0 )"
b0 ("
b0 '"
b0 &"
b0 %"
b0 $"
bz #"
b0 ""
b0 !"
bx ~
1}
b0xxxxxxxxxxxxxxxxxxxxxxxxxxxxxxxxxxxxxxxxxxxxxxxxxxxxxxxxxxxxxxxxxxxx0xxxxxxxxxxxxxxxxxxxxxxxxxxxxxxxxxxx |
bx {
b0 z
xy
xx
bx w
b0xxxxxxxxxxxxxxxxxxxxxxxxxxxxxxxxxxxxxxxxxxxxxxxxxxxxxxxxxxxxxxxxxxxx0xxxxxxxxxxxxxxxxxxxxxxxxxxxxxxxxxxx v
bx u
xt
bx s
bx r
bx q
bx p
xo
bx n
b0 m
0l
b0 k
b0 j
b0 i
b0 h
0g
b0 f
0e
b0 d
0c
0b
0a
0`
0_
0^
0]
x\
0[
0Z
0Y
b0 X
xW
xV
xU
bx T
bx S
bx R
bx Q
bx P
bx O
bx N
bx M
bx L
bx K
bx J
bx I
bx H
xG
bx F
bx E
bx D
bx C
bx B
bx A
bx @
x?
x>
x=
x<
bx ;
bx :
x9
x8
bx 7
b1110010101 6
bx 5
bx 4
x3
x2
x1
x0
x/
bx .
x-
x,
1+
x*
1)
x(
bx '
b0 &
x%
x$
x#
x"
bx !
$end
#10
0)
#20
bx00000000000000000000 6"
18
b0 a"
b0 W"
b0 .#
b0 1"
03"
02"
0."
b0 p"
b0 z"
b0x0000001100 F"
0<"
b0x0100000000 e"
b0x0100000000 D#
1d"
b0 @#
b0 <#
b0 B#
b0 >#
1g"
1j"
b0 O#
b0 ;#
b0 :#
b0 9#
b0 8#
b0 h"
b0 X#
b0 _#
0b#
0\#
b0 Y#
0[#
0a#
b0 ^#
b0 G"
b0 N"
b0 K"
b0 C"
b0 I"
b0 x"
b11 T#
b100 S#
b11 R#
b100 Q#
b0 E#
b0 K#
b0 G#
b0 I#
1Z"
1c"
b0 M#
b1 &
0A"
0H"
b0 B"
b0 A#
b0 C#
b0 3#
b0 5#
b0 6#
b0 4#
b0 7#
b0 ?#
b0 =#
b0 J#
b0 L#
b0 H#
b0 F#
0>
0W
0?
0V
0=
0U
0<
b0 T
b0 ;
19
1G
b0 @
b0 E
b0 D
b0 F
b0 S
b0 R
b0 Q
b0 P
b0 O
b0 M
b0 K
b0 I
b0 N
b0 L
b0 J
b0 H
b0 C
b0 B
b0 A
b0 :
0]#
0c#
1o
1V#
1W#
b0 `#
b0 Z#
b0 Q"
b0 O"
b0 D"
b0 J"
b0 m"
b0 !#
b0 P"
b0 b"
b0 {"
b0 u"
b0 %#
b0 ,#
b0 s"
b0 $#
b0 +#
b0 q"
b0 *#
b0 y"
04"
b0 )#
b0 0"
b0 9"
b0 V"
b0 '#
b0 -#
b0 +"
b0 X"
b0 /#
b0 ;"
b0 s
b0 r
b0 q
b11011110101011011011111011101111 p
0y
b0 U#
0x
b0 w
b0 ~
b0 u
b0 {
b0 5"
0t
b0 v
b0 |
1)
0\
02
0%
03
0$
01
0"
0/
b0 !
b0 7
b0 n
b0 .
b0 4
0(
0-
0,
0*
0+
#30
0)
#40
b10 &
1)
#50
0)
#60
b110010101101 ;
1<
1=
b1 :
b11 )#
b11 u"
b11 %#
b11 ,#
b11 &
b1111 p"
b110010101101 1"
13"
b11 T#
b100 S#
b11 R#
b100 Q#
b1 I"
1L"
b1101111010101101101111101110111100000000000000000000000000000000000000000000000000000000000000000 N"
b11011110101011011011111011101111 G"
b110010101101 a"
b110010101101 W"
b110010101101 .#
1."
b100000000000000000000001100101011011 /"
1-"
b10 t"
b1 z"
b110010101101000000000000000000000000000000000000000000000000000000x1011111000 F"
b1000000000000000000001100101011010000000000000000000000000000000001111000100100101001 h"
b1000000000000000000001100101011010000000000000000000000000000000001111000100100101001 X#
b1 _#
1b#
b1 ^#
1a#
b1000000000000000000001100101011010000000000000000000000000000000001111000100100101001 Y#
b110010101101 +"
b110111101010110110111110111011110 ;"
b1 r
b1000000000000000000001100101011010000000000000000000000000000000001111000100100101001 U#
1x
b100100101000000000000000000001100101011010000000000000000000000000000000000000000000000000000000000000000001 w
b100100101000000000000000000001100101011010000000000000000000000000000000000000000000000000000000000000000001 ~
b1 f#
b110010101101 e#
b11011110101011011011111011101111000000000000000000000000000000000000 v
b11011110101011011011111011101111000000000000000000000000000000000000 |
1)
1+
b11 4
1*
1"
1/
1#
10
b110010101101 !
b110010101101 7
b110010101101 n
b110010101101 .
b110010101101 '
1(
b11110001100110111101010010 6
b0 5
#70
0)
#80
b11 T#
b100 S#
b11 R#
b100 Q#
14"
b110010101101 0"
b110010101101 9"
b110010101101 V"
b110010101101 '#
b110010101101 -#
b1100101011010000000000000000000000000000000010 )#
b10 u"
b10 %#
b10 ,#
b10000000000000000000000000000000000000000000000000000000000000000000000000000000000000000000000000 P"
b1 b"
b1 {"
b1111 q"
b1111 *#
b1 J"
b1101111010101101101111101110111100000000000000000000000000000000000000000000000000000000000000000 O"
1c#
0o
0V#
0W#
b1 `#
b1000000000000000000001100101011010000000000000000000000000000000001111000100100101001 Z#
b110010101101 T
b0 ;
1U
0<
1V
09
0G
b1 C
b110010101101 A
b10 :
b100 &
b110010101101 1"
13"
1."
1-"
b100000000000000000000001100101011011 /"
b110010101101000000000000000000000000000000000000000000000000000000x1011111000 F"
1L"
b1 I"
b1000000000000000000001100101011010000000000000000000000000000000001111000100100101001 h"
b1000000000000000000001100101011010000000000000000000000000000000001111000100100101001 X#
b1 _#
1b#
b1000000000000000000001100101011010000000000000000000000000000000001111000100100101001 Y#
1a#
b1 ^#
b1 @
b10 r
b1 u
b1 {
b1 5"
b1 d#
b1100101011010000000000000000000000000000000001111000100100101001 U#
0x
1)
b0 !
b0 7
b0 n
b0 .
0"
0/
b10 4
b10001000111000000100111010101011 6
b1 5
#90
0)
#100
b0 T
0U
b11 :
b10000000000000000000000000000000000000000000000000000000000000000000000000000000000000000000000000 Q"
b101 &
b0 r
b0 u
b0 {
b0 5"
b0 d#
1)
b1 4
0(
b1001110010010001010110111110000 6
b10 5
#110
0)
#120
b100 :
b110 &
1)
b0 4
1(
b1110111110000111100100110001 6
b11 5
#130
0)
#140
1?
b101 :
b111 &
b10000000000000000000000000000000000 X"
b10000000000000000000000000000000000 /#
b100000000000000000000000000000000000011011110101011011011111011101111000000000000000000000000000000000000 v
b100000000000000000000000000000000000011011110101011011011111011101111000000000000000000000000000000000000 |
1)
b11 4
1%
13
0(
b10100010100011000100100111110 6
b100 5
#150
0)
#160
1W
0?
b110 :
b1000 &
b0 X"
b0 /#
b11011110101011011011111011101111000000000000000000000000000000000000 v
b11011110101011011011111011101111000000000000000000000000000000000000 |
1)
0%
03
b10 4
1(
b11110010100000010000110010100111 6
b101 5
#170
0)
#180
0W
b111 :
b1001 &
1)
b1 4
b11001011101000101001110010111100 6
b110 5
#190
0)
#200
b1000 :
b1010 &
1)
b0 4
b11101111111010010000111010001101 6
b111 5
#210
0)
#220
1>
b1001 :
1y
b1011 &
b0 _#
1\#
b0 ^#
1[#
b1100101011010000000000000000000000000000000001111000100100101001 Y#
b10100100101 C"
1E"
b10 I"
b110010101101000000000000000000000000000000000000000000000000000000x1011111000 F"
1L"
b10110111101010110110111110111011110 ;"
b1011011110101011011011111011101111000000000000000000000000000000000000 v
b1011011110101011011011111011101111000000000000000000000000000000000000 |
1)
b11 4
0*
1$
11
b1111010101100111111101010 6
b1000 5
#230
0)
#240
1<"
b110010101101 1"
13"
0."
0-"
b0 /"
b110111101010110110111110 G"
b1 K"
b1100101011010000000000000000000000000000000001111000100100101001 h"
b1100101011010000000000000000000000000000000001111000100100101001 X#
1H"
b1 B"
b10100100101 D"
b10 J"
1]#
1o
1V#
1W#
b0 `#
b1100101011010000000000000000000000000000000001111000100100101001 Z#
0>
b10 C
19
1G
b1010 :
0y
b1100 &
b0 _#
1\#
b1100101011010000000000000000000000000000000001111000100100101001 Y#
1[#
b0 ^#
b10010000000011011110101011011011111000000000000000000000000000000000000000000000000000000000000000000 N"
1M"
0E"
b110010101101000000000000000000000000000000000000000000000000000000x0011111001 F"
0L"
b10100100101 C"
b0 I"
b1110111101010110110111110111011110 ;"
b111011110101011011011111011101111000000000000000000000000000000000000 v
b111011110101011011011111011101111000000000000000000000000000000000000 |
1)
0$
01
b10 4
b1000101100000010110000001100011 6
b1001 5
#250
0)
#260
b0 C
b1011 :
b10010000000011011110101011011011111000000000000000000000000000000000000000000000000000000000000000000 O"
b0 J"
b1101 &
b10000000011011110101011011011111000000000000000000000000000000000000000000000000000000000000000000 N"
0M"
b110010101101000000000000000000000000000000000000000000000000000000x0011111000 F"
b0 I"
b110111101010110110111110111011110 ;"
b11011110101011011011111011101111000000000000000000000000000000000000 v
b11011110101011011011111011101111000000000000000000000000000000000000 |
1)
b1 4
b10011010111000100011011001001000 6
b1010 5
#270
0)
#280
b10000000011011110101011011011111000000000000000000000000000000000000000000000000000000000000000000 O"
b1100 :
b1110 &
1)
b0 4
0(
b10111010001011110001111110101001 6
b1011 5
#290
0)
