cva6-model-runs/tlb_traces/test_15/tlb_wave_pipeline.vcd
$date
	Tue Jan 23 15:27:18 2024
$end
$version
	Icarus Verilog
$end
$timescale
	1s
$end
$scope module tlb_tb $end
$var wire 32 ! cdata [31:0] $end
$var wire 1 " de_io_flush_i $end
$var wire 1 # de_io_lu_access_i $end
$var wire 1 $ de_io_lu_asid_i $end
$var wire 32 % de_io_lu_vaddr_i [31:0] $end
$var wire 31 & tdata [30:0] $end
$var wire 32 ' de_io_vaddr_to_be_flushed_i [31:0] $end
$var wire 63 ( de_io_update_i [62:0] $end
$var wire 1 ) de_io_lu_is_4M_o $end
$var wire 1 * de_io_lu_hit_o $end
$var wire 32 + de_io_lu_content_o [31:0] $end
$var wire 1 , de_io_asid_to_be_flushed_i $end
$var reg 32 - CLK_CYCLE [31:0] $end
$var reg 9 . asid [8:0] $end
$var reg 2 / choice [1:0] $end
$var reg 1 0 clk $end
$var reg 32 1 edata [31:0] $end
$var reg 1 2 reset $end
$var reg 1 , tb_io_asid_to_be_flushed_i $end
$var reg 1 3 tb_io_flush_i $end
$var reg 1 4 tb_io_lu_access_i $end
$var reg 1 5 tb_io_lu_asid_i $end
$var reg 32 6 tb_io_lu_vaddr_i [31:0] $end
$var reg 63 7 tb_io_update_i [62:0] $end
$var reg 32 8 tb_io_vaddr_to_be_flushed_i [31:0] $end
$var reg 20 9 vpn [19:0] $end
$var integer 32 : i [31:0] $end
$var integer 32 ; seed [31:0] $end
$scope module tlb_i $end
$var wire 1 , asid_to_be_flushed_i $end
$var wire 1 < asid_to_be_flushed_is0 $end
$var wire 1 0 clk_i $end
$var wire 1 " flush_i $end
$var wire 1 # lu_access_i $end
$var wire 1 $ lu_asid_i $end
$var wire 32 = lu_vaddr_i [31:0] $end
$var wire 128 > port_content_q_o [127:0] $end
$var wire 4 ? port_replace_en_o [3:0] $end
$var wire 124 @ port_tags_q_o [123:0] $end
$var wire 1 2 rst_ni $end
$var wire 63 A update_i [62:0] $end
$var wire 32 B vaddr_to_be_flushed_i [31:0] $end
$var wire 1 C vaddr_to_be_flushed_is0 $end
$var wire 31 D tdata [30:0] $end
$var wire 31 E tags_q_3 [30:0] $end
$var wire 31 F tags_q_2 [30:0] $end
$var wire 31 G tags_q_1 [30:0] $end
$var wire 31 H tags_q_0 [30:0] $end
$var wire 32 I content_q_3 [31:0] $end
$var wire 32 J content_q_2 [31:0] $end
$var wire 32 K content_q_1 [31:0] $end
$var wire 32 L content_q_0 [31:0] $end
$var wire 32 M cdata [31:0] $end
$var reg 128 N content_n [127:0] $end
$var reg 128 O content_q [127:0] $end
$var reg 32 P lu_content_o [31:0] $end
$var reg 4 Q lu_hit [3:0] $end
$var reg 1 * lu_hit_o $end
$var reg 1 ) lu_is_4M_o $end
$var reg 6 R plru_tree_n [5:0] $end
$var reg 6 S plru_tree_q [5:0] $end
$var reg 4 T replace_en [3:0] $end
$var reg 124 U tags_n [123:0] $end
$var reg 124 V tags_q [123:0] $end
$var reg 4 W vaddr_vpn0_match [3:0] $end
$var reg 4 X vaddr_vpn1_match [3:0] $end
$var reg 10 Y vpn0 [9:0] $end
$var reg 10 Z vpn1 [9:0] $end
$scope function countSetBits $end
$var reg 32 [ count [31:0] $end
$var reg 32 \ countSetBits [31:0] $end
$var reg 4 ] vector [3:0] $end
$scope begin sv2v_autoblock_9 $end
$var integer 32 ^ idx [31:0] $end
$upscope $end
$upscope $end
$scope begin p_assertions $end
$upscope $end
$scope begin plru_replacement $end
$scope begin sv2v_autoblock_3 $end
$var reg 32 _ i [31:0] $end
$scope begin sv2v_autoblock_4 $end
$var reg 32 ` idx_base [31:0] $end
$var reg 32 a new_index [31:0] $end
$var reg 32 b shift [31:0] $end
$scope begin sv2v_autoblock_5 $end
$var reg 32 c lvl [31:0] $end
$upscope $end
$upscope $end
$upscope $end
$scope begin sv2v_autoblock_6 $end
$var reg 32 d i [31:0] $end
$scope begin sv2v_autoblock_7 $end
$var reg 1 e en $end
$var reg 32 f idx_base [31:0] $end
$var reg 32 g new_index [31:0] $end
$var reg 32 h shift [31:0] $end
$scope begin sv2v_autoblock_8 $end
$var reg 32 i lvl [31:0] $end
$upscope $end
$upscope $end
$upscope $end
$upscope $end
$scope begin translation $end
$scope begin sv2v_autoblock_1 $end
$var reg 32 j i [31:0] $end
$upscope $end
$upscope $end
$scope begin update_flush $end
$scope begin sv2v_autoblock_2 $end
$var reg 32 k i [31:0] $end
$upscope $end
$upscope $end
$upscope $end
$scope task make_tlb_flush $end
$var reg 9 l asid [8:0] $end
$var reg 20 m vpn [19:0] $end
$upscope $end
$scope task make_tlb_lookup $end
$var reg 9 n asid [8:0] $end
$var reg 20 o vpn [19:0] $end
$upscope $end
$scope task make_tlb_update $end
$var reg 9 p asid [8:0] $end
$var reg 32 q entry_data [31:0] $end
$var reg 20 r vpn [19:0] $end
$upscope $end
$upscope $end
$enddefinitions $end
#0
$dumpvars
bx r
bx q
bx p
bx o
bx n
bx m
bx l
bx k
bx j
bx i
bx h
bx g
bx f
xe
bx d
bx c
bx b
bx a
bx `
bx _
bx ^
bx ]
bx \
bx [
bx Z
bx Y
bx X
bx W
bx V
bx U
bx T
bx S
bx R
bx Q
bx P
bx O
bx N
b0xxxxxxxxxxxxxxxxxxxxxxxxxxxxxx1 M
bx L
bx K
bx J
bx I
bx H
bx G
bx F
bx E
bx D
xC
bx B
bx A
bx @
bx ?
bx >
bx =
x<
b1001011101 ;
bx :
bx 9
bx 8
bx 7
bx 6
x5
x4
x3
12
bx 1
10
bx /
bx .
b0 -
x,
bx +
x*
x)
bx (
bx '
bx01 &
bx %
x$
x#
x"
bx !
$end
#10
00
#20
b1 ?
b1 T
b1 g
b1 h
b1 f
b10 i
0e
b100 d
b100 _
b0 R
b0 L
b0 K
b0 J
b0 I
b100 k
b0 N
b0 U
b100 j
0)
b0 +
b0 P
0*
b0 Q
b0 H
b0 G
b0 F
b0 E
b1 -
b0 S
b0 >
b0 O
b0 @
b0 V
10
02
#30
00
#40
b10 -
10
#50
00
#60
b11 -
10
b1111101000100000100111111111010 !
b1111101000100000100111111111010 1
b11011001111000000100 9
b11111101000100000100110010110011 ;
b11101100111100000010001 &
b1 .
12
#70
00
#80
b100 -
b0 D
1C
1<
b100 j
b0 Z
b0 Y
b1111 X
b1111 W
b100 k
b1 M
10
b1000110101110111111100010001 !
b1000110101110111111100010001 1
b11111110110111111100001 &
b11111101101111111000 9
b0 '
b0 8
b0 B
0,
1"
13
0$
05
b0 %
b0 =
b0 6
b0 (
b0 7
b0 A
b0 l
b0 m
b1 /
b10001000110101110111110111100110 ;
b0 :
#90
00
#100
b101 -
0C
b0 X
b0 W
b100 k
0<
10
b10110000110001110001100001100001 !
b10110000110001110001100001100001 1
b11100001111010101101101 &
b11000011110101011011 9
b11111101101111111000000000000000 '
b11111101101111111000000000000000 8
b11111101101111111000000000000000 B
1,
b1 l
b11111101101111111000 m
b11 /
b110000110001110001011001010101 ;
b1 :
#110
00
#120
b110 -
b100 k
10
b11000011010001111000100010000110 !
b11000011010001111000100010000110 1
b10110110100010001101001 &
b1101101000100011010 9
b11000011110101011011000000000000 '
b11000011110101011011000000000000 8
b11000011110101011011000000000000 B
b11000011110101011011 m
b1000011010001111000011110110000 ;
b10 :
#130
00
#140
b111 -
b100 k
10
b11100011000011010111101011000110 !
b11100011000011010111101011000110 1
b10000111010110100011101 &
b1110101101000111 9
b1101101000100011010000000000000 '
b1101101000100011010000000000000 8
b1101101000100011010000000000000 B
b1101101000100011010 m
b1100011000011010111100101100111 ;
b11 :
#150
00
#160
b11100011000011010111101011000110 L
b100 j
b10000111010110100011101 H
b11100011000011010111101011000110 >
b11100011000011010111101011000110 O
b10000111010110100011101 @
b10000111010110100011101 V
b1000 -
b1100011000011010111101011000110 D
1C
1<
b11100011000011010111101011000110 N
b10000111010110100011101 U
b1110 X
b1110 W
b100 k
b10000111010110100011101 M
10
b101010000010111000110101010100 !
b101010000010111000110101010100 1
b10110111110100010010101 &
b1101111101000100101 9
b0 '
b0 8
b0 B
0,
0"
03
b100000111010110100011100000000111100011000011010111101011000110 (
b100000111010110100011100000000111100011000011010111101011000110 7
b100000111010110100011100000000111100011000011010111101011000110 A
b11100011000011010111101011000110 q
b1 p
b1110101101000111 r
b0 /
b10101010000010111000101110101010 ;
b100 :
#170
00
#180
b1001 -
b0 D
b100 j
b110111110 Z
b1000100101 Y
b100 k
b1 M
10
b10000100111100101001100000001001 !
b10000100111100101001100000001001 1
b11010110010100101000101 &
b10101100101001010001 9
1$
15
b1101111101000100101000000000000 %
b1101111101000100101000000000000 =
b1101111101000100101000000000000 6
b0 (
b0 7
b0 A
b1 n
b1101111101000100101 o
b10 /
b100111100101001011001101001 ;
b101 :
#190
00
#200
b10000100111100101001100000001001 L
b11010110010100101000101 H
b10000100111100101001100000001001 >
b10000100111100101001100000001001 O
b11010110010100101000101 @
b11010110010100101000101 V
b1010 -
b100111100101001100000001001 D
b100 j
b0 Z
b0 Y
b10000100111100101001100000001001 N
b11010110010100101000101 U
b100 k
b11010110010100101000101 M
10
b1000001111100110001011110000011 !
b1000001111100110001011110000011 1
b10111100011011001100001 &
b1111000110110011000 9
0$
05
b0 %
b0 =
b0 6
b101010110010100101000100000000110000100111100101001100000001001 (
b101010110010100101000100000000110000100111100101001100000001001 7
b101010110010100101000100000000110000100111100101001100000001001 A
b10000100111100101001100000001001 q
b10101100101001010001 r
b0 /
b11000001111100110001010001010100 ;
b110 :
#210
00
#220
b1000001111100110001011110000011 L
b100 j
b10111100011011001100001 H
b1000001111100110001011110000011 >
b1000001111100110001011110000011 O
b10111100011011001100001 @
b10111100011011001100001 V
b1011 -
b1000001111100110001011110000011 D
b1000001111100110001011110000011 N
b10111100011011001100001 U
b100 k
b10111100011011001100001 M
10
b10101010011111000010101001010100 !
b10101010011111000010101001010100 1
b11110000010001001000001 &
b11100000100010010000 9
b100111100011011001100000000000101000001111100110001011110000011 (
b100111100011011001100000000000101000001111100110001011110000011 7
b100111100011011001100000000000101000001111100110001011110000011 A
b1000001111100110001011110000011 q
b1111000110110011000 r
b101010011111000010100111011011 ;
b111 :
#230
00
#240
b1100 -
b0 D
b100 j
b1110000010 Z
b10010000 Y
b100 k
b1 M
10
b1111010000100010111101111110100 !
b1111010000100010111101111110100 1
b10110101101001100000001 &
b1101011010011000000 9
1$
15
b11100000100010010000000000000000 %
b11100000100010010000000000000000 =
b11100000100010010000000000000000 6
b0 (
b0 7
b0 A
b11100000100010010000 o
b10 /
b11111010000100010111100000101110 ;
b1000 :
#250
00
#260
b1101 -
b100 j
b110101101 Z
b11000000 Y
10
b1101101101111001010111111011011 !
b1101101101111001010111111011011 1
b10010100000101110010001 &
b101000001011100100 9
b1101011010011000000000000000000 %
b1101011010011000000000000000000 =
b1101011010011000000000000000000 6
b1101011010011000000 o
b11101101101111001010110000111101 ;
b1001 :
#270
00
#280
b1110 -
b100 j
b10100000 Z
b1011100100 Y
10
b1110101100001100111101111101011 !
b1110101100001100111101111101011 1
b10100110000111101011101 &
b1001100001111010111 9
b101000001011100100000000000000 %
b101000001011100100000000000000 =
b101000001011100100000000000000 6
b101000001011100100 o
b11110101100001100111100110111000 ;
b1010 :
#290
00
#300
b10111100011011001100000 H
b10111100011011001100000 @
b10111100011011001100000 V
b1111 -
b10111100011011001100000 U
b100 k
b100 j
b0 Z
b0 Y
10
b1111010101000000111010111110101 !
b1111010101000000111010111110101 1
b10101010111101000101101 &
b1010101111010001011 9
1"
13
0$
05
b0 %
b0 =
b0 6
b0 l
b0 m
b1 /
b11111010101000000111001000001111 ;
b1011 :
#310
00
#320
b1111010101000000111010111110101 L
b100 j
b10101010111101000101101 H
b1111010101000000111010111110101 >
b1111010101000000111010111110101 O
b10101010111101000101101 @
b10101010111101000101101 V
b10000 -
b1111010101000000111010111110101 D
b1111010101000000111010111110101 N
b10101010111101000101101 U
b100 k
b10101010111101000101101 M
10
b10101010100010011110100001010101 !
b10101010100010011110100001010101 1
b11110001111111110001001 &
b11100011111111100010 9
0"
03
b100101010111101000101100000000101111010101000000111010111110101 (
b100101010111101000101100000000101111010101000000111010111110101 7
b100101010111101000101100000000101111010101000000111010111110101 A
b1111010101000000111010111110101 q
b1010101111010001011 r
b0 /
b101010100010011110011101110010 ;
b1100 :
#330
00
#340
b100 j
b10101010111101000101100 H
b10101010111101000101100 @
b10101010111101000101100 V
b10001 -
b0 D
b10101010111101000101100 U
b100 k
b1 M
10
b11100100011110011100110011001000 !
b11100100011110011100110011001000 1
b10101101011001100111101 &
b1011010110011001111 9
1"
13
b0 (
b0 7
b0 A
b1 /
b1100100011110011100101111010001 ;
b1101 :
#350
00
#360
b10010 -
10
b11101010011000100011110011010100 !
b11101010011000100011110011010100 1
b11101000010100100111001 &
b11010000101001001110 9
b1101010011000100011101111011100 ;
b1110 :
#370
00
#380
b10011 -
0C
b0 X
b0 W
b100 k
0<
10
b11000000101000010100100110000 !
b11000000101000010100100110000 1
b10100000011111110100101 &
b1000000111111101001 9
b11010000101001001110000000000000 '
b11010000101001001110000000000000 8
b11010000101001001110000000000000 B
1,
b1 l
b11010000101001001110 m
b11 /
b10011000000101000010011000000011 ;
b1111 :
#390
00
#400
b11000000101000010100100110000 L
b100 j
b10100000011111110100101 H
b11000000101000010100100110000 >
b11000000101000010100100110000 O
b10100000011111110100101 @
b10100000011111110100101 V
b10100 -
b11000000101000010100100110000 D
1C
1<
b1110 X
b1110 W
b11000000101000010100100110000 N
b10100000011111110100101 U
b100 k
b10100000011111110100101 M
10
b1010101011100011111100010101 !
b1010101011100011111100010101 1
b11000100010000001001101 &
b10001000100000010011 9
b0 '
b0 8
b0 B
0,
0"
03
b100100000011111110100100000000100011000000101000010100100110000 (
b100100000011111110100100000000100011000000101000010100100110000 7
b100100000011111110100100000000100011000000101000010100100110000 A
b11000000101000010100100110000 q
b1000000111111101001 r
b0 /
b10001010101011100011110101110110 ;
b10000 :
#410
00
#420
b1010101011100011111100010101 L
b100 j
b11000100010000001001101 H
b1010101011100011111100010101 >
b1010101011100011111100010101 O
b11000100010000001001101 @
b11000100010000001001101 V
b10101 -
b1010101011100011111100010101 D
b1010101011100011111100010101 N
b11000100010000001001101 U
b100 k
b11000100010000001001101 M
10
b10010000110101100010101000100001 !
b10010000110101100010101000100001 1
b11101010010110001110101 &
b11010100101100011101 9
b101000100010000001001100000000100001010101011100011111100010101 (
b101000100010000001001100000000100001010101011100011111100010101 7
b101000100010000001001100000000100001010101011100011111100010101 A
b1010101011100011111100010101 q
b10001000100000010011 r
b10000110101100010100100100101 ;
b10001 :
#430
00
#440
b10110 -
10
b10000100101110101101001110100010 ;
b10010 :
