riscv-sodor-model/verification/waveforms/sodor_formal_wave_pipeline.vcd
$date
	Sun Aug 21 22:05:18 2022
$end
$version
	Icarus Verilog
$end
$timescale
	1s
$end
$scope module sodor_formal_tb $end
$var wire 32 ! tb_in_io_imem_resp_bits_data [31:0] $end
$var wire 1024 " port_regfile [1023:0] $end
$var reg 32 # CLK_CYCLE [31:0] $end
$var reg 1 $ clk $end
$var reg 1 % reset $end
$scope module sf $end
$var wire 1 $ clk $end
$var wire 32 & fe_in_io_imem_resp_bits_data [31:0] $end
$var wire 32 ' \regfile[0] [31:0] $end
$var wire 32 ( \regfile[10] [31:0] $end
$var wire 32 ) \regfile[11] [31:0] $end
$var wire 32 * \regfile[12] [31:0] $end
$var wire 32 + \regfile[13] [31:0] $end
$var wire 32 , \regfile[14] [31:0] $end
$var wire 32 - \regfile[15] [31:0] $end
$var wire 32 . \regfile[16] [31:0] $end
$var wire 32 / \regfile[17] [31:0] $end
$var wire 32 0 \regfile[18] [31:0] $end
$var wire 32 1 \regfile[19] [31:0] $end
$var wire 32 2 \regfile[1] [31:0] $end
$var wire 32 3 \regfile[20] [31:0] $end
$var wire 32 4 \regfile[21] [31:0] $end
$var wire 32 5 \regfile[22] [31:0] $end
$var wire 32 6 \regfile[23] [31:0] $end
$var wire 32 7 \regfile[24] [31:0] $end
$var wire 32 8 \regfile[25] [31:0] $end
$var wire 32 9 \regfile[26] [31:0] $end
$var wire 32 : \regfile[27] [31:0] $end
$var wire 32 ; \regfile[28] [31:0] $end
$var wire 32 < \regfile[29] [31:0] $end
$var wire 32 = \regfile[2] [31:0] $end
$var wire 32 > \regfile[30] [31:0] $end
$var wire 32 ? \regfile[31] [31:0] $end
$var wire 32 @ \regfile[3] [31:0] $end
$var wire 32 A \regfile[4] [31:0] $end
$var wire 32 B \regfile[5] [31:0] $end
$var wire 32 C \regfile[6] [31:0] $end
$var wire 32 D \regfile[7] [31:0] $end
$var wire 32 E \regfile[8] [31:0] $end
$var wire 32 F \regfile[9] [31:0] $end
$var wire 1024 G port_regfile [1023:0] $end
$var reg 32 H alu_out_data [31:0] $end
$var reg 32 I branch_pc [31:0] $end
$var reg 3 J counter [2:0] $end
$var reg 3 K funct3 [2:0] $end
$var reg 7 L funct7 [6:0] $end
$var reg 32 M imm_data [31:0] $end
$var reg 1 N init $end
$var reg 7 O opcode [6:0] $end
$var reg 32 P pc [31:0] $end
$var reg 5 Q rd [4:0] $end
$var reg 1 R reset $end
$var reg 5 S rs1 [4:0] $end
$var reg 32 T rs1_data [31:0] $end
$var reg 5 U rs2 [4:0] $end
$var reg 32 V rs2_data [31:0] $end
$var integer 32 W i [31:0] $end
$scope function alu_compute_i $end
$var reg 32 X alu_compute_i [31:0] $end
$var reg 3 Y funct3 [2:0] $end
$var reg 32 Z imm_data [31:0] $end
$var reg 32 [ reg_data [31:0] $end
$upscope $end
$scope function alu_compute_r $end
$var reg 32 \ alu_compute_r [31:0] $end
$var reg 3 ] funct3 [2:0] $end
$var reg 7 ^ funct7 [6:0] $end
$var reg 32 _ rs1_data [31:0] $end
$var reg 32 ` rs2_data [31:0] $end
$upscope $end
$scope function branch_compute $end
$var reg 32 a branch_compute [31:0] $end
$var reg 3 b funct3 [2:0] $end
$var reg 32 c imm_data [31:0] $end
$var reg 32 d pc [31:0] $end
$var reg 32 e rs1 [31:0] $end
$var reg 32 f rs2 [31:0] $end
$upscope $end
$scope function get_b_imm $end
$var reg 32 g get_b_imm [31:0] $end
$var reg 32 h inst [31:0] $end
$upscope $end
$scope function get_funct3 $end
$var reg 3 i get_funct3 [2:0] $end
$var reg 32 j inst [31:0] $end
$upscope $end
$scope function get_funct7 $end
$var reg 7 k get_funct7 [6:0] $end
$var reg 32 l inst [31:0] $end
$upscope $end
$scope function get_i_imm $end
$var reg 32 m get_i_imm [31:0] $end
$var reg 32 n inst [31:0] $end
$upscope $end
$scope function get_opcode $end
$var reg 7 o get_opcode [6:0] $end
$var reg 32 p inst [31:0] $end
$upscope $end
$scope function get_rd $end
$var reg 5 q get_rd [4:0] $end
$var reg 32 r inst [31:0] $end
$upscope $end
$scope function get_rs1 $end
$var reg 5 s get_rs1 [4:0] $end
$var reg 32 t inst [31:0] $end
$upscope $end
$scope function get_rs2 $end
$var reg 5 u get_rs2 [4:0] $end
$var reg 32 v inst [31:0] $end
$upscope $end
$scope function get_s_imm $end
$var reg 32 w get_s_imm [31:0] $end
$var reg 32 x inst [31:0] $end
$upscope $end
$scope function sra $end
$var reg 64 y d [63:0] $end
$var reg 5 z shamt [4:0] $end
$var reg 32 { sra [31:0] $end
$upscope $end
$scope begin genblk1[0] $end
$upscope $end
$scope begin genblk1[1] $end
$upscope $end
$scope begin genblk1[2] $end
$upscope $end
$scope begin genblk1[3] $end
$upscope $end
$scope begin genblk1[4] $end
$upscope $end
$scope begin genblk1[5] $end
$upscope $end
$scope begin genblk1[6] $end
$upscope $end
$scope begin genblk1[7] $end
$upscope $end
$scope begin genblk1[8] $end
$upscope $end
$scope begin genblk1[9] $end
$upscope $end
$scope begin genblk1[10] $end
$upscope $end
$scope begin genblk1[11] $end
$upscope $end
$scope begin genblk1[12] $end
$upscope $end
$scope begin genblk1[13] $end
$upscope $end
$scope begin genblk1[14] $end
$upscope $end
$scope begin genblk1[15] $end
$upscope $end
$scope begin genblk1[16] $end
$upscope $end
$scope begin genblk1[17] $end
$upscope $end
$scope begin genblk1[18] $end
$upscope $end
$scope begin genblk1[19] $end
$upscope $end
$scope begin genblk1[20] $end
$upscope $end
$scope begin genblk1[21] $end
$upscope $end
$scope begin genblk1[22] $end
$upscope $end
$scope begin genblk1[23] $end
$upscope $end
$scope begin genblk1[24] $end
$upscope $end
$scope begin genblk1[25] $end
$upscope $end
$scope begin genblk1[26] $end
$upscope $end
$scope begin genblk1[27] $end
$upscope $end
$scope begin genblk1[28] $end
$upscope $end
$scope begin genblk1[29] $end
$upscope $end
$scope begin genblk1[30] $end
$upscope $end
$scope begin genblk1[31] $end
$upscope $end
$upscope $end
$upscope $end
$enddefinitions $end
#0
$dumpvars
bx {
bx z
bx y
bx x
bx w
bx v
bx u
bx t
bx s
bx r
bx q
bx p
bx o
bx n
bx m
bx l
bx k
bx j
bx i
bx h
bx g
bx f
bx e
bx d
bx c
bx b
bx a
bx `
bx _
bx ^
bx ]
bx \
bx [
bx Z
bx Y
bx X
b100000 W
bx V
bx U
bx T
bx S
1R
bx Q
b0 P
bx O
1N
bx M
bx L
bx K
b1 J
bx I
bx H
b0 G
b0 F
b0 E
b0 D
b0 C
b0 B
b0 A
b0 @
b0 ?
b0 >
b0 =
b0 <
b0 ;
b0 :
b0 9
b0 8
b0 7
b0 6
b0 5
b0 4
b0 3
b0 2
b0 1
b0 0
b0 /
b0 .
b0 -
b0 ,
b0 +
b0 *
b0 )
b0 (
b0 '
b100000000000010001010000011 &
1%
1$
b0 #
b0 "
b100000000000010001010000011 !
$end
#10
0$
#20
b1000000000001100010011 !
b1000000000001100010011 &
b1 #
0R
b10 J
b100000 W
1$
#30
0$
0%
#40
b100000000000010001010000011 !
b100000000000010001010000011 &
b11 J
b10 #
b100 P
b10 C
b10000000000000000000000000000000000000000000000000000000000000000000000000000000000000000000000000000000000000000000000000000000000000000000000000000000000000000000000000000000000000000000000000 "
b10000000000000000000000000000000000000000000000000000000000000000000000000000000000000000000000000000000000000000000000000000000000000000000000000000000000000000000000000000000000000000000000000 G
b10 H
b10 X
b0 [
b10 Z
b0 Y
b0 T
b0 K
b0 i
b1000000000001100010011 j
b110 Q
b110 q
b1000000000001100010011 r
b10 M
b10 m
b1000000000001100010011 n
b0 S
b0 s
b1000000000001100010011 t
b10011 O
b10011 o
b1000000000001100010011 p
1$
#50
0$
#60
b1000000000001100010011 !
b1000000000001100010011 &
b11 #
b100 J
b11 O
b11 o
b100000000000010001010000011 p
1$
#70
0$
#80
b100000000000010001010000011 !
b100000000000010001010000011 &
b101 J
b100 #
b1000 P
b10011 O
b10011 o
b1000000000001100010011 p
1$
#90
0$
#100
b1000000000001100010011 !
b1000000000001100010011 &
b101 #
b110 J
b11 O
b11 o
b100000000000010001010000011 p
1$
#110
0$
#120
b100000000000010001010000011 !
b100000000000010001010000011 &
b111 J
b110 #
b1100 P
b10011 O
b10011 o
b1000000000001100010011 p
1$
#130
0$
#140
b1000000000001100010011 !
b1000000000001100010011 &
b111 #
0N
b0 J
b11 O
b11 o
b100000000000010001010000011 p
1$
#150
0$
#160
b100000000000010001010000011 !
b100000000000010001010000011 &
b1 J
b1000 #
b10000 P
b10011 O
b10011 o
b1000000000001100010011 p
1$
#170
0$
#180
b1000000000001100010011 !
b1000000000001100010011 &
b1001 #
b10 J
b11 O
b11 o
b100000000000010001010000011 p
1$
#190
0$
#200
b100000000000010001010000011 !
b100000000000010001010000011 &
b11 J
b1010 #
b10100 P
b10011 O
b10011 o
b1000000000001100010011 p
1$
#210
0$
#220
b1000000000001100010011 !
b1000000000001100010011 &
b1011 #
b100 J
b11 O
b11 o
b100000000000010001010000011 p
1$
#230
0$
#240
b100000000000010001010000011 !
b100000000000010001010000011 &
b101 J
b1100 #
b11000 P
b10011 O
b10011 o
b1000000000001100010011 p
1$
#250
0$
#260
b1000000000001100010011 !
b1000000000001100010011 &
b1101 #
b110 J
b11 O
b11 o
b100000000000010001010000011 p
1$
#270
0$
#280
b100000000000010001010000011 !
b100000000000010001010000011 &
b111 J
b1110 #
b11100 P
b10011 O
b10011 o
b1000000000001100010011 p
1$
#290
0$
#300
b1000000000001100010011 !
b1000000000001100010011 &
b1111 #
b0 J
b11 O
b11 o
b100000000000010001010000011 p
1$
#310
0$
#320
b100000000000010001010000011 !
b100000000000010001010000011 &
b1 J
b10000 #
b100000 P
b10011 O
b10011 o
b1000000000001100010011 p
1$
#330
0$
#340
b1000000000001100010011 !
b1000000000001100010011 &
b10001 #
b10 J
b11 O
b11 o
b100000000000010001010000011 p
1$
#350
0$
#360
b100000000000010001010000011 !
b100000000000010001010000011 &
b11 J
b10010 #
b100100 P
b10011 O
b10011 o
b1000000000001100010011 p
1$
#370
0$
#380
b1000000000001100010011 !
b1000000000001100010011 &
b10011 #
b100 J
b11 O
b11 o
b100000000000010001010000011 p
1$
#390
0$
#400
b100000000000010001010000011 !
b100000000000010001010000011 &
b101 J
b10100 #
b101000 P
b10011 O
b10011 o
b1000000000001100010011 p
1$
#410
0$
#420
b1000000000001100010011 !
b1000000000001100010011 &
b10101 #
b110 J
b11 O
b11 o
b100000000000010001010000011 p
1$
#430
0$
#440
b100000000000010001010000011 !
b100000000000010001010000011 &
b111 J
b10110 #
b101100 P
b10011 O
b10011 o
b1000000000001100010011 p
1$
#450
0$
#460
b1000000000001100010011 !
b1000000000001100010011 &
b10111 #
b0 J
b11 O
b11 o
b100000000000010001010000011 p
1$
#470
0$
#480
b100000000000010001010000011 !
b100000000000010001010000011 &
b1 J
b11000 #
b110000 P
b10011 O
b10011 o
b1000000000001100010011 p
1$
#490
0$
#500
b1000000000001100010011 !
b1000000000001100010011 &
b11001 #
b10 J
b11 O
b11 o
b100000000000010001010000011 p
1$
#510
0$
#520
b100000000000010001010000011 !
b100000000000010001010000011 &
b11 J
b11010 #
b110100 P
b10011 O
b10011 o
b1000000000001100010011 p
1$
#530
0$
#540
b1000000000001100010011 !
b1000000000001100010011 &
b11011 #
b100 J
b11 O
b11 o
b100000000000010001010000011 p
1$
#550
0$
#560
b100000000000010001010000011 !
b100000000000010001010000011 &
b101 J
b11100 #
b111000 P
b10011 O
b10011 o
b1000000000001100010011 p
1$
#570
0$
#580
b1000000000001100010011 !
b1000000000001100010011 &
b11101 #
b110 J
b11 O
b11 o
b100000000000010001010000011 p
1$
#590
0$
#600
b100000000000010001010000011 !
b100000000000010001010000011 &
b111 J
b11110 #
b111100 P
b10011 O
b10011 o
b1000000000001100010011 p
1$
#610
0$
#620
b1000000000001100010011 !
b1000000000001100010011 &
b11111 #
b0 J
b11 O
b11 o
b100000000000010001010000011 p
1$
#630
0$
#640
b100000000000010001010000011 !
b100000000000010001010000011 &
b1 J
b100000 #
b1000000 P
b10011 O
b10011 o
b1000000000001100010011 p
1$
#650
0$
#660
b1000000000001100010011 !
b1000000000001100010011 &
b100001 #
b10 J
b11 O
b11 o
b100000000000010001010000011 p
1$
#670
0$
#680
b100000000000010001010000011 !
b100000000000010001010000011 &
b11 J
b100010 #
b1000100 P
b10011 O
b10011 o
b1000000000001100010011 p
1$
#690
0$
#700
b1000000000001100010011 !
b1000000000001100010011 &
b100011 #
b100 J
b11 O
b11 o
b100000000000010001010000011 p
1$
#710
0$
#720
b100000000000010001010000011 !
b100000000000010001010000011 &
b101 J
b100100 #
b1001000 P
b10011 O
b10011 o
b1000000000001100010011 p
1$
#730
0$
#740
b1000000000001100010011 !
b1000000000001100010011 &
b100101 #
b110 J
b11 O
b11 o
b100000000000010001010000011 p
1$
#750
0$
#760
b100000000000010001010000011 !
b100000000000010001010000011 &
b111 J
b100110 #
b1001100 P
b10011 O
b10011 o
b1000000000001100010011 p
1$
#770
0$
#780
b1000000000001100010011 !
b1000000000001100010011 &
b100111 #
b0 J
b11 O
b11 o
b100000000000010001010000011 p
1$
#790
0$
#800
b100000000000010001010000011 !
b100000000000010001010000011 &
b1 J
b101000 #
b1010000 P
b10011 O
b10011 o
b1000000000001100010011 p
1$
#810
0$
#820
b1000000000001100010011 !
b1000000000001100010011 &
b101001 #
b10 J
b11 O
b11 o
b100000000000010001010000011 p
1$
#830
0$
#840
b100000000000010001010000011 !
b100000000000010001010000011 &
b11 J
b101010 #
b1010100 P
b10011 O
b10011 o
b1000000000001100010011 p
1$
#850
0$
#860
b1000000000001100010011 !
b1000000000001100010011 &
b101011 #
b100 J
b11 O
b11 o
b100000000000010001010000011 p
1$
#870
0$
#880
b100000000000010001010000011 !
b100000000000010001010000011 &
b101 J
b101100 #
b1011000 P
b10011 O
b10011 o
b1000000000001100010011 p
1$
#890
0$
#900
b1000000000001100010011 !
b1000000000001100010011 &
b101101 #
b110 J
b11 O
b11 o
b100000000000010001010000011 p
1$
#910
0$
#920
b100000000000010001010000011 !
b100000000000010001010000011 &
b111 J
b101110 #
b1011100 P
b10011 O
b10011 o
b1000000000001100010011 p
1$
#930
0$
#940
b1000000000001100010011 !
b1000000000001100010011 &
b101111 #
b0 J
b11 O
b11 o
b100000000000010001010000011 p
1$
#950
0$
#960
b100000000000010001010000011 !
b100000000000010001010000011 &
b1 J
b110000 #
b1100000 P
b10011 O
b10011 o
b1000000000001100010011 p
1$
#970
0$
#980
b1000000000001100010011 !
b1000000000001100010011 &
b110001 #
b10 J
b11 O
b11 o
b100000000000010001010000011 p
1$
#990
0$
#1000
b100000000000010001010000011 !
b100000000000010001010000011 &
b11 J
b110010 #
b1100100 P
b10011 O
b10011 o
b1000000000001100010011 p
1$
#1010
0$
#1020
b1000000000001100010011 !
b1000000000001100010011 &
b110011 #
b100 J
b11 O
b11 o
b100000000000010001010000011 p
1$
#1030
0$
#1040
b100000000000010001010000011 !
b100000000000010001010000011 &
b101 J
b110100 #
b1101000 P
b10011 O
b10011 o
b1000000000001100010011 p
1$
#1050
0$
#1060
b1000000000001100010011 !
b1000000000001100010011 &
b110101 #
b110 J
b11 O
b11 o
b100000000000010001010000011 p
1$
#1070
0$
#1080
b100000000000010001010000011 !
b100000000000010001010000011 &
b111 J
b110110 #
b1101100 P
b10011 O
b10011 o
b1000000000001100010011 p
1$
#1090
0$
#1100
b1000000000001100010011 !
b1000000000001100010011 &
b110111 #
b0 J
b11 O
b11 o
b100000000000010001010000011 p
1$
#1110
0$
#1120
b100000000000010001010000011 !
b100000000000010001010000011 &
b1 J
b111000 #
b1110000 P
b10011 O
b10011 o
b1000000000001100010011 p
1$
#1130
0$
#1140
b1000000000001100010011 !
b1000000000001100010011 &
b111001 #
b10 J
b11 O
b11 o
b100000000000010001010000011 p
1$
#1150
0$
#1160
b100000000000010001010000011 !
b100000000000010001010000011 &
b11 J
b111010 #
b1110100 P
b10011 O
b10011 o
b1000000000001100010011 p
1$
#1170
0$
#1180
b1000000000001100010011 !
b1000000000001100010011 &
b111011 #
b100 J
b11 O
b11 o
b100000000000010001010000011 p
1$
#1190
0$
#1200
b100000000000010001010000011 !
b100000000000010001010000011 &
b101 J
b111100 #
b1111000 P
b10011 O
b10011 o
b1000000000001100010011 p
1$
#1210
0$
#1220
b1000000000001100010011 !
b1000000000001100010011 &
b111101 #
b110 J
b11 O
b11 o
b100000000000010001010000011 p
1$
#1230
0$
#1240
b100000000000010001010000011 !
b100000000000010001010000011 &
b111 J
b111110 #
b1111100 P
b10011 O
b10011 o
b1000000000001100010011 p
1$
#1250
0$
#1260
b1000000000001100010011 !
b1000000000001100010011 &
b111111 #
b0 J
b11 O
b11 o
b100000000000010001010000011 p
1$
#1270
0$
#1280
b100000000000010001010000011 !
b100000000000010001010000011 &
b1 J
b1000000 #
b10000000 P
b10011 O
b10011 o
b1000000000001100010011 p
1$
#1290
0$
#1300
b1000000000001100010011 !
b1000000000001100010011 &
b1000001 #
b10 J
b11 O
b11 o
b100000000000010001010000011 p
1$
#1310
0$
#1320
b100000000000010001010000011 !
b100000000000010001010000011 &
b11 J
b1000010 #
b10000100 P
b10011 O
b10011 o
b1000000000001100010011 p
1$
#1330
0$
#1340
b1000000000001100010011 !
b1000000000001100010011 &
b1000011 #
b100 J
b11 O
b11 o
b100000000000010001010000011 p
1$
#1350
0$
#1360
b100000000000010001010000011 !
b100000000000010001010000011 &
b101 J
b1000100 #
b10001000 P
b10011 O
b10011 o
b1000000000001100010011 p
1$
#1370
0$
#1380
b1000000000001100010011 !
b1000000000001100010011 &
b1000101 #
b110 J
b11 O
b11 o
b100000000000010001010000011 p
1$
#1390
0$
#1400
b100000000000010001010000011 !
b100000000000010001010000011 &
b111 J
b1000110 #
b10001100 P
b10011 O
b10011 o
b1000000000001100010011 p
1$
#1410
0$
#1420
b1000000000001100010011 !
b1000000000001100010011 &
b1000111 #
b0 J
b11 O
b11 o
b100000000000010001010000011 p
1$
#1430
0$
#1440
b100000000000010001010000011 !
b100000000000010001010000011 &
b1 J
b1001000 #
b10010000 P
b10011 O
b10011 o
b1000000000001100010011 p
1$
#1450
0$
#1460
b1000000000001100010011 !
b1000000000001100010011 &
b1001001 #
b10 J
b11 O
b11 o
b100000000000010001010000011 p
1$
#1470
0$
#1480
b100000000000010001010000011 !
b100000000000010001010000011 &
b11 J
b1001010 #
b10010100 P
b10011 O
b10011 o
b1000000000001100010011 p
1$
#1490
0$
#1500
b1000000000001100010011 !
b1000000000001100010011 &
b1001011 #
b100 J
b11 O
b11 o
b100000000000010001010000011 p
1$
#1510
0$
#1520
b100000000000010001010000011 !
b100000000000010001010000011 &
b101 J
b1001100 #
b10011000 P
b10011 O
b10011 o
b1000000000001100010011 p
1$
#1530
0$
#1540
b1000000000001100010011 !
b1000000000001100010011 &
b1001101 #
b110 J
b11 O
b11 o
b100000000000010001010000011 p
1$
#1550
0$
#1560
b100000000000010001010000011 !
b100000000000010001010000011 &
b111 J
b1001110 #
b10011100 P
b10011 O
b10011 o
b1000000000001100010011 p
1$
#1570
0$
#1580
b1000000000001100010011 !
b1000000000001100010011 &
b1001111 #
b0 J
b11 O
b11 o
b100000000000010001010000011 p
1$
#1590
0$
#1600
b100000000000010001010000011 !
b100000000000010001010000011 &
b1 J
b1010000 #
b10100000 P
b10011 O
b10011 o
b1000000000001100010011 p
1$
#1610
0$
#1620
b1000000000001100010011 !
b1000000000001100010011 &
b1010001 #
b10 J
b11 O
b11 o
b100000000000010001010000011 p
1$
#1630
0$
#1640
b100000000000010001010000011 !
b100000000000010001010000011 &
b11 J
b1010010 #
b10100100 P
b10011 O
b10011 o
b1000000000001100010011 p
1$
#1650
0$
#1660
b1000000000001100010011 !
b1000000000001100010011 &
b1010011 #
b100 J
b11 O
b11 o
b100000000000010001010000011 p
1$
#1670
0$
#1680
b100000000000010001010000011 !
b100000000000010001010000011 &
b101 J
b1010100 #
b10101000 P
b10011 O
b10011 o
b1000000000001100010011 p
1$
#1690
0$
#1700
b1000000000001100010011 !
b1000000000001100010011 &
b1010101 #
b110 J
b11 O
b11 o
b100000000000010001010000011 p
1$
#1710
0$
#1720
b100000000000010001010000011 !
b100000000000010001010000011 &
b111 J
b1010110 #
b10101100 P
b10011 O
b10011 o
b1000000000001100010011 p
1$
#1730
0$
#1740
b1000000000001100010011 !
b1000000000001100010011 &
b1010111 #
b0 J
b11 O
b11 o
b100000000000010001010000011 p
1$
#1750
0$
#1760
b100000000000010001010000011 !
b100000000000010001010000011 &
b1 J
b1011000 #
b10110000 P
b10011 O
b10011 o
b1000000000001100010011 p
1$
#1770
0$
#1780
b1000000000001100010011 !
b1000000000001100010011 &
b1011001 #
b10 J
b11 O
b11 o
b100000000000010001010000011 p
1$
#1790
0$
#1800
b100000000000010001010000011 !
b100000000000010001010000011 &
b11 J
b1011010 #
b10110100 P
b10011 O
b10011 o
b1000000000001100010011 p
1$
#1810
0$
#1820
b1000000000001100010011 !
b1000000000001100010011 &
b1011011 #
b100 J
b11 O
b11 o
b100000000000010001010000011 p
1$
#1830
0$
#1840
b100000000000010001010000011 !
b100000000000010001010000011 &
b101 J
b1011100 #
b10111000 P
b10011 O
b10011 o
b1000000000001100010011 p
1$
#1850
0$
#1860
b1000000000001100010011 !
b1000000000001100010011 &
b1011101 #
b110 J
b11 O
b11 o
b100000000000010001010000011 p
1$
#1870
0$
#1880
b100000000000010001010000011 !
b100000000000010001010000011 &
b111 J
b1011110 #
b10111100 P
b10011 O
b10011 o
b1000000000001100010011 p
1$
#1890
0$
#1900
b1000000000001100010011 !
b1000000000001100010011 &
b1011111 #
b0 J
b11 O
b11 o
b100000000000010001010000011 p
1$
#1910
0$
#1920
b100000000000010001010000011 !
b100000000000010001010000011 &
b1 J
b1100000 #
b11000000 P
b10011 O
b10011 o
b1000000000001100010011 p
1$
#1930
0$
#1940
b1000000000001100010011 !
b1000000000001100010011 &
b1100001 #
b10 J
b11 O
b11 o
b100000000000010001010000011 p
1$
#1950
0$
#1960
b100000000000010001010000011 !
b100000000000010001010000011 &
b11 J
b1100010 #
b11000100 P
b10011 O
b10011 o
b1000000000001100010011 p
1$
#1970
0$
#1980
b1000000000001100010011 !
b1000000000001100010011 &
b1100011 #
b100 J
b11 O
b11 o
b100000000000010001010000011 p
1$
#1990
0$
#2000
b100000000000010001010000011 !
b100000000000010001010000011 &
b101 J
b1100100 #
b11001000 P
b10011 O
b10011 o
b1000000000001100010011 p
1$
#2010
0$
#2020
b1000000000001100010011 !
b1000000000001100010011 &
b1100101 #
b110 J
b11 O
b11 o
b100000000000010001010000011 p
1$
