cva6-model-runs/tlb_traces/test_9/tlb_wave_pipeline.vcd
$date
	Tue Jan 23 15:27:18 2024
$end
$version
	Icarus Verilog
$end
$timescale
	1s
$end
$scope module tlb_tb $end
$var wire 32 ! cdata [31:0] $end
$var wire 1 " de_io_flush_i $end
$var wire 1 # de_io_lu_access_i $end
$var wire 1 $ de_io_lu_asid_i $end
$var wire 32 % de_io_lu_vaddr_i [31:0] $end
$var wire 31 & tdata [30:0] $end
$var wire 32 ' de_io_vaddr_to_be_flushed_i [31:0] $end
$var wire 63 ( de_io_update_i [62:0] $end
$var wire 1 ) de_io_lu_is_4M_o $end
$var wire 1 * de_io_lu_hit_o $end
$var wire 32 + de_io_lu_content_o [31:0] $end
$var wire 1 , de_io_asid_to_be_flushed_i $end
$var reg 32 - CLK_CYCLE [31:0] $end
$var reg 9 . asid [8:0] $end
$var reg 2 / choice [1:0] $end
$var reg 1 0 clk $end
$var reg 32 1 edata [31:0] $end
$var reg 1 2 reset $end
$var reg 1 , tb_io_asid_to_be_flushed_i $end
$var reg 1 3 tb_io_flush_i $end
$var reg 1 4 tb_io_lu_access_i $end
$var reg 1 5 tb_io_lu_asid_i $end
$var reg 32 6 tb_io_lu_vaddr_i [31:0] $end
$var reg 63 7 tb_io_update_i [62:0] $end
$var reg 32 8 tb_io_vaddr_to_be_flushed_i [31:0] $end
$var reg 20 9 vpn [19:0] $end
$var integer 32 : i [31:0] $end
$var integer 32 ; seed [31:0] $end
$scope module tlb_i $end
$var wire 1 , asid_to_be_flushed_i $end
$var wire 1 < asid_to_be_flushed_is0 $end
$var wire 1 0 clk_i $end
$var wire 1 " flush_i $end
$var wire 1 # lu_access_i $end
$var wire 1 $ lu_asid_i $end
$var wire 32 = lu_vaddr_i [31:0] $end
$var wire 128 > port_content_q_o [127:0] $end
$var wire 4 ? port_replace_en_o [3:0] $end
$var wire 124 @ port_tags_q_o [123:0] $end
$var wire 1 2 rst_ni $end
$var wire 63 A update_i [62:0] $end
$var wire 32 B vaddr_to_be_flushed_i [31:0] $end
$var wire 1 C vaddr_to_be_flushed_is0 $end
$var wire 31 D tdata [30:0] $end
$var wire 31 E tags_q_3 [30:0] $end
$var wire 31 F tags_q_2 [30:0] $end
$var wire 31 G tags_q_1 [30:0] $end
$var wire 31 H tags_q_0 [30:0] $end
$var wire 32 I content_q_3 [31:0] $end
$var wire 32 J content_q_2 [31:0] $end
$var wire 32 K content_q_1 [31:0] $end
$var wire 32 L content_q_0 [31:0] $end
$var wire 32 M cdata [31:0] $end
$var reg 128 N content_n [127:0] $end
$var reg 128 O content_q [127:0] $end
$var reg 32 P lu_content_o [31:0] $end
$var reg 4 Q lu_hit [3:0] $end
$var reg 1 * lu_hit_o $end
$var reg 1 ) lu_is_4M_o $end
$var reg 6 R plru_tree_n [5:0] $end
$var reg 6 S plru_tree_q [5:0] $end
$var reg 4 T replace_en [3:0] $end
$var reg 124 U tags_n [123:0] $end
$var reg 124 V tags_q [123:0] $end
$var reg 4 W vaddr_vpn0_match [3:0] $end
$var reg 4 X vaddr_vpn1_match [3:0] $end
$var reg 10 Y vpn0 [9:0] $end
$var reg 10 Z vpn1 [9:0] $end
$scope function countSetBits $end
$var reg 32 [ count [31:0] $end
$var reg 32 \ countSetBits [31:0] $end
$var reg 4 ] vector [3:0] $end
$scope begin sv2v_autoblock_9 $end
$var integer 32 ^ idx [31:0] $end
$upscope $end
$upscope $end
$scope begin p_assertions $end
$upscope $end
$scope begin plru_replacement $end
$scope begin sv2v_autoblock_3 $end
$var reg 32 _ i [31:0] $end
$scope begin sv2v_autoblock_4 $end
$var reg 32 ` idx_base [31:0] $end
$var reg 32 a new_index [31:0] $end
$var reg 32 b shift [31:0] $end
$scope begin sv2v_autoblock_5 $end
$var reg 32 c lvl [31:0] $end
$upscope $end
$upscope $end
$upscope $end
$scope begin sv2v_autoblock_6 $end
$var reg 32 d i [31:0] $end
$scope begin sv2v_autoblock_7 $end
$var reg 1 e en $end
$var reg 32 f idx_base [31:0] $end
$var reg 32 g new_index [31:0] $end
$var reg 32 h shift [31:0] $end
$scope begin sv2v_autoblock_8 $end
$var reg 32 i lvl [31:0] $end
$upscope $end
$upscope $end
$upscope $end
$upscope $end
$scope begin translation $end
$scope begin sv2v_autoblock_1 $end
$var reg 32 j i [31:0] $end
$upscope $end
$upscope $end
$scope begin update_flush $end
$scope begin sv2v_autoblock_2 $end
$var reg 32 k i [31:0] $end
$upscope $end
$upscope $end
$upscope $end
$scope task make_tlb_flush $end
$var reg 9 l asid [8:0] $end
$var reg 20 m vpn [19:0] $end
$upscope $end
$scope task make_tlb_lookup $end
$var reg 9 n asid [8:0] $end
$var reg 20 o vpn [19:0] $end
$upscope $end
$scope task make_tlb_update $end
$var reg 9 p asid [8:0] $end
$var reg 32 q entry_data [31:0] $end
$var reg 20 r vpn [19:0] $end
$upscope $end
$upscope $end
$enddefinitions $end
#0
$dumpvars
bx r
bx q
bx p
bx o
bx n
bx m
bx l
bx k
bx j
bx i
bx h
bx g
bx f
xe
bx d
bx c
bx b
bx a
bx `
bx _
bx ^
bx ]
bx \
bx [
bx Z
bx Y
bx X
bx W
bx V
bx U
bx T
bx S
bx R
bx Q
bx P
bx O
bx N
b0xxxxxxxxxxxxxxxxxxxxxxxxxxxxxx1 M
bx L
bx K
bx J
bx I
bx H
bx G
bx F
bx E
bx D
xC
bx B
bx A
bx @
bx ?
bx >
bx =
x<
b1101101110 ;
bx :
bx 9
bx 8
bx 7
bx 6
x5
x4
x3
12
bx 1
10
bx /
bx .
b0 -
x,
bx +
x*
x)
bx (
bx '
bx01 &
bx %
x$
x#
x"
bx !
$end
#10
00
#20
b1 ?
b1 T
b1 g
b1 h
b1 f
b10 i
0e
b100 d
b100 _
b0 R
b0 L
b0 K
b0 J
b0 I
b100 k
b0 N
b0 U
b100 j
0)
b0 +
b0 P
0*
b0 Q
b0 H
b0 G
b0 F
b0 E
b1 -
b0 S
b0 >
b0 O
b0 @
b0 V
10
02
#30
00
#40
b10 -
10
#50
00
#60
b11 -
10
b10110111011001100101000001101110 !
b10110111011001100101000001101110 1
b11010101011000000111 9
b110111011001100100111001101100 ;
b11101010101100000011101 &
b1 .
12
#70
00
#80
b100 -
b0 D
1C
1<
b100 j
b1101010101 Z
b1000000111 Y
b1111 X
b1111 W
b100 k
b1 M
10
b1100010111000100100100111000101 !
b1100010111000100100100111000101 1
b11001011001111001100101 &
b10010110011110011001 9
b0 '
b0 8
b0 B
0,
0"
03
1$
15
b11010101011000000111000000000000 %
b11010101011000000111000000000000 =
b11010101011000000111000000000000 6
b0 (
b0 7
b0 A
b1 n
b11010101011000000111 o
b10 /
b11100010111000100100011111010011 ;
b0 :
#90
00
#100
b101 -
b100 k
b100 j
b0 Z
b0 Y
10
b11111000000001001101000011110000 !
b11111000000001001101000011110000 1
b10001110100101100111101 &
b11101001011001111 9
1"
13
0$
05
b0 %
b0 =
b0 6
b0 l
b0 m
b1 /
b1111000000001001100111110000110 ;
b1 :
#110
00
#120
b110 -
0C
b0 X
b0 W
b100 k
0<
10
b1101111111011101110001111011111 !
b1101111111011101110001111011111 1
b11110000100001101110001 &
b11100001000011011100 9
b11101001011001111000000000000 '
b11101001011001111000000000000 8
b11101001011001111000000000000 B
1,
b1 l
b11101001011001111 m
b11 /
b11101111111011101110000001110101 ;
b10 :
#130
00
#140
b1101111111011101110001111011111 L
b100 j
b11110000100001101110001 H
b1101111111011101110001111011111 >
b1101111111011101110001111011111 O
b11110000100001101110001 @
b11110000100001101110001 V
b111 -
b1101111111011101110001111011111 D
1C
1<
b1101111111011101110001111011111 N
b11110000100001101110001 U
b1110 X
b1110 W
b100 k
b11110000100001101110001 M
10
b10110111100101110001011001101111 !
b10110111100101110001011001101111 1
b10000111100001111100101 &
b1111000011111001 9
b0 '
b0 8
b0 B
0,
0"
03
b101110000100001101110000000000101101111111011101110001111011111 (
b101110000100001101110000000000101101111111011101110001111011111 7
b101110000100001101110000000000101101111111011101110001111011111 A
b1101111111011101110001111011111 q
b1 p
b11100001000011011100 r
b0 /
b110111100101110001010001010000 ;
b11 :
#150
00
#160
b10110111100101110001011001101111 L
b100 j
b10000111100001111100101 H
b10110111100101110001011001101111 >
b10110111100101110001011001101111 O
b10000111100001111100101 @
b10000111100001111100101 V
b1000 -
b110111100101110001011001101111 D
b10110111100101110001011001101111 N
b10000111100001111100101 U
b100 k
b10000111100001111100101 M
10
b10011011111100010101110000110111 !
b10011011111100010101110000110111 1
b10000001100001000110001 &
b11000010001100 9
b100000111100001111100100000000110110111100101110001011001101111 (
b100000111100001111100100000000110110111100101110001011001101111 7
b100000111100001111100100000000110110111100101110001011001101111 A
b10110111100101110001011001101111 q
b1111000011111001 r
b11011111100010101101010000111 ;
b100 :
#170
00
#180
b10011011111100010101110000110111 L
b100 j
b10000001100001000110001 H
b10011011111100010101110000110111 >
b10011011111100010101110000110111 O
b10000001100001000110001 @
b10000001100001000110001 V
b1001 -
b11011111100010101110000110111 D
b10011011111100010101110000110111 N
b10000001100001000110001 U
b100 k
b10000001100001000110001 M
10
b1010100111011110011110110101001 !
b1010100111011110011110110101001 1
b11010110010010011011101 &
b10101100100100110111 9
b100000001100001000110000000000110011011111100010101110000110111 (
b100000001100001000110000000000110011011111100010101110000110111 7
b100000001100001000110000000000110011011111100010101110000110111 A
b10011011111100010101110000110111 q
b11000010001100 r
b11010100111011110011101101001010 ;
b101 :
#190
00
#200
b100 j
b10000001100001000110000 H
b10000001100001000110000 @
b10000001100001000110000 V
b1010 -
b0 D
b10000001100001000110000 U
b100 k
b1 M
10
b11000100100001001100100110001 !
b11000100100001001100100110001 1
b10101101010111011001001 &
b1011010101110110010 9
1"
13
b0 (
b0 7
b0 A
b0 l
b0 m
b1 /
b10011000100100001001011010001001 ;
b110 :
#210
00
#220
b1011 -
0C
b0 X
b0 W
b100 k
0<
10
b1101110010111111001000111011100 !
b1101110010111111001000111011100 1
b10100010100011001111101 &
b1000101000110011111 9
b1011010101110110010000000000000 '
b1011010101110110010000000000000 8
b1011010101110110010000000000000 B
1,
b1 l
b1011010101110110010 m
b11 /
b11101110010111111000111011110100 ;
b111 :
#230
00
#240
b1100 -
b100 k
10
b1011111110111000001001110111111 !
b1011111110111000001001110111111 1
b10011011011000001101001 &
b110110110000011010 9
b1000101000110011111000000000000 '
b1000101000110011111000000000000 8
b1000101000110011111000000000000 B
b1000101000110011111 m
b11011111110111000001000011111011 ;
b1000 :
#250
00
#260
b1101 -
1C
1<
b1110 X
b1110 W
b100 k
b100 j
b11011011 Z
b11010 Y
10
b1101010010110000010011111010100 !
b1101010010110000010011111010100 1
b11011011110110010100001 &
b10110111101100101000 9
b0 '
b0 8
b0 B
0,
0"
03
1$
15
b110110110000011010000000000000 %
b110110110000011010000000000000 =
b110110110000011010000000000000 6
b110110110000011010 o
b10 /
b11101010010110000010010111001110 ;
b1001 :
#270
00
#280
b1101010010110000010011111010100 L
b11011011110110010100001 H
b1101010010110000010011111010100 >
b1101010010110000010011111010100 O
b11011011110110010100001 @
b11011011110110010100001 V
b1110 -
b1101010010110000010011111010100 D
b100 j
b0 Z
b0 Y
b1101010010110000010011111010100 N
b11011011110110010100001 U
b100 k
b11011011110110010100001 M
10
b1110110010100100000010111101100 !
b1110110010100100000010111101100 1
b11100000100010110000001 &
b11000001000101100000 9
0$
05
b0 %
b0 =
b0 6
b101011011110110010100000000000101101010010110000010011111010100 (
b101011011110110010100000000000101101010010110000010011111010100 7
b101011011110110010100000000000101101010010110000010011111010100 A
b1101010010110000010011111010100 q
b10110111101100101000 r
b0 /
b11110110010100100000001001011101 ;
b1010 :
#290
00
#300
b1110110010100100000010111101100 L
b100 j
b11100000100010110000001 H
b1110110010100100000010111101100 >
b1110110010100100000010111101100 O
b11100000100010110000001 @
b11100000100010110000001 V
b1111 -
b1110110010100100000010111101100 D
b1110110010100100000010111101100 N
b11100000100010110000001 U
b100 k
b11100000100010110000001 M
10
b10001110110111111000010000011101 !
b10001110110111111000010000011101 1
b10010010011100111100001 &
b100100111001111000 9
b101100000100010110000000000000101110110010100100000010111101100 (
b101100000100010110000000000000101110110010100100000010111101100 7
b101100000100010110000000000000101110110010100100000010111101100 A
b1110110010100100000010111101100 q
b11000001000101100000 r
b1110110111111000001001011000 ;
b1011 :
#310
00
#320
b100 j
b11100000100010110000000 H
b11100000100010110000000 @
b11100000100010110000000 V
b10000 -
b0 D
b11100000100010110000000 U
b100 k
b1 M
10
b101010000111001000000101010100 !
b101010000111001000000101010100 1
b10001011111111010110001 &
b10111111110101100 9
1"
13
b0 (
b0 7
b0 A
b0 l
b0 m
b1 /
b10101010000111000111111100101111 ;
b1100 :
#330
00
#340
b101010000111001000000101010100 L
b100 j
b10001011111111010110001 H
b101010000111001000000101010100 >
b101010000111001000000101010100 O
b10001011111111010110001 @
b10001011111111010110001 V
b10001 -
b101010000111001000000101010100 D
b101010000111001000000101010100 N
b10001011111111010110001 U
b100 k
b10001011111111010110001 M
10
b111100110011100011010101111001 !
b111100110011100011010101111001 1
b11001000110000111101001 &
b10010001100001111010 9
0"
03
b100001011111111010110000000000100101010000111001000000101010100 (
b100001011111111010110000000000100101010000111001000000101010100 7
b100001011111111010110000000000100101010000111001000000101010100 A
b101010000111001000000101010100 q
b10111111110101100 r
b0 /
b10111100110011100011001100010010 ;
b1101 :
#350
00
#360
b100 j
b10001011111111010110000 H
b10001011111111010110000 @
b10001011111111010110000 V
b10010 -
b0 D
b10001011111111010110000 U
b100 k
b1 M
10
b1101100100011011001100111011001 !
b1101100100011011001100111011001 1
b10001100010011001110101 &
b11000100110011101 9
1"
13
b0 (
b0 7
b0 A
b1 /
b11101100100011011001011111110001 ;
b1110 :
#370
00
#380
b1101100100011011001100111011001 L
b100 j
b10001100010011001110101 H
b1101100100011011001100111011001 >
b1101100100011011001100111011001 O
b10001100010011001110101 @
b10001100010011001110101 V
b10011 -
b1101100100011011001100111011001 D
b1101100100011011001100111011001 N
b10001100010011001110101 U
b100 k
b10001100010011001110101 M
10
b1110011101010111010100011100 !
b1110011101010111010100011100 1
b11111011110110111101101 &
b11110111101101111011 9
0"
03
b100001100010011001110100000000101101100100011011001100111011001 (
b100001100010011001110100000000101101100100011011001100111011001 7
b100001100010011001110100000000101101100100011011001100111011001 A
b1101100100011011001100111011001 q
b11000100110011101 r
b0 /
b10001110011101010111001001111100 ;
b1111 :
#390
00
#400
b10100 -
b0 D
b100 j
b1111011110 Z
b1101111011 Y
b100 k
b1 M
10
b10110100101000100111101001101001 !
b10110100101000100111101001101001 1
b10101100011011011110001 &
b1011000110110111100 9
1$
15
b11110111101101111011000000000000 %
b11110111101101111011000000000000 =
b11110111101101111011000000000000 6
b0 (
b0 7
b0 A
b11110111101101111011 o
b10 /
b110100101000100111100100100011 ;
b10000 :
#410
00
#420
b10101 -
b100 j
b101100011 Z
b110111100 Y
10
b1011110000110001100100110111100 !
b1011110000110001100100110111100 1
b10100100110011001001101 &
b1001001100110010011 9
b1011000110110111100000000000000 %
b1011000110110111100000000000000 =
b1011000110110111100000000000000 6
b1011000110110111100 o
b11011110000110001100011100010110 ;
b10001 :
#430
00
#440
b10110 -
10
b11100011000010011000101010011111 ;
b10010 :
