cva6-model-runs/lsu_traces/su_traces/test_5/su_model_wave_pipeline.vcd
$date
	Mon Jan 22 08:30:07 2024
$end
$version
	Icarus Verilog
$end
$timescale
	1s
$end
$scope module store_unit_model_tb $end
$var wire 65 ! de_io_amo_resp_i [64:0] $end
$var wire 1 " de_io_amo_valid_commit_i $end
$var wire 1 # de_io_commit_i $end
$var wire 1 $ de_io_dtlb_hit_i $end
$var wire 65 % de_io_ex_i [64:0] $end
$var wire 1 & de_io_flush_i $end
$var wire 32 ' de_io_instr_i [31:0] $end
$var wire 1 ( de_io_instr_valid_i $end
$var wire 12 ) de_io_page_offset_i [11:0] $end
$var wire 35 * de_io_req_port_i [34:0] $end
$var wire 32 + de_io_result_o [31:0] $end
$var wire 1 , de_io_store_mem_resp_i $end
$var wire 1 - de_io_valid_i $end
$var wire 1 . de_io_valid_o $end
$var wire 32 / de_io_vaddr_o [31:0] $end
$var wire 1 0 de_io_translation_req_o $end
$var wire 3 1 de_io_trans_id_o [2:0] $end
$var wire 1 2 de_io_store_buffer_empty_o $end
$var wire 77 3 de_io_req_port_o [76:0] $end
$var wire 1 4 de_io_pop_st_o $end
$var wire 1 5 de_io_page_offset_matches_o $end
$var wire 34 6 de_io_paddr_i [33:0] $end
$var wire 1 7 de_io_no_st_pending_o $end
$var wire 85 8 de_io_lsu_ctrl_i [84:0] $end
$var wire 65 9 de_io_ex_o [64:0] $end
$var wire 1 : de_io_commit_ready_o $end
$var wire 135 ; de_io_amo_req_o [134:0] $end
$var reg 32 < CLK_CYCLE [31:0] $end
$var reg 1 = choice_core $end
$var reg 2 > choice_mem [1:0] $end
$var reg 1 ? clk $end
$var reg 32 @ data [31:0] $end
$var reg 12 A poffset [11:0] $end
$var reg 1 B reset $end
$var reg 2 C store_seen [1:0] $end
$var reg 1 D tb_io_commit_i $end
$var reg 32 E tb_io_instr_i [31:0] $end
$var reg 1 F tb_io_instr_valid_i $end
$var reg 85 G tb_io_lsu_ctrl_i [84:0] $end
$var reg 34 H tb_io_paddr_i [33:0] $end
$var reg 12 I tb_io_page_offset_i [11:0] $end
$var reg 35 J tb_io_req_port_i [34:0] $end
$var reg 1 K tb_io_store_mem_resp_i $end
$var reg 1 L tb_io_valid_i $end
$var reg 34 M vaddr [33:0] $end
$var integer 32 N i [31:0] $end
$var integer 32 O seed [31:0] $end
$scope module su_i $end
$var wire 1 P amo_buffer_ready $end
$var wire 1 Q amo_buffer_valid $end
$var wire 65 R amo_resp_i [64:0] $end
$var wire 1 " amo_valid_commit_i $end
$var wire 1 ? clk_i $end
$var wire 1 # commit_i $end
$var wire 1 $ dtlb_hit_i $end
$var wire 65 S ex_i [64:0] $end
$var wire 1 & flush_i $end
$var wire 85 T lsu_ctrl_i [84:0] $end
$var wire 34 U paddr_i [33:0] $end
$var wire 12 V page_offset_i [11:0] $end
$var wire 35 W req_port_i [34:0] $end
$var wire 32 X result_o [31:0] $end
$var wire 1 B rst_ni $end
$var wire 1 Y st_ready $end
$var wire 1 Z store_buffer_valid $end
$var wire 3 [ trans_id_o [2:0] $end
$var wire 1 - valid_i $end
$var wire 32 \ vaddr_o [31:0] $end
$var wire 8 ] store_state_o [7:0] $end
$var wire 1 ^ store_buffer_ready $end
$var wire 1 2 store_buffer_empty_o $end
$var wire 2 _ state_q_3 [1:0] $end
$var wire 2 ` state_q_2 [1:0] $end
$var wire 2 a state_q_1 [1:0] $end
$var wire 2 b state_q_0 [1:0] $end
$var wire 77 c req_port_o [76:0] $end
$var wire 1 5 page_offset_matches_o $end
$var wire 1 7 no_st_pending_o $end
$var wire 1 d instr_is_amo $end
$var wire 1 : commit_ready_o $end
$var wire 135 e amo_req_o [134:0] $end
$var reg 4 f amo_op_d [3:0] $end
$var reg 4 g amo_op_q [3:0] $end
$var reg 65 h ex_o [64:0] $end
$var reg 1 4 pop_st_o $end
$var reg 4 i st_be_n [3:0] $end
$var reg 4 j st_be_q [3:0] $end
$var reg 32 k st_data_n [31:0] $end
$var reg 32 l st_data_q [31:0] $end
$var reg 2 m st_data_size_n [1:0] $end
$var reg 2 n st_data_size_q [1:0] $end
$var reg 1 o st_valid $end
$var reg 1 p st_valid_without_flush $end
$var reg 2 q state_d [1:0] $end
$var reg 2 r state_q [1:0] $end
$var reg 3 s trans_id_n [2:0] $end
$var reg 3 t trans_id_q [2:0] $end
$var reg 1 0 translation_req_o $end
$var reg 1 . valid_o $end
$scope function ariane_pkg_data_align $end
$upscope $end
$scope function ariane_pkg_extract_transfer_size $end
$upscope $end
$scope function ariane_pkg_is_amo $end
$upscope $end
$scope module i_amo_buffer $end
$var wire 72 u amo_data_out [71:0] $end
$var wire 4 v amo_op_i [3:0] $end
$var wire 65 w amo_resp_i [64:0] $end
$var wire 1 x amo_valid $end
$var wire 1 " amo_valid_commit_i $end
$var wire 1 ? clk_i $end
$var wire 32 y data_i [31:0] $end
$var wire 2 z data_size_i [1:0] $end
$var wire 1 { flush_amo_buffer $end
$var wire 1 & flush_i $end
$var wire 34 | paddr_i [33:0] $end
$var wire 1 P ready_o $end
$var wire 1 B rst_ni $end
$var wire 1 Q valid_i $end
$var wire 1 7 no_st_pending_i $end
$var wire 135 } amo_req_o [134:0] $end
$var wire 72 ~ amo_data_in [71:0] $end
$upscope $end
$scope module store_buffer_i $end
$var wire 4 !" be_i [3:0] $end
$var wire 1 ? clk_i $end
$var wire 1 # commit_i $end
$var wire 32 "" data_i [31:0] $end
$var wire 2 #" data_size_i [1:0] $end
$var wire 1 & flush_i $end
$var wire 34 $" paddr_i [33:0] $end
$var wire 12 %" page_offset_i [11:0] $end
$var wire 35 &" req_port_i [34:0] $end
$var wire 1 B rst_ni $end
$var wire 1 2 store_buffer_empty_o $end
$var wire 1 '" sv2v_tmp_80AC7 [1:1] $end
$var wire 1 (" sv2v_tmp_A682E [1:1] $end
$var wire 1 )" sv2v_tmp_F170F [1:1] $end
$var wire 1 Z valid_i $end
$var wire 1 p valid_without_flush_i $end
$var wire 12 *" sv2v_tmp_9099D [12:1] $end
$var wire 4 +" sv2v_tmp_8DCF7 [4:1] $end
$var wire 22 ," sv2v_tmp_71805 [22:1] $end
$var wire 32 -" sv2v_tmp_6B7F3 [32:1] $end
$var wire 2 ." sv2v_tmp_51F0D [2:1] $end
$var wire 2 /" state_q_3 [1:0] $end
$var wire 2 0" state_q_2 [1:0] $end
$var wire 2 1" state_q_1 [1:0] $end
$var wire 2 2" state_q_0 [1:0] $end
$var reg 292 3" commit_queue_n [291:0] $end
$var reg 292 4" commit_queue_q [291:0] $end
$var reg 2 5" commit_read_pointer_n [1:0] $end
$var reg 2 6" commit_read_pointer_q [1:0] $end
$var reg 1 : commit_ready_o $end
$var reg 3 7" commit_status_cnt_n [2:0] $end
$var reg 3 8" commit_status_cnt_q [2:0] $end
$var reg 2 9" commit_write_pointer_n [1:0] $end
$var reg 2 :" commit_write_pointer_q [1:0] $end
$var reg 1 7 no_st_pending_o $end
$var reg 1 5 page_offset_matches_o $end
$var reg 1 ^ ready_o $end
$var reg 77 ;" req_port_o [76:0] $end
$var reg 292 <" speculative_queue_n [291:0] $end
$var reg 292 =" speculative_queue_q [291:0] $end
$var reg 2 >" speculative_read_pointer_n [1:0] $end
$var reg 2 ?" speculative_read_pointer_q [1:0] $end
$var reg 3 @" speculative_status_cnt_n [2:0] $end
$var reg 3 A" speculative_status_cnt_q [2:0] $end
$var reg 2 B" speculative_write_pointer_n [1:0] $end
$var reg 2 C" speculative_write_pointer_q [1:0] $end
$scope function sv2v_cast_79500 $end
$upscope $end
$scope begin core_if $end
$var reg 5 D" speculative_status_cnt [4:0] $end
$scope begin sv2v_autoblock_1 $end
$var reg 32 E" i [31:0] $end
$upscope $end
$upscope $end
$scope begin p_commit $end
$upscope $end
$scope begin p_spec $end
$upscope $end
$scope begin store_if $end
$var reg 5 F" commit_status_cnt [4:0] $end
$upscope $end
$scope begin sv2v_autoblock_2 $end
$var reg 2 G" _sv2v_jump [0:1] $end
$scope begin address_checker $end
$scope begin sv2v_autoblock_3 $end
$var reg 32 H" i [31:0] $end
$scope begin sv2v_autoblock_4 $end
$var reg 32 I" _sv2v_value_on_break [31:0] $end
$upscope $end
$upscope $end
$scope begin sv2v_autoblock_5 $end
$var reg 32 J" i [31:0] $end
$scope begin sv2v_autoblock_6 $end
$var reg 32 K" _sv2v_value_on_break [31:0] $end
$upscope $end
$upscope $end
$upscope $end
$upscope $end
$upscope $end
$scope begin store_control $end
$upscope $end
$upscope $end
$scope module su_model_i $end
$var wire 1 ? clk_i $end
$var wire 1 D commit_i $end
$var wire 32 L" instr_i [31:0] $end
$var wire 1 ( instr_valid_i $end
$var wire 12 M" page_offset_i [11:0] $end
$var wire 1 N" page_offset_matches_o $end
$var wire 1 B rst_ni $end
$var wire 1 , store_mem_resp_i $end
$var wire 1 O" ready_o $end
$var wire 8 P" port_store_instr_queue_state [7:0] $end
$var reg 32 Q" CLK_CYCLE [31:0] $end
$var reg 32 R" inner_instr_i [31:0] $end
$var reg 1 S" inner_instr_valid_i $end
$var reg 1 T" inner_store_mem_resp_i $end
$var reg 8 U" instr_i_pc [7:0] $end
$var reg 2 V" queue_commit_ptr [1:0] $end
$var reg 2 W" queue_serve_ptr [1:0] $end
$var reg 2 X" queue_store_ptr [1:0] $end
$var reg 32 Y" store_instr_i_queue_flatten_0 [31:0] $end
$var reg 8 Z" store_instr_i_queue_flatten_0_pc [7:0] $end
$var reg 32 [" store_instr_i_queue_flatten_1 [31:0] $end
$var reg 8 \" store_instr_i_queue_flatten_1_pc [7:0] $end
$var reg 32 ]" store_instr_i_queue_flatten_2 [31:0] $end
$var reg 8 ^" store_instr_i_queue_flatten_2_pc [7:0] $end
$var reg 32 _" store_instr_i_queue_flatten_3 [31:0] $end
$var reg 8 `" store_instr_i_queue_flatten_3_pc [7:0] $end
$var reg 2 a" store_instr_queue_state_flatten_0 [1:0] $end
$var reg 2 b" store_instr_queue_state_flatten_1 [1:0] $end
$var reg 2 c" store_instr_queue_state_flatten_2 [1:0] $end
$var reg 2 d" store_instr_queue_state_flatten_3 [1:0] $end
$upscope $end
$scope task lower_commit $end
$upscope $end
$scope task lower_memory_grant $end
$upscope $end
$scope task lower_store_request $end
$upscope $end
$scope task raise_commit $end
$upscope $end
$scope task raise_memory_grant $end
$upscope $end
$scope task raise_store_request $end
$var reg 32 e" data [31:0] $end
$var reg 32 f" vaddr [31:0] $end
$upscope $end
$scope task set_page_offset $end
$var reg 12 g" page_offset [11:0] $end
$upscope $end
$upscope $end
$enddefinitions $end
#0
$dumpvars
bx g"
bx f"
bx e"
bx d"
bx c"
bx b"
bx a"
bx `"
bx _"
bx ^"
bx ]"
bx \"
bx ["
bx Z"
bx Y"
bx X"
bx W"
bx V"
bx U"
xT"
xS"
bx R"
bx Q"
bx P"
xO"
xN"
bz M"
bx L"
b11 K"
b100 J"
b11 I"
b100 H"
b0 G"
b0xxx F"
bx E"
b0xxx D"
bx C"
bx B"
bx A"
bx @"
bx ?"
bx >"
bx ="
bx <"
bx01xxxxxx00 ;"
bx :"
bx 9"
bx 8"
bx 7"
bx 6"
bx 5"
bx 4"
bx 3"
bx 2"
bx 1"
bx 0"
bx /"
bx ."
bx -"
bx ,"
bx +"
bx *"
0)"
0("
1'"
b0 &"
bx %"
bx $"
bx #"
bx ""
bx !"
bx ~
b0zzzzzz000000000000000000000000000000zzzzzzzzzzzzzzzzzzzzzzzzzzzzzzzzzz00000000000000000000000000000000zzzzzzzzzzzzzzzzzzzzzzzzzzzzzzzz }
bx |
0{
bx z
bx y
zx
b0 w
bx v
bz u
b0 t
b0 s
bx r
bx q
0p
0o
bx n
b11 m
bx l
b0 k
bx j
b0 i
b0 h
bx g
b0 f
b0zzzzzz000000000000000000000000000000zzzzzzzzzzzzzzzzzzzzzzzzzzzzzzzzzz00000000000000000000000000000000zzzzzzzzzzzzzzzzzzzzzzzzzzzzzzzz e
0d
bx01xxxxxx00 c
bx b
bx a
bx `
bx _
x^
bx ]
b0 \
b0 [
0Z
xY
b0 X
b0 W
bx V
bx U
b0 T
b0 S
b0 R
0Q
zP
b1001111 O
bx N
bx M
0L
xK
b0 J
bx I
bx H
b0 G
xF
bx E
0D
b0 C
1B
bx A
bx @
1?
bx >
x=
b0 <
b0zzzzzz000000000000000000000000000000zzzzzzzzzzzzzzzzzzzzzzzzzzzzzzzzzz00000000000000000000000000000000zzzzzzzzzzzzzzzzzzzzzzzzzzzzzzzz ;
x:
b0 9
b0 8
x7
bx 6
05
04
bx01xxxxxx00 3
x2
b0 1
00
b0 /
0.
0-
x,
b0 +
b0 *
bx )
x(
bx '
0&
b0 %
1$
0#
0"
b0 !
$end
#10
0?
#20
0N"
b0x0100000000 3
b0x0100000000 c
b0x0100000000 ;"
12
b11 K"
b100 J"
b11 I"
b100 H"
b0 7"
b0 3"
b0 9"
b0 5"
17
1:
b0 F"
b0 b
b0 2"
b0 a
b0 1"
b0 `
b0 0"
b0 ]
b0 _
b0 /"
b0 <"
b0 B"
b0 >"
b0 @"
1Y
1^
b0 D"
b0 q
b1 <
b0 8"
b0 :"
b0 *"
b0 ,"
b0 -"
b0 +"
b0 ."
b0 6"
b0 4"
b0 A"
b0 C"
b0 ?"
b0 ="
0T"
b0 R"
0S"
b0 U"
b0 V"
b0 W"
1O"
b0 X"
b0 d"
b0 c"
b0 b"
b0 a"
b0 `"
b0 ^"
b0 \"
b0 Z"
b0 _"
b0 ]"
b0 ["
b0 Y"
b0 P"
b0 Q"
b0 g
b0 v
b0 n
b0 z
b0 #"
b0xxxxxxxxxxxxxxxxxxxxxxxxxxxxxxxxxx0000000000000000000000000000000000 ~
b0 l
b0 y
b0 ""
b0 j
b0 !"
b0 r
1?
0B
#30
0?
#40
b10 <
1?
#50
0?
#60
xN"
b1 @"
b1 D"
b1 B"
b10000000010100110100010000000000001111110100110110000111011111100000101 <"
1Z
1p
1o
1.
b10000000010100110100010000000000 R"
1S"
b1 Q"
b10 n
b10 z
b10 #"
b111111010011011000011101111110 l
b111111010011011000011101111110 y
b111111010011011000011101111110 ""
b1 r
b11 <
b11 K"
b100 J"
b11 I"
b100 H"
b10 m
b111111010011011000011101111110 k
b10000000010100110100010000000000 /
b10000000010100110100010000000000 \
14
10
b1 q
1?
1B
b10101001010 )
b10101001010 V
b10101001010 %"
b10101001010 I
b10101001010 g"
b10000000010100110100010000000000 '
b10000000010100110100010000000000 L"
b10000000010100110100010000000000 E
b10 C
b100000000101001101000100000000000011111101001101100001110111111010 ~
b10000000010100110100010000000000 6
b10000000010100110100010000000000 H
b10000000010100110100010000000000 U
b10000000010100110100010000000000 |
b10000000010100110100010000000000 $"
b1100000000101001101000100000000000001111110100110110000111011111100000001000100111000 8
b1100000000101001101000100000000000001111110100110110000111011111100000001000100111000 G
b1100000000101001101000100000000000001111110100110110000111011111100000001000100111000 T
1-
1L
b111111010011011000011101111110 e"
b10000000010100110100010000000000 f"
b0 >
1=
b10101001010 A
b111111010011011000011101111110 @
b1110000000010100110100010000000000 M
b1001010000000011000100001010000 O
1(
1F
0,
0K
b0 N
#70
0?
#80
0Z
02
b11 ]
b11 b
b11 2"
b1 @"
b1 D"
b1 B"
b10000000010100110100010000000000001111110100110110000111011111100000101 <"
b1 A"
b1 C"
b10000000010100110100010000000000001111110100110110000111011111100000101 ="
b11 n
b11 z
b11 #"
b100000000101001101000100000000000000000000000000000000000000000011 ~
b0 l
b0 y
b0 ""
b0 r
1T"
0S"
b1 X"
b11 P"
1O"
b10 Q"
b100 <
b1 U"
b11 K"
b100 J"
b11 I"
b100 H"
b11 m
b0 k
b0 q
04
0p
0o
0.
00
b0 /
b0 \
1?
b11010011 )
b11010011 V
b11010011 %"
b11010011 I
b11010011 g"
1,
1K
b10000000000000000000000000000000000 *
b10000000000000000000000000000000000 W
b10000000000000000000000000000000000 &"
b10000000000000000000000000000000000 J
b1 C
b11 >
b11010011 A
b10101010100101001100010001010101 @
b1011111011101100011101110111110 M
b11011101100101011110101101101101 O
0(
0F
0-
0L
b0 8
b0 G
b0 T
b1 N
#90
0?
#100
b10000000000001000000001010011010000111111010011011000011101111110x1100001000 3
b10000000000001000000001010011010000111111010011011000011101111110x1100001000 c
b10000000000001000000001010011010000111111010011011000011101111110x1100001000 ;"
07
b1 ]
b1 b
b1 2"
b1 8"
b1 :"
b10000000000 *"
b10000000010100110100 ,"
b111111010011011000011101111110 -"
b10 ."
b10000000010100110100010000000000001111110100110110000111011111100000101 4"
b0 A"
b1 ?"
b10000000010100110100010000000000001111110100110110000111011111100000100 ="
0T"
b1 V"
b1 P"
b11 Q"
b101 <
b11 a"
b10000000010100110100010000000000 Y"
b11 K"
b100 J"
b11 I"
b100 H"
b111 @"
b11111 D"
b10 >"
b10000000010100110100010000000000001111110100110110000111011111100000100 <"
b10 7"
b10 F"
b10 9"
b10000000010100110100010000000000001111110100110110000111011111100000101 3"
1?
b111011111010 )
b111011111010 V
b111011111010 %"
b111011111010 I
b111011111010 g"
b0 C
1#
1D
b0 >
0=
b111011111010 A
b11110001000000000000001011100001 @
b1111001011011110001000111110010 M
b11010110010001011001010010110110 O
0,
0K
b0 *
b0 W
b0 &"
b0 J
b10 N
#110
0?
#120
b100 Q"
b110 <
b1 a"
b11 K"
b100 J"
b11 I"
b100 H"
b1 7"
b10000000000001000000001010011010000111111010011011000011101111110x1100001000 3
b10000000000001000000001010011010000111111010011011000011101111110x1100001000 c
b10000000000001000000001010011010000111111010011011000011101111110x1100001000 ;"
b1 9"
b1 F"
b1 >"
b0 @"
b0 D"
1?
b1001100001 )
b1001100001 V
b1001100001 %"
b1001100001 I
b1001100001 g"
b10 >
b1001100001 A
b11101010010000011100010011010100 @
b110010111110110101010101100101 M
b11101001011011010101010011111011 O
0#
0D
b11 N
#130
0?
#140
b101 Q"
b111 <
b11 K"
b100 J"
b11 I"
b100 H"
1?
b101001011101 )
b101001011101 V
b101001011101 %"
b101001011101 I
b101001011101 g"
b101001011101 A
b11110001111101110101111011100011 @
b1001110110110001100111110011101 M
b101111011111001100001111001100 O
b100 N
#150
0?
#160
b110 Q"
b1000 <
b11 K"
b100 J"
b11 I"
b100 H"
1?
b1001011000 )
b1001011000 V
b1001011000 %"
b1001011000 I
b1001011000 g"
b0 >
b1001011000 A
b111011010111000111001101110110 @
b1110100000101001100010100001000001 M
b11001000001000100011110001111001 O
b101 N
#170
0?
#180
b1 @"
b1 D"
b10 B"
b101111001111010110010010011110011111010010000101101101010101101000001010010000000010100110100010000000000001111110100110110000111011111100000100 <"
1Z
1p
1o
1.
b10111100111101011001001001111001 R"
1S"
b111 Q"
b10 n
b10 z
b10 #"
b11110100100001011011010101011010 l
b11110100100001011011010101011010 y
b11110100100001011011010101011010 ""
b1 r
b1001 <
b11 K"
b100 J"
b11 I"
b100 H"
b10 m
b11110100100001011011010101011010 k
b10111100111101011001001001111001 /
b10111100111101011001001001111001 \
14
10
b1 q
1?
b10000111 )
b10000111 V
b10000111 %"
b10000111 I
b10000111 g"
1(
1F
b10111100111101011001001001111001 '
b10111100111101011001001001111001 L"
b10111100111101011001001001111001 E
b10 C
b101111001111010110010010011110011111010010000101101101010101101010 ~
b10111100111101011001001001111001 6
b10111100111101011001001001111001 H
b10111100111101011001001001111001 U
b10111100111101011001001001111001 |
b10111100111101011001001001111001 $"
b1101111001111010110010010011110010010110101111010010000101101101010000001000100111000 8
b1101111001111010110010010011110010010110101111010010000101101101010000001000100111000 G
b1101111001111010110010010011110010010110101111010010000101101101010000001000100111000 T
1-
1L
b1011010111101001000010110110101 e"
b10111100111101011001001001111001 f"
b10 >
1=
b10000111 A
b1011010111101001000010110110101 @
b1110111100111101011001001001111001 M
b1100111010101011000011100010010 O
b110 N
#190
0?
#200
0Z
b10000000000001000000001010011010000111111010011011000011101111110x1100001000 3
b10000000000001000000001010011010000111111010011011000011101111110x1100001000 c
b10000000000001000000001010011010000111111010011011000011101111110x1100001000 ;"
b1101 ]
b11 a
b11 1"
b1 @"
b1 D"
b10 B"
b101111001111010110010010011110011111010010000101101101010101101000001010010000000010100110100010000000000001111110100110110000111011111100000100 <"
b1 A"
b10 C"
b101111001111010110010010011110011111010010000101101101010101101000001010010000000010100110100010000000000001111110100110110000111011111100000100 ="
b11 n
b11 z
b11 #"
b101111001111010110010010011110010000000000000000000000000000000011 ~
b0 l
b0 y
b0 ""
b0 r
0S"
b10 X"
b1101 P"
1O"
b1000 Q"
b1010 <
b10 U"
b11 K"
b100 J"
b11 I"
b100 H"
b11 m
b0 k
b0 q
04
0p
0o
0.
00
b0 /
b0 \
1?
b110000110101 )
b110000110101 V
b110000110101 %"
b110000110101 I
b110000110101 g"
b1 C
b0 >
b110000110101 A
b11011111001001011111110010111110 @
b11110011010110001010100111100 M
b10101010001111111111110101100111 O
0(
0F
0-
0L
b0 8
b0 G
b0 T
b111 N
#210
0?
#220
b101 ]
b1 a
b1 1"
b10 8"
b10 :"
b101111001111010110010010011110011111010010000101101101010101101000001010010000000010100110100010000000000001111110100110110000111011111100000101 4"
b0 A"
b10 ?"
b101111001111010110010010011110011111010010000101101101010101101000001000010000000010100110100010000000000001111110100110110000111011111100000100 ="
b10 V"
b101 P"
b1001 Q"
b1011 <
b11 b"
b1 \"
b10111100111101011001001001111001 ["
b11 K"
b100 J"
b11 I"
b100 H"
b11 7"
b11 F"
b11 9"
b101111001111010110010010011110011111010010000101101101010101101000001010010000000010100110100010000000000001111110100110110000111011111100000101 3"
b10000000000001000000001010011010000111111010011011000011101111110x1100001000 3
b10000000000001000000001010011010000111111010011011000011101111110x1100001000 c
b10000000000001000000001010011010000111111010011011000011101111110x1100001000 ;"
b111 @"
b11111 D"
b11 >"
b101111001111010110010010011110011111010010000101101101010101101000001000010000000010100110100010000000000001111110100110110000111011111100000100 <"
1?
b101101010 )
b101101010 V
b101101010 %"
b101101010 I
b101101010 g"
b0 C
1#
1D
b1 >
b101101010 A
b10100010011101100001111001000100 @
b10010100000110010100100100101 M
b1111100110011111011110000001000 O
b1000 N
#230
0?
#240
b1010 Q"
b1100 <
b1 b"
b11 K"
b100 J"
b11 I"
b100 H"
b10 7"
b10000000000001000000001010011010000111111010011011000011101111110x1100001000 3
b10000000000001000000001010011010000111111010011011000011101111110x1100001000 c
b10000000000001000000001010011010000111111010011011000011101111110x1100001000 ;"
b10 9"
b10 F"
b10 >"
b0 @"
b0 D"
1?
b101100011 )
b101100011 V
b101100011 %"
b101100011 I
b101100011 g"
b10 >
0=
b101100011 A
b11000000101100011101110010000001 @
b1110111010111011011111110001110101 M
b11001011011011110010111101000101 O
0#
0D
b1001 N
#250
0?
#260
b1 @"
b1 D"
b11 B"
b11110010110100010111010111100101010001011011110100000000100000000010100101111001111010110010010011110011111010010000101101101010101101000001000010000000010100110100010000000000001111110100110110000111011111100000100 <"
1Z
1p
1o
1.
b111100101101000101110101111001 R"
1S"
b1011 Q"
b10 n
b10 z
b10 #"
b1010001011011110100000000100000 l
b1010001011011110100000000100000 y
b1010001011011110100000000100000 ""
b1 r
b1101 <
b11 K"
b100 J"
b11 I"
b100 H"
b10 m
b1010001011011110100000000100000 k
b111100101101000101110101111001 /
b111100101101000101110101111001 \
14
10
b1 q
1?
b100111100011 )
b100111100011 V
b100111100011 %"
b100111100011 I
b100111100011 g"
1(
1F
b111100101101000101110101111001 '
b111100101101000101110101111001 L"
b111100101101000101110101111001 E
b10 C
b1111001011010001011101011110010101000101101111010000000010000010 ~
b111100101101000101110101111001 6
b111100101101000101110101111001 H
b111100101101000101110101111001 U
b111100101101000101110101111001 |
b111100101101000101110101111001 $"
b1001111001011010001011101011110010001000000101000101101111010000000000001000100111000 8
b1001111001011010001011101011110010001000000101000101101111010000000000001000100111000 G
b1001111001011010001011101011110010001000000101000101101111010000000000001000100111000 T
1-
1L
b100000010100010110111101000000 e"
b111100101101000101110101111001 f"
1=
b100111100011 A
b100000010100010110111101000000 @
b111100101101000101110101111001 M
b11011111000011110000110000101110 O
b1010 N
#270
0?
#280
0Z
b10000000000001000000001010011010000111111010011011000011101111110x1100001000 3
b10000000000001000000001010011010000111111010011011000011101111110x1100001000 c
b10000000000001000000001010011010000111111010011011000011101111110x1100001000 ;"
b110101 ]
b11 `
b11 0"
b1 @"
b1 D"
b11 B"
b11110010110100010111010111100101010001011011110100000000100000000010100101111001111010110010010011110011111010010000101101101010101101000001000010000000010100110100010000000000001111110100110110000111011111100000100 <"
b1 A"
b11 C"
b11110010110100010111010111100101010001011011110100000000100000000010100101111001111010110010010011110011111010010000101101101010101101000001000010000000010100110100010000000000001111110100110110000111011111100000100 ="
b11 n
b11 z
b11 #"
b1111001011010001011101011110010000000000000000000000000000000011 ~
b0 l
b0 y
b0 ""
b0 r
0S"
b11 X"
b110101 P"
1O"
b1100 Q"
b1110 <
b11 U"
b11 K"
b100 J"
b11 I"
b100 H"
b11 m
b0 k
b0 q
04
0p
0o
0.
00
b0 /
b0 \
1?
b1001011110 )
b1001011110 V
b1001011110 %"
b1001011110 I
b1001011110 g"
b1 C
b0 >
0=
b1001011110 A
b1100000110101110011011111000001 @
b1111101110110110010001100011011101 M
b101000011010101000010110010011 O
0(
0F
0-
0L
b0 8
b0 G
b0 T
b1011 N
#290
0?
#300
b0 b
b0 2"
b10100 ]
b1 `
b1 0"
b11 :"
b1001111001 *"
b10111100111101011001 ,"
b11110100100001011011010101011010 -"
b1 6"
b11110010110100010111010111100101010001011011110100000000100000000010100101111001111010110010010011110011111010010000101101101010101101000001010010000000010100110100010000000000001111110100110110000111011111100000100 4"
b0 A"
b11 ?"
b11110010110100010111010111100101010001011011110100000000100000000010000101111001111010110010010011110011111010010000101101101010101101000001000010000000010100110100010000000000001111110100110110000111011111100000100 ="
1T"
b11 V"
b1 W"
b10100 P"
b1101 Q"
b1111 <
b11 c"
b10 ^"
b111100101101000101110101111001 ]"
b11 K"
b100 J"
b11 I"
b100 H"
b0 9"
b10 F"
b10 5"
b11110010110100010111010111100101010001011011110100000000100000000010100101111001111010110010010011110011111010010000101101101010101101000001000010000000010100110100010000000000001111110100110110000111011111100000100 3"
b1001111001001011110011110101100111110100100001011011010101011010x1100001000 3
b1001111001001011110011110101100111110100100001011011010101011010x1100001000 c
b1001111001001011110011110101100111110100100001011011010101011010x1100001000 ;"
b111 @"
b11111 D"
b0 >"
b11110010110100010111010111100101010001011011110100000000100000000010000101111001111010110010010011110011111010010000101101101010101101000001000010000000010100110100010000000000001111110100110110000111011111100000100 <"
1?
b1100101111 )
b1100101111 V
b1100101111 %"
b1100101111 I
b1100101111 g"
1,
1K
b10000000000000000000000000000000000 *
b10000000000000000000000000000000000 W
b10000000000000000000000000000000000 &"
b10000000000000000000000000000000000 J
b0 C
1#
1D
b11 >
b1100101111 A
b10001001010100011011100100010 @
b1111001011101010000110111010010111 M
b1000001101110000100110100000100 O
b1100 N
#310
0?
#320
b0 B"
b11001001100000101110001010010011110001101110001101100101001111000000101000011110010110100010111010111100101010001011011110100000000100000000010000101111001111010110010010011110011111010010000101101101010101101000001000010000000010100110100010000000000001111110100110110000111011111100000100 <"
1Z
1p
1o
1.
b10 n
b10 z
b10 #"
b11000110111000110110010100111100 l
b11000110111000110110010100111100 y
b11000110111000110110010100111100 ""
b1 r
0T"
b11001001100000101110001010010011 R"
1S"
b1110 Q"
b10000 <
b1 c"
b0 a"
b11 K"
b100 J"
b11 I"
b100 H"
b10 m
b11000110111000110110010100111100 k
b11001001100000101110001010010011 /
b11001001100000101110001010010011 \
14
10
b1 q
b11 >"
b1 @"
b1 D"
b1001111001001011110011110101100111110100100001011011010101011010x1100001000 3
b1001111001001011110011110101100111110100100001011011010101011010x1100001000 c
b1001111001001011110011110101100111110100100001011011010101011010x1100001000 ;"
b11110010110100010111010111100101010001011011110100000000100000000010100101111001111010110010010011110011111010010000101101101010101101000001010010000000010100110100010000000000001111110100110110000111011111100000100 3"
b11 9"
b1 5"
1?
b11111101111 )
b11111101111 V
b11111101111 %"
b11111101111 I
b11111101111 g"
1(
1F
b11001001100000101110001010010011 '
b11001001100000101110001010010011 L"
b11001001100000101110001010010011 E
b10 C
b110010011000001011100010100100111100011011100011011001010011110010 ~
b11001001100000101110001010010011 6
b11001001100000101110001010010011 H
b11001001100000101110001010010011 U
b11001001100000101110001010010011 |
b11001001100000101110001010010011 $"
b1110010011000001011100010100100110111000110110010100111100110001100000001000100111000 8
b1110010011000001011100010100100110111000110110010100111100110001100000001000100111000 G
b1110010011000001011100010100100110111000110110010100111100110001100000001000100111000 T
1-
1L
b11100011011001010011110011000110 e"
b11001001100000101110001010010011 f"
b1 >
1=
b11111101111 A
b11100011011001010011110011000110 @
b1111001001100000101110001010010011 M
b10111010101100101010111111010001 O
0,
0K
0#
0D
b0 *
b0 W
b0 &"
b0 J
b1101 N
#330
0?
