cva6-model/lsu_wave_pipeline.vcd
$date
	Tue Apr 11 15:04:36 2023
$end
$version
	Icarus Verilog
$end
$timescale
	1s
$end
$scope module load_store_unit_tb $end
$var wire 65 ! de_io_amo_resp_i [64:0] $end
$var wire 1 " de_io_amo_valid_commit_i $end
$var wire 1 # de_io_asid_i $end
$var wire 1 $ de_io_asid_to_be_flushed_i $end
$var wire 1 % de_io_commit_i $end
$var wire 1 & de_io_dcache_wbuffer_empty_i $end
$var wire 1 ' de_io_dcache_wbuffer_not_ni_i $end
$var wire 1 ( de_io_dtlb_miss_o $end
$var wire 1 ) de_io_en_ld_st_translation_i $end
$var wire 1 * de_io_enable_translation_i $end
$var wire 1 + de_io_flush_i $end
$var wire 1 , de_io_flush_tlb_i $end
$var wire 33 - de_io_icache_areq_i [32:0] $end
$var wire 1 . de_io_itlb_miss_o $end
$var wire 2 / de_io_ld_st_priv_lvl_i [1:0] $end
$var wire 1 0 de_io_mxr_i $end
$var wire 512 1 de_io_pmpaddr_i [511:0] $end
$var wire 128 2 de_io_pmpcfg_i [127:0] $end
$var wire 2 3 de_io_priv_lvl_i [1:0] $end
$var wire 22 4 de_io_satp_ppn_i [21:0] $end
$var wire 1 5 de_io_sum_i $end
$var wire 32 6 de_io_vaddr_to_be_flushed_i [31:0] $end
$var reg 32 7 CLK_CYCLE [31:0] $end
$var reg 1 8 clk $end
$var reg 1 9 reset $end
$var reg 1 : tb_io_commit_i $end
$var reg 3 ; tb_io_commit_tran_id_i [2:0] $end
$var reg 105 < tb_io_dcache_req_ports_i [104:0] $end
$var reg 111 = tb_io_fu_data_i [110:0] $end
$var reg 1 > tb_io_lsu_valid_i $end
$var integer 32 ? i [31:0] $end
$var integer 32 @ seed [31:0] $end
$scope module lsu_i $end
$var wire 65 A amo_resp_i [64:0] $end
$var wire 1 " amo_valid_commit_i $end
$var wire 1 # asid_i $end
$var wire 1 $ asid_to_be_flushed_i $end
$var wire 1 8 clk_i $end
$var wire 1 % commit_i $end
$var wire 3 B commit_tran_id_i [2:0] $end
$var wire 105 C dcache_req_ports_i [104:0] $end
$var wire 1 & dcache_wbuffer_empty_i $end
$var wire 1 ' dcache_wbuffer_not_ni_i $end
$var wire 1 D dtlb_hit $end
$var wire 1 ( dtlb_miss_o $end
$var wire 1 ) en_ld_st_translation_i $end
$var wire 1 * enable_translation_i $end
$var wire 1 + flush_i $end
$var wire 1 , flush_tlb_i $end
$var wire 111 E fu_data_i [110:0] $end
$var wire 33 F icache_areq_i [32:0] $end
$var wire 1 . itlb_miss_o $end
$var wire 2 G ld_st_priv_lvl_i [1:0] $end
$var wire 1 > lsu_valid_i $end
$var wire 65 H mmu_exception [64:0] $end
$var wire 1 0 mxr_i $end
$var wire 512 I pmpaddr_i [511:0] $end
$var wire 128 J pmpcfg_i [127:0] $end
$var wire 2 K priv_lvl_i [1:0] $end
$var wire 1 9 rst_ni $end
$var wire 22 L satp_ppn_i [21:0] $end
$var wire 32 M st_result [31:0] $end
$var wire 1 5 sum_i $end
$var wire 32 N vaddr_i [31:0] $end
$var wire 32 O vaddr_to_be_flushed_i [31:0] $end
$var reg 1 P data_misaligned $end
$var reg 1 Q ld_valid_i $end
$var reg 65 R misaligned_exception [64:0] $end
$var reg 34 S mmu_paddr [33:0] $end
$var reg 32 T mmu_vaddr [31:0] $end
$var reg 1 U st_valid_i $end
$var reg 1 V translation_req $end
$var reg 1 W translation_valid $end
$scope function ariane_pkg_be_gen $end
$upscope $end
$scope function ariane_pkg_be_gen_32 $end
$upscope $end
$scope function ariane_pkg_extract_transfer_size $end
$upscope $end
$scope begin gen_no_mmu $end
$upscope $end
$scope module i_load_unit $end
$var wire 1 8 clk_i $end
$var wire 3 X commit_tran_id_i [2:0] $end
$var wire 1 ' dcache_wbuffer_not_ni_i $end
$var wire 1 D dtlb_hit_i $end
$var wire 22 Y dtlb_ppn_i [21:0] $end
$var wire 65 Z ex_i [64:0] $end
$var wire 1 + flush_i $end
$var wire 1 [ inflight_stores $end
$var wire 34 \ paddr_i [33:0] $end
$var wire 1 ] paddr_ni $end
$var wire 35 ^ req_port_i [34:0] $end
$var wire 1 9 rst_ni $end
$var wire 1 _ sign_bit $end
$var wire 1 ` stall_ni $end
$var wire 1 a sv2v_tmp_52ECA [1:1] $end
$var wire 32 b sv2v_tmp_82AC4 [32:1] $end
$var wire 1 Q valid_i $end
$var reg 65 c ex_o [64:0] $end
$var reg 1 d fp_sign_q $end
$var reg 2 e idx_q [1:0] $end
$var reg 13 f load_data_d [12:0] $end
$var reg 13 g load_data_q [12:0] $end
$var reg 1 h pop_ld_o $end
$var reg 77 i req_port_o [76:0] $end
$var reg 32 j result_o [31:0] $end
$var reg 1 k signed_q $end
$var reg 4 l state_d [3:0] $end
$var reg 4 m state_q [3:0] $end
$var reg 3 n trans_id_o [2:0] $end
$var reg 1 o translation_req_o $end
$var reg 1 p valid_o $end
$scope function ariane_pkg_extract_transfer_size $end
$upscope $end
$scope function ariane_pkg_is_inside_nonidempotent_regions $end
$scope begin sv2v_autoblock_1 $end
$upscope $end
$upscope $end
$scope function ariane_pkg_range_check $end
$upscope $end
$scope function sv2v_cast_65 $end
$upscope $end
$scope begin gen_sign_bits[0] $end
$upscope $end
$scope begin gen_sign_bits[1] $end
$upscope $end
$scope begin gen_sign_bits[2] $end
$upscope $end
$scope begin gen_sign_bits[3] $end
$upscope $end
$scope begin load_control $end
$upscope $end
$scope begin p_regs $end
$upscope $end
$scope begin rvalid_output $end
$upscope $end
$upscope $end
$scope module i_pipe_reg_load $end
$var wire 1 8 clk_i $end
$var wire 101 q d_i [100:0] $end
$var wire 1 9 rst_ni $end
$var reg 101 r d_o [100:0] $end
$scope begin genblk1 $end
$upscope $end
$upscope $end
$scope module i_pipe_reg_store $end
$var wire 1 8 clk_i $end
$var wire 101 s d_i [100:0] $end
$var wire 1 9 rst_ni $end
$var reg 101 t d_o [100:0] $end
$scope begin genblk1 $end
$upscope $end
$upscope $end
$scope module i_store_unit $end
$var wire 1 u amo_buffer_ready $end
$var wire 1 v amo_buffer_valid $end
$var wire 65 w amo_resp_i [64:0] $end
$var wire 1 " amo_valid_commit_i $end
$var wire 1 8 clk_i $end
$var wire 1 % commit_i $end
$var wire 1 D dtlb_hit_i $end
$var wire 65 x ex_i [64:0] $end
$var wire 1 + flush_i $end
$var wire 34 y paddr_i [33:0] $end
$var wire 12 z page_offset_i [11:0] $end
$var wire 35 { req_port_i [34:0] $end
$var wire 32 | result_o [31:0] $end
$var wire 1 9 rst_ni $end
$var wire 1 } st_ready $end
$var wire 1 ~ store_buffer_valid $end
$var wire 1 U valid_i $end
$var wire 32 !" vaddr_o [31:0] $end
$var wire 3 "" trans_id_o [2:0] $end
$var wire 1 #" store_buffer_ready $end
$var wire 1 $" store_buffer_empty_o $end
$var wire 77 %" req_port_o [76:0] $end
$var wire 1 &" page_offset_matches_o $end
$var wire 1 '" no_st_pending_o $end
$var wire 85 (" lsu_ctrl_i [84:0] $end
$var wire 1 )" instr_is_amo $end
$var wire 1 *" commit_ready_o $end
$var wire 135 +" amo_req_o [134:0] $end
$var reg 4 ," amo_op_d [3:0] $end
$var reg 4 -" amo_op_q [3:0] $end
$var reg 65 ." ex_o [64:0] $end
$var reg 1 /" pop_st_o $end
$var reg 4 0" st_be_n [3:0] $end
$var reg 4 1" st_be_q [3:0] $end
$var reg 32 2" st_data_n [31:0] $end
$var reg 32 3" st_data_q [31:0] $end
$var reg 2 4" st_data_size_n [1:0] $end
$var reg 2 5" st_data_size_q [1:0] $end
$var reg 1 6" st_valid $end
$var reg 1 7" st_valid_without_flush $end
$var reg 2 8" state_d [1:0] $end
$var reg 2 9" state_q [1:0] $end
$var reg 3 :" trans_id_n [2:0] $end
$var reg 3 ;" trans_id_q [2:0] $end
$var reg 1 <" translation_req_o $end
$var reg 1 =" valid_o $end
$scope function ariane_pkg_data_align $end
$upscope $end
$scope function ariane_pkg_extract_transfer_size $end
$upscope $end
$scope function ariane_pkg_is_amo $end
$upscope $end
$scope module i_amo_buffer $end
$var wire 72 >" amo_data_out [71:0] $end
$var wire 4 ?" amo_op_i [3:0] $end
$var wire 65 @" amo_resp_i [64:0] $end
$var wire 1 A" amo_valid $end
$var wire 1 " amo_valid_commit_i $end
$var wire 1 8 clk_i $end
$var wire 32 B" data_i [31:0] $end
$var wire 2 C" data_size_i [1:0] $end
$var wire 1 D" flush_amo_buffer $end
$var wire 1 + flush_i $end
$var wire 34 E" paddr_i [33:0] $end
$var wire 1 u ready_o $end
$var wire 1 9 rst_ni $end
$var wire 1 v valid_i $end
$var wire 1 '" no_st_pending_i $end
$var wire 135 F" amo_req_o [134:0] $end
$var wire 72 G" amo_data_in [71:0] $end
$upscope $end
$scope module store_buffer_i $end
$var wire 4 H" be_i [3:0] $end
$var wire 1 8 clk_i $end
$var wire 1 % commit_i $end
$var wire 32 I" data_i [31:0] $end
$var wire 2 J" data_size_i [1:0] $end
$var wire 1 + flush_i $end
$var wire 34 K" paddr_i [33:0] $end
$var wire 12 L" page_offset_i [11:0] $end
$var wire 35 M" req_port_i [34:0] $end
$var wire 1 9 rst_ni $end
$var wire 1 $" store_buffer_empty_o $end
$var wire 1 N" sv2v_tmp_80AC7 [1:1] $end
$var wire 1 O" sv2v_tmp_A682E [1:1] $end
$var wire 1 P" sv2v_tmp_F170F [1:1] $end
$var wire 1 ~ valid_i $end
$var wire 1 7" valid_without_flush_i $end
$var wire 12 Q" sv2v_tmp_9099D [12:1] $end
$var wire 4 R" sv2v_tmp_8DCF7 [4:1] $end
$var wire 22 S" sv2v_tmp_71805 [22:1] $end
$var wire 32 T" sv2v_tmp_6B7F3 [32:1] $end
$var wire 2 U" sv2v_tmp_51F0D [2:1] $end
$var reg 584 V" commit_queue_n [583:0] $end
$var reg 584 W" commit_queue_q [583:0] $end
$var reg 3 X" commit_read_pointer_n [2:0] $end
$var reg 3 Y" commit_read_pointer_q [2:0] $end
$var reg 1 *" commit_ready_o $end
$var reg 4 Z" commit_status_cnt_n [3:0] $end
$var reg 4 [" commit_status_cnt_q [3:0] $end
$var reg 3 \" commit_write_pointer_n [2:0] $end
$var reg 3 ]" commit_write_pointer_q [2:0] $end
$var reg 1 '" no_st_pending_o $end
$var reg 1 &" page_offset_matches_o $end
$var reg 1 #" ready_o $end
$var reg 77 ^" req_port_o [76:0] $end
$var reg 292 _" speculative_queue_n [291:0] $end
$var reg 292 `" speculative_queue_q [291:0] $end
$var reg 2 a" speculative_read_pointer_n [1:0] $end
$var reg 2 b" speculative_read_pointer_q [1:0] $end
$var reg 3 c" speculative_status_cnt_n [2:0] $end
$var reg 3 d" speculative_status_cnt_q [2:0] $end
$var reg 2 e" speculative_write_pointer_n [1:0] $end
$var reg 2 f" speculative_write_pointer_q [1:0] $end
$scope function sv2v_cast_79500 $end
$upscope $end
$scope begin core_if $end
$var reg 5 g" speculative_status_cnt [4:0] $end
$scope begin sv2v_autoblock_1 $end
$var reg 32 h" i [31:0] $end
$upscope $end
$upscope $end
$scope begin p_commit $end
$upscope $end
$scope begin p_spec $end
$upscope $end
$scope begin store_if $end
$var reg 9 i" commit_status_cnt [8:0] $end
$upscope $end
$scope begin sv2v_autoblock_2 $end
$var reg 2 j" _sv2v_jump [0:1] $end
$scope begin address_checker $end
$scope begin sv2v_autoblock_3 $end
$var reg 32 k" i [31:0] $end
$scope begin sv2v_autoblock_4 $end
$var reg 32 l" _sv2v_value_on_break [31:0] $end
$upscope $end
$upscope $end
$scope begin sv2v_autoblock_5 $end
$var reg 32 m" i [31:0] $end
$scope begin sv2v_autoblock_6 $end
$var reg 32 n" _sv2v_value_on_break [31:0] $end
$upscope $end
$upscope $end
$upscope $end
$upscope $end
$upscope $end
$scope begin store_control $end
$upscope $end
$upscope $end
$scope module lsu_bypass_i $end
$var wire 1 8 clk_i $end
$var wire 1 + flush_i $end
$var wire 85 o" lsu_req_i [84:0] $end
$var wire 1 > lsu_req_valid_i $end
$var wire 1 h pop_ld_i $end
$var wire 1 /" pop_st_i $end
$var wire 1 p" ready_o $end
$var wire 1 9 rst_ni $end
$var wire 1 q" empty $end
$var reg 85 r" lsu_ctrl_o [84:0] $end
$var reg 170 s" mem_n [169:0] $end
$var reg 170 t" mem_q [169:0] $end
$var reg 1 u" read_pointer $end
$var reg 1 v" read_pointer_n $end
$var reg 1 w" read_pointer_q $end
$var reg 2 x" status_cnt [1:0] $end
$var reg 2 y" status_cnt_n [1:0] $end
$var reg 2 z" status_cnt_q [1:0] $end
$var reg 1 {" write_pointer $end
$var reg 1 |" write_pointer_n $end
$var reg 1 }" write_pointer_q $end
$scope begin output_assignments $end
$upscope $end
$scope begin sv2v_autoblock_1 $end
$upscope $end
$upscope $end
$scope begin data_misaligned_detection $end
$upscope $end
$scope begin which_op $end
$upscope $end
$upscope $end
$scope task load_commit $end
$var reg 3 ~" commit_id [2:0] $end
$upscope $end
$scope task lower_load_request $end
$upscope $end
$scope task lower_store_request $end
$upscope $end
$scope task raise_load_request $end
$var reg 32 !# addr [31:0] $end
$var reg 3 "# commit_id [2:0] $end
$upscope $end
$scope task raise_store_request $end
$var reg 32 ## addr [31:0] $end
$var reg 3 $# commit_id [2:0] $end
$var reg 32 %# data [31:0] $end
$upscope $end
$scope task serve_load_1 $end
$upscope $end
$scope task serve_load_2 $end
$var reg 32 &# data [31:0] $end
$upscope $end
$scope task serve_load_3 $end
$upscope $end
$scope task serve_store_1 $end
$upscope $end
$scope task serve_store_2 $end
$upscope $end
$scope task store_commit $end
$upscope $end
$scope task store_decommit $end
$upscope $end
$upscope $end
$enddefinitions $end
#0
$dumpvars
bx &#
bx %#
bx $#
bx ##
bx "#
bx !#
bx ~"
x}"
x|"
x{"
bx z"
bx y"
bx x"
xw"
xv"
xu"
bx t"
bx s"
bx r"
xq"
xp"
bx0000xxxxxxxxxxxxxxx o"
b11 n"
b100 m"
b111 l"
b1000 k"
b0 j"
bx i"
bx h"
b0xxx g"
bx f"
bx e"
bx d"
bx c"
bx b"
bx a"
bx `"
bx _"
bx1xxxxxx00 ^"
bx ]"
bx \"
bx ["
bx Z"
bx Y"
bx X"
bx W"
bx V"
bx U"
bx T"
bx S"
bx R"
bx Q"
0P"
0O"
1N"
bx M"
bx L"
b0xxxxxxxxxxxxxxxxxxxxxxxxxxxxxxxx K"
bx J"
bx I"
bx H"
bx00xxxxxxxxxxxxxxxxxxxxxxxxxxxxxxxxxxxxxxxxxxxxxxxxxxxxxxxxxxxxxxxxxx G"
b0zzzzzz000000000000000000000000000000zzzzzzzzzzzzzzzzzzzzzzzzzzzzzzzzzz00000000000000000000000000000000zzzzzzzzzzzzzzzzzzzzzzzzzzzzzzzz F"
b0xxxxxxxxxxxxxxxxxxxxxxxxxxxxxxxx E"
0D"
bx C"
bx B"
zA"
b0 @"
bx ?"
bz >"
0="
0<"
bx ;"
bx :"
bx 9"
bx 8"
07"
06"
bx 5"
b11 4"
bx 3"
b0 2"
bx 1"
bx 0"
0/"
b0 ."
bx -"
b0 ,"
b0zzzzzz000000000000000000000000000000zzzzzzzzzzzzzzzzzzzzzzzzzzzzzzzzzz00000000000000000000000000000000zzzzzzzzzzzzzzzzzzzzzzzzzzzzzzzz +"
x*"
0)"
bx ("
x'"
0&"
bx1xxxxxx00 %"
x$"
x#"
bx ""
bx !"
0~
x}
b0 |
bx {
bx z
b0xxxxxxxxxxxxxxxxxxxxxxxxxxxxxxxx y
b0 x
b0 w
0v
zu
b0xxx0000000000000000000000000000000000000000000000000000000000000000000000000000000000000000000000000 t
b0xxx0000000000000000000000000000000000000000000000000000000000000000000000000000000000000000000000000 s
b0xxxxxxxxxxxxxxxxxxxxxxxxxxxxxxxxxxxxxxxxxxxxxxxxxxxxxxxxxxxxxxxxxxxxxxxxxxxxxxxxxxxxxxxxxxxxxxxxxxx0 r
b0xxxxxxxxxxxxxxxxxxxxxxxxxxxxxxxxxxx00000000000000000000000000000000000000000000000000000000000000000 q
0p
0o
bx n
bx m
bx l
xk
bx j
bx00xxxxxxxxxxxxxxxxxxxx00000000000000000000000000000000x00xxxx1100 i
0h
bx g
bx f
bx e
xd
b0 c
b0 b
0a
0`
x_
bx ^
0]
b0xxxxxxxxxxxxxxxxxxxxxxxxxxxxxxxx \
1[
b0 Z
bx Y
bx X
xW
xV
xU
bx T
b0xxxxxxxxxxxxxxxxxxxxxxxxxxxxxxxx S
b0 R
xQ
0P
b0 O
bx N
b0 M
b0 L
b0 K
b0 J
b0 I
b0 H
b0 G
b0 F
bx E
1D
bx C
bx B
b0 A
b1100100 @
bx ?
x>
bx =
bx <
bx ;
x:
19
18
b0 7
b0 6
05
b0 4
b0 3
b0 2
b0 1
00
b0 /
0.
b0 -
0,
0+
0*
0)
0(
0'
0&
x%
0$
0#
0"
b0 !
$end
#10
08
#20
bx00000000000000000000 Y
b0 !"
b0 z
b0 L"
b0 T
0V
0U
0Q
b0 0"
b0 :"
b0x0000001100 i
0_
1$"
b0 Z"
b0 V"
b0 \"
b0 X"
1'"
1*"
b0 ("
b0 r"
b0 y"
0|"
0v"
b0 s"
0u"
0{"
b0 x"
b0 j
b0 q
b0 n
b0 f
b0 l
b0 8"
b11 n"
b100 m"
b111 l"
b1000 k"
b0 _"
b0 e"
b0 a"
b0 c"
1}
1#"
b0 g"
b1 7
0d
0k
b0 e
b0 ["
b0 ]"
b0 Q"
b0 S"
b0 T"
b0 R"
b0 U"
b0 Y"
b0 W"
b0 d"
b0 f"
b0 b"
b0 `"
0w"
0}"
1p"
1q"
b0 z"
b0 t"
b0 t
b0 r
b0 g
b0 m
b0 -"
b0 ?"
b0 s
b0 ""
b0 ;"
b0 5"
b0 C"
b0 J"
b0 3"
b0 B"
b0 I"
b0 1"
b0 H"
b0 9"
0W
b0 G"
b0 S
b0 \
b0 y
b0 E"
b0 K"
b0 N
b0x0100000000 %"
b0x0100000000 ^"
b0 i"
b0 {
b0 M"
b0 ^
18
b0 o"
0>
b0 =
b0 E
b0 ;
b0 B
b0 X
0%
0:
b0 <
b0 C
09
#30
08
#40
b10 7
18
#50
08
#60
b11 G"
b11 5"
b11 C"
b11 J"
b11 7
18
19
#70
08
#80
1}"
0p"
0q"
b1 z"
b1000000000000000000000000000101000000000000000000000000000000110000000001000100111001 t"
b100 7
b0 0"
1v"
1u"
b10100 T
1V
b11 n"
b100 m"
b111 l"
b1000 k"
1/"
1<"
b1 8"
b10100 !"
b10100 z
b10100 L"
1U
b10100000000000000000000000000000000000000000000000000000000x0000001000 i
b10 4"
b11000 2"
b1 :"
b1000000000000000000000000000101000000000000000000000000000000110000000001000100111001 ("
b1000000000000000000000000000101000000000000000000000000000000110000000001000100111001 r"
b1 y"
0|"
b1 x"
0{"
b10000000000000000000000000001010000000000000000000000000000001100011110010001001110010000000000000000000000000000101000000000000000000000000000000110000000001000100111001 s"
b10100 N
18
b1000000000000000000000000000101000000000000000000000000000000110001111001000100111001 o"
1>
b1000100111000000000000000000000000000101000000000000000000000000000001100000000000000000000000000000000000001 =
b1000100111000000000000000000000000000101000000000000000000000000000001100000000000000000000000000000000000001 E
b1 $#
b11000 %#
b10100 ##
b0 ?
#90
08
#100
b0 8"
b1 c"
b1 g"
b1 e"
b10100000000000000000000000000000110000000101 _"
b10100 T
1V
0U
b10100000000000000000000000000000000000000000000000000000000x0011111000 i
b1111 0"
1&"
1~
b101000000000000000000000000000000110001111001000100111001 ("
b101000000000000000000000000000000110001111001000100111001 r"
1v"
17"
16"
1="
0/"
0<"
b11 n"
b100 m"
b111 l"
b1000 k"
1w"
1p"
1q"
b0 z"
b101000000000000000000000000000000110000000001000100111001 t"
b10 5"
b10 C"
b10 J"
b10010000000000000000000000000000000000000000000000000000000000000000000000000000000000000000000000000 s
b1 ""
b1 ;"
b11000 3"
b11000 B"
b11000 I"
b1 9"
1W
b101000000000000000000000000000001100010 G"
b10100 S
b10100 \
b10100 y
b10100 E"
b10100 K"
b101 7
b0 y"
1|"
b0 x"
b101000000000000000000000000000000110000000001000100111001 s"
1u"
1{"
18
b101000000000000000000000000000000110001111001000100111001 o"
0>
#110
08
#120
0~
0$"
b0 n"
b0 j"
b0 m"
b111 l"
b1000 k"
1&"
b1 c"
b1 g"
b1 e"
b10100000000000000000000000000000110000000101 _"
07"
06"
b10000000000000000000000000000000000000000000000000000000000000000000000000000000000000000000000000 s
0="
b1 d"
b1 f"
b10100000000000000000000000000000110000000101 `"
b1111 1"
b1111 H"
b0 9"
b10010000000000000000000000000000000000000000000000000000000000000000000000000000000000000000000000000 t
b110 7
18
#130
08
#140
0}"
0p"
0q"
b1 z"
b10000000000000000000000000001010000000000000000000000000000000000011110001001001010100000000000000000000000000000101000000000000000000000000000000110000000001000100111001 t"
b10000000000000000000000000000000000000000000000000000000000000000000000000000000000000000000000000 t
b111 7
b11 l
1o
1Q
b10100 T
0V
b0 2"
b10 :"
b1000000000000000000000000000101000000000000000000000000000000000001111000100100101010 ("
b1000000000000000000000000000101000000000000000000000000000000000001111000100100101010 r"
b10 y"
1|"
b10 x"
1{"
b10000000000000000000000000001010000000000000000000000000000000000011110001001001010101000000000000000000000000000101000000000000000000000000000000000001111000100100101010 s"
18
b1000000000000000000000000000101000000000000000000000000000000000001111000100100101010 o"
1>
b100100101000000000000000000000000000101000000000000000000000000000000000000000000000000000000000000000000010 =
b100100101000000000000000000000000000101000000000000000000000000000000000000000000000000000000000000000000010 E
b10 "#
b10100 !#
#150
08
#160
b11 n"
b100 m"
b0 l"
b0 j"
b0 k"
1&"
b10100000000000000000000000000000000000000000000000000011000x1100001000 %"
b10100000000000000000000000000000000000000000000000000011000x1100001000 ^"
0'"
0o
b1 ["
b1 ]"
b10100 Q"
b11000 T"
b10 U"
b10100000000000000000000000000000110000000101 W"
b0 d"
b1 b"
b10100000000000000000000000000000110000000100 `"
0W
b100000000000000000000000000000000000000000000000000000000000000000000000000000000000000000000000000 s
b10 ""
b10 ;"
b101000000000000000000000000000000000010 G"
b0 3"
b0 B"
b0 I"
b11 m
b1000 7
b1 y"
0|"
b10000000000000000000000000001010000000000000000000000000000000000011110001001001010100000000000000000000000000000101000000000000000000000000000000110000000001000100111001 s"
0{"
b1 x"
b10 Z"
b10 i"
b10 \"
b10100000000000000000000000000000110000000101 V"
b111 c"
b11111 g"
b10 a"
b10100000000000000000000000000000110000000100 _"
18
b101000000000000000000000000000000000001111000100100101010 o"
0>
1%
1:
#170
08
#180
b100000000000000000000000000000000000000000000000000000000000000000000000000000000000000000000000000 t
b1001 7
b100100 j
b10000000000000000000000000000010010000000000000000000000000000000000000000000000000000000000000000000 q
1p
b1000000000000000000000000001001000 ^
b1 Z"
b10100000000000000000000000000000000000000000000000000011000x1100001000 %"
b10100000000000000000000000000000000000000000000000000011000x1100001000 ^"
b1 \"
b1 i"
b1 a"
b0 c"
b0 g"
18
b10 ;
b10 B
b10 X
b10 ~"
b100000000000000000000000000100100000000000000000000000000000000000000 <
b100000000000000000000000000100100000000000000000000000000000000000000 C
b100100 &#
0%
0:
#190
08
#200
b10000000000000000000000000000010010000000000000000000000000000000000000000000000000000000000000000000 r
b1010 7
18
#210
08
#220
b1011 7
b0 Z"
b0 i"
b1 X"
b10100000000000000000000000000000110000000100 V"
b10100000000000000000000000000000000000000000000000000011000x1100001000 %"
b10100000000000000000000000000000000000000000000000000011000x1100001000 ^"
b10000000000000000000000000000000000 {
b10000000000000000000000000000000000 M"
18
b100000000000000000000000000000000000100000000000000000000000000100100000000000000000000000000000000000000 <
b100000000000000000000000000000000000100000000000000000000000000100100000000000000000000000000000000000000 C
#230
08
#240
b1 l
1$"
b11 n"
b100 m"
b111 l"
b1000 k"
0&"
b0x0100000000 %"
b0x0100000000 ^"
1'"
b0 ["
b0 Q"
b0 T"
b0 U"
b1 Y"
b10100000000000000000000000000000110000000100 W"
b1100 7
b0 j
b0 q
0p
b10000000000000000000000000000000000 ^
18
b100000000000000000000000000000000001000000000000000000000000000000000000000000000000000000000000000000000 <
b100000000000000000000000000000000001000000000000000000000000000000000000000000000000000000000000000000000 C
#250
08
#260
b0 y"
0v"
b0 x"
0u"
b1010000000000000000000000000000000000011110001001001010100000000000000000000000000000101000000000000000000000000000000110000000001000100111001 s"
b100000100101 f
1h
b10 l
b10100000000000000000000000000000000000000000000000000000000x1011111000 i
1o
b0 r
b1 m
b1101 7
b0 {
b0 M"
18
b1000000000000000000000000000000000000000000000000000000000000000000000 <
b1000000000000000000000000000000000000000000000000000000000000000000000 C
#270
08
#280
1V
b10100 T
0Q
b100000000000000000000000000000000000000000000000000000000000000000000000000000000000000000000000000 q
b10 n
b101000000000000000000000000000000000001111000100100101010 ("
b101000000000000000000000000000000000001111000100100101010 r"
1k
b100000100101 g
b10 m
0w"
1p"
1q"
b0 z"
b1010000000000000000000000000000000000011110001001001010100000000000000000000000000000101000000000000000000000000000000110000000001000100111001 t"
b1110 7
b0 y"
0v"
b1010000000000000000000000000000000000011110001001001010100000000000000000000000000000101000000000000000000000000000000110000000001000100111001 s"
0u"
b0 x"
0h
b10100000000000000000000000000000000000000000000000000000000x0011111001 i
0o
b100000100101 f
b0 l
b0 ^
18
b0 <
b0 C
#290
08
#300
b10100000000000000000000000000000000000000000000000000000000x0011111000 i
b100000000000000000000000000000000000000000000000000000000000000000000000000000000000000000000000000 r
b0 m
1W
b1111 7
18
#310
08
#320
b10000 7
18
#330
08
#340
b10001 7
18
#350
08
#360
b10010 7
18
#370
08
#380
b10011 7
18
