cva6-model-runs/tlb_traces/test_17/tlb_wave_pipeline.vcd
$date
	Tue Jan 23 15:27:18 2024
$end
$version
	Icarus Verilog
$end
$timescale
	1s
$end
$scope module tlb_tb $end
$var wire 32 ! cdata [31:0] $end
$var wire 1 " de_io_flush_i $end
$var wire 1 # de_io_lu_access_i $end
$var wire 1 $ de_io_lu_asid_i $end
$var wire 32 % de_io_lu_vaddr_i [31:0] $end
$var wire 31 & tdata [30:0] $end
$var wire 32 ' de_io_vaddr_to_be_flushed_i [31:0] $end
$var wire 63 ( de_io_update_i [62:0] $end
$var wire 1 ) de_io_lu_is_4M_o $end
$var wire 1 * de_io_lu_hit_o $end
$var wire 32 + de_io_lu_content_o [31:0] $end
$var wire 1 , de_io_asid_to_be_flushed_i $end
$var reg 32 - CLK_CYCLE [31:0] $end
$var reg 9 . asid [8:0] $end
$var reg 2 / choice [1:0] $end
$var reg 1 0 clk $end
$var reg 32 1 edata [31:0] $end
$var reg 1 2 reset $end
$var reg 1 , tb_io_asid_to_be_flushed_i $end
$var reg 1 3 tb_io_flush_i $end
$var reg 1 4 tb_io_lu_access_i $end
$var reg 1 5 tb_io_lu_asid_i $end
$var reg 32 6 tb_io_lu_vaddr_i [31:0] $end
$var reg 63 7 tb_io_update_i [62:0] $end
$var reg 32 8 tb_io_vaddr_to_be_flushed_i [31:0] $end
$var reg 20 9 vpn [19:0] $end
$var integer 32 : i [31:0] $end
$var integer 32 ; seed [31:0] $end
$scope module tlb_i $end
$var wire 1 , asid_to_be_flushed_i $end
$var wire 1 < asid_to_be_flushed_is0 $end
$var wire 1 0 clk_i $end
$var wire 1 " flush_i $end
$var wire 1 # lu_access_i $end
$var wire 1 $ lu_asid_i $end
$var wire 32 = lu_vaddr_i [31:0] $end
$var wire 128 > port_content_q_o [127:0] $end
$var wire 4 ? port_replace_en_o [3:0] $end
$var wire 124 @ port_tags_q_o [123:0] $end
$var wire 1 2 rst_ni $end
$var wire 63 A update_i [62:0] $end
$var wire 32 B vaddr_to_be_flushed_i [31:0] $end
$var wire 1 C vaddr_to_be_flushed_is0 $end
$var wire 31 D tdata [30:0] $end
$var wire 31 E tags_q_3 [30:0] $end
$var wire 31 F tags_q_2 [30:0] $end
$var wire 31 G tags_q_1 [30:0] $end
$var wire 31 H tags_q_0 [30:0] $end
$var wire 32 I content_q_3 [31:0] $end
$var wire 32 J content_q_2 [31:0] $end
$var wire 32 K content_q_1 [31:0] $end
$var wire 32 L content_q_0 [31:0] $end
$var wire 32 M cdata [31:0] $end
$var reg 128 N content_n [127:0] $end
$var reg 128 O content_q [127:0] $end
$var reg 32 P lu_content_o [31:0] $end
$var reg 4 Q lu_hit [3:0] $end
$var reg 1 * lu_hit_o $end
$var reg 1 ) lu_is_4M_o $end
$var reg 6 R plru_tree_n [5:0] $end
$var reg 6 S plru_tree_q [5:0] $end
$var reg 4 T replace_en [3:0] $end
$var reg 124 U tags_n [123:0] $end
$var reg 124 V tags_q [123:0] $end
$var reg 4 W vaddr_vpn0_match [3:0] $end
$var reg 4 X vaddr_vpn1_match [3:0] $end
$var reg 10 Y vpn0 [9:0] $end
$var reg 10 Z vpn1 [9:0] $end
$scope function countSetBits $end
$var reg 32 [ count [31:0] $end
$var reg 32 \ countSetBits [31:0] $end
$var reg 4 ] vector [3:0] $end
$scope begin sv2v_autoblock_9 $end
$var integer 32 ^ idx [31:0] $end
$upscope $end
$upscope $end
$scope begin p_assertions $end
$upscope $end
$scope begin plru_replacement $end
$scope begin sv2v_autoblock_3 $end
$var reg 32 _ i [31:0] $end
$scope begin sv2v_autoblock_4 $end
$var reg 32 ` idx_base [31:0] $end
$var reg 32 a new_index [31:0] $end
$var reg 32 b shift [31:0] $end
$scope begin sv2v_autoblock_5 $end
$var reg 32 c lvl [31:0] $end
$upscope $end
$upscope $end
$upscope $end
$scope begin sv2v_autoblock_6 $end
$var reg 32 d i [31:0] $end
$scope begin sv2v_autoblock_7 $end
$var reg 1 e en $end
$var reg 32 f idx_base [31:0] $end
$var reg 32 g new_index [31:0] $end
$var reg 32 h shift [31:0] $end
$scope begin sv2v_autoblock_8 $end
$var reg 32 i lvl [31:0] $end
$upscope $end
$upscope $end
$upscope $end
$upscope $end
$scope begin translation $end
$scope begin sv2v_autoblock_1 $end
$var reg 32 j i [31:0] $end
$upscope $end
$upscope $end
$scope begin update_flush $end
$scope begin sv2v_autoblock_2 $end
$var reg 32 k i [31:0] $end
$upscope $end
$upscope $end
$upscope $end
$scope task make_tlb_flush $end
$var reg 9 l asid [8:0] $end
$var reg 20 m vpn [19:0] $end
$upscope $end
$scope task make_tlb_lookup $end
$var reg 9 n asid [8:0] $end
$var reg 20 o vpn [19:0] $end
$upscope $end
$scope task make_tlb_update $end
$var reg 9 p asid [8:0] $end
$var reg 32 q entry_data [31:0] $end
$var reg 20 r vpn [19:0] $end
$upscope $end
$upscope $end
$enddefinitions $end
#0
$dumpvars
bx r
bx q
bx p
bx o
bx n
bx m
bx l
bx k
bx j
bx i
bx h
bx g
bx f
xe
bx d
bx c
bx b
bx a
bx `
bx _
bx ^
bx ]
bx \
bx [
bx Z
bx Y
bx X
bx W
bx V
bx U
bx T
bx S
bx R
bx Q
bx P
bx O
bx N
b0xxxxxxxxxxxxxxxxxxxxxxxxxxxxxx1 M
bx L
bx K
bx J
bx I
bx H
bx G
bx F
bx E
bx D
xC
bx B
bx A
bx @
bx ?
bx >
bx =
x<
b10000111 ;
bx :
bx 9
bx 8
bx 7
bx 6
x5
x4
x3
12
bx 1
10
bx /
bx .
b0 -
x,
bx +
x*
x)
bx (
bx '
bx01 &
bx %
x$
x#
x"
bx !
$end
#10
00
#20
b1 ?
b1 T
b1 g
b1 h
b1 f
b10 i
0e
b100 d
b100 _
b0 R
b0 L
b0 K
b0 J
b0 I
b100 k
b0 N
b0 U
b100 j
0)
b0 +
b0 P
0*
b0 Q
b0 H
b0 G
b0 F
b0 E
b1 -
b0 S
b0 >
b0 O
b0 @
b0 V
10
02
#30
00
#40
b10 -
10
#50
00
#60
b11 -
10
b1110010101001110101111111100101 !
b1110010101001110101111111100101 1
b11100100100000000001 9
b11110010101001110101110101101101 ;
b11110010010000000000101 &
b1 .
12
#70
00
#80
b100 -
b0 D
1C
1<
b100 j
b1110010010 Z
b1 Y
b1111 X
b1111 W
b100 k
b1 M
10
b1000101100000000111100110001011 !
b1000101100000000111100110001011 1
b10111010001000001011001 &
b1110100010000010110 9
b0 '
b0 8
b0 B
0,
0"
03
1$
15
b11100100100000000001000000000000 %
b11100100100000000001000000000000 =
b11100100100000000001000000000000 6
b0 (
b0 7
b0 A
b1 n
b11100100100000000001 o
b10 /
b11000101100000000111011010101000 ;
b0 :
#90
00
#100
b101 -
b100 k
b100 j
b0 Z
b0 Y
10
b11100100100010111011011011001001 !
b11100100100010111011011011001001 1
b10101100000000000010001 &
b1011000000000000100 9
1"
13
0$
05
b0 %
b0 =
b0 6
b0 l
b0 m
b1 /
b1100100100010111011010110111111 ;
b1 :
#110
00
#120
b110 -
0C
b0 X
b0 W
b100 k
0<
10
b11010111111011010100101010101111 !
b11010111111011010100101010101111 1
b11111001101011011101101 &
b11110011010110111011 9
b1011000000000000100000000000000 '
b1011000000000000100000000000000 8
b1011000000000000100000000000000 B
1,
b1 l
b1011000000000000100 m
b11 /
b1010111111011010100100011100010 ;
b10 :
#130
00
#140
b111 -
1C
b1111 X
b1111 W
b100 k
1<
10
b11010011110110110011000010100111 !
b11010011110110110011000010100111 1
b11001111010000111010001 &
b10011110100001110100 9
b0 '
b0 8
b0 B
0,
b0 l
b0 m
b1 /
b1010011110110110010111000000001 ;
b11 :
#150
00
#160
b1000 -
0C
b0 X
b0 W
b100 k
0<
10
b11011111000000111111100110111 !
b11011111000000111111100110111 1
b10111111000101100001101 &
b1111110001011000011 9
b10011110100001110100000000000000 '
b10011110100001110100000000000000 8
b10011110100001110100000000000000 B
1,
b1 l
b10011110100001110100 m
b11 /
b10011011111000000111110111001100 ;
b100 :
#170
00
#180
b1001 -
1C
b1111 X
b1111 W
b100 k
1<
10
b11011100010010111101010010111000 !
b11011100010010111101010010111000 1
b10001001111011111111001 &
b10011110111111110 9
b0 '
b0 8
b0 B
0,
b0 l
b0 m
b1 /
b1011100010010111101001010110011 ;
b101 :
#190
00
#200
b1010 -
b100 k
b100 j
b1001111 Z
b111111110 Y
10
b1011110000011111111110110111100 !
b1011110000011111111110110111100 1
b11100010100010111100101 &
b11000101000101111001 9
0"
03
1$
15
b10011110111111110000000000000 %
b10011110111111110000000000000 =
b10011110111111110000000000000 6
b10011110111111110 o
b10 /
b11011110000011111111101111100110 ;
b110 :
#210
00
#220
b1011110000011111111110110111100 L
b1110 X
b1110 W
b11100010100010111100101 H
b1011110000011111111110110111100 >
b1011110000011111111110110111100 O
b11100010100010111100101 @
b11100010100010111100101 V
b1011 -
b1011110000011111111110110111100 D
b100 j
b0 Z
b0 Y
b1011110000011111111110110111100 N
b11100010100010111100101 U
b100 k
b11100010100010111100101 M
10
b10011010111000011110111000110101 !
b10011010111000011110111000110101 1
b11100011010110101101101 &
b11000110101101011011 9
0$
05
b0 %
b0 =
b0 6
b101100010100010111100100000000101011110000011111111110110111100 (
b101100010100010111100100000000101011110000011111111110110111100 7
b101100010100010111100100000000101011110000011111111110110111100 A
b1011110000011111111110110111100 q
b1 p
b11000101000101111001 r
b0 /
b11010111000011110110001010101 ;
b111 :
#230
00
#240
b10011010111000011110111000110101 L
b100 j
b11100011010110101101101 H
b10011010111000011110111000110101 >
b10011010111000011110111000110101 O
b11100011010110101101101 @
b11100011010110101101101 V
b1100 -
b11010111000011110111000110101 D
b10011010111000011110111000110101 N
b11100011010110101101101 U
b100 k
b11100011010110101101101 M
10
b1111001001111011001011111110010 !
b1111001001111011001011111110010 1
b10111000101111111010001 &
b1110001011111110100 9
b101100011010110101101100000000110011010111000011110111000110101 (
b101100011010110101101100000000110011010111000011110111000110101 7
b101100011010110101101100000000110011010111000011110111000110101 A
b10011010111000011110111000110101 q
b11000110101101011011 r
b11111001001111011001010110110000 ;
b1000 :
#250
00
#260
b100 j
b11100011010110101101100 H
b11100011010110101101100 @
b11100011010110101101100 V
b1101 -
b0 D
b11100011010110101101100 U
b100 k
b1 M
10
b1000110100100010010000110001101 !
b1000110100100010010000110001101 1
b11101001010000000010001 &
b11010010100000000100 9
1"
13
b0 (
b0 7
b0 A
b1 /
b11000110100100010001111101100111 ;
b1001 :
#270
00
#280
b1000110100100010010000110001101 L
b100 j
b11101001010000000010001 H
b1000110100100010010000110001101 >
b1000110100100010010000110001101 O
b11101001010000000010001 @
b11101001010000000010001 V
b1110 -
b1000110100100010010000110001101 D
b1000110100100010010000110001101 N
b11101001010000000010001 U
b100 k
b11101001010000000010001 M
10
b1011101101001101010101110111011 !
b1011101101001101010101110111011 1
b10000100100011000001001 &
b1001000110000010 9
0"
03
b101101001010000000010000000000101000110100100010010000110001101 (
b101101001010000000010000000000101000110100100010010000110001101 7
b101101001010000000010000000000101000110100100010010000110001101 A
b1000110100100010010000110001101 q
b11010010100000000100 r
b0 /
b11011101101001101010100110101010 ;
b1010 :
#290
00
#300
b100 j
b11101001010000000010000 H
b11101001010000000010000 @
b11101001010000000010000 V
b1111 -
b0 D
b11101001010000000010000 U
b100 k
b1 M
10
b11001100111111001000111010011001 !
b11001100111111001000111010011001 1
b10110100110000111100001 &
b1101001100001111000 9
1"
13
b0 (
b0 7
b0 A
b1 /
b1001100111111001000110001101001 ;
b1011 :
#310
00
#320
b10000 -
0C
b0 X
b0 W
b100 k
0<
10
b110011001111101100010101100110 !
b110011001111101100010101100110 1
b10011111100101111101001 &
b111111001011111010 9
b1101001100001111000000000000000 '
b1101001100001111000000000000000 8
b1101001100001111000000000000000 B
1,
b1 l
b1101001100001111000 m
b11 /
b10110011001111101100001001010100 ;
b1100 :
#330
00
#340
b10001 -
1C
1<
b1110 X
b1110 W
b100 k
b100 j
b11111100 Z
b1011111010 Y
10
b10101011000111011111000001010110 !
b10101011000111011111000001010110 1
b10000111001110011111101 &
b1110011100111111 9
b0 '
b0 8
b0 B
0,
0"
03
1$
15
b111111001011111010000000000000 %
b111111001011111010000000000000 =
b111111001011111010000000000000 6
b111111001011111010 o
b10 /
b101011000111011110111111011011 ;
b1101 :
#350
00
#360
b10101011000111011111000001010110 L
b10000111001110011111101 H
b10101011000111011111000001010110 >
b10101011000111011111000001010110 O
b10000111001110011111101 @
b10000111001110011111101 V
b10010 -
b101011000111011111000001010110 D
b100 j
b0 Z
b0 Y
b10101011000111011111000001010110 N
b10000111001110011111101 U
b100 k
b10000111001110011111101 M
10
b1011000000111010011100110110000 !
b1011000000111010011100110110000 1
b10011011010100011011101 &
b110110101000110111 9
0$
05
b0 %
b0 =
b0 6
b100000111001110011111100000000110101011000111011111000001010110 (
b100000111001110011111100000000110101011000111011111000001010110 7
b100000111001110011111100000000110101011000111011111000001010110 A
b10101011000111011111000001010110 q
b1110011100111111 r
b0 /
b11011000000111010011011000101110 ;
b1110 :
#370
00
#380
b10011 -
b0 D
b100 j
b11011010 Z
b1000110111 Y
b100 k
b1 M
10
b10100101010110111100010001001010 !
b10100101010110111100010001001010 1
b10111111100010111011001 &
b1111111000101110110 9
1$
15
b110110101000110111000000000000 %
b110110101000110111000000000000 =
b110110101000110111000000000000 6
b0 (
b0 7
b0 A
b110110101000110111 o
b10 /
b100101010110111100001000111101 ;
b1111 :
#390
00
#400
b10000111001110011111100 H
b10000111001110011111100 @
b10000111001110011111100 V
b10100 -
0C
0<
b0 X
b0 W
b10000111001110011111100 U
b100 k
b100 j
b0 Z
b0 Y
10
b11100011010001011100100011000110 !
b11100011010001011100100011000110 1
b10011010010010111000001 &
b110100100101110000 9
b1111111000101110110000000000000 '
b1111111000101110110000000000000 8
b1111111000101110110000000000000 B
1,
1"
13
0$
05
b0 %
b0 =
b0 6
b1111111000101110110 m
b11 /
b1100011010001011100011110111000 ;
b10000 :
#410
00
#420
b10101 -
b100 k
10
b1000000010101100101101110000000 !
b1000000010101100101101110000000 1
b11100110111011010111001 &
b11001101110110101110 9
b110100100101110000000000000000 '
b110100100101110000000000000000 8
b110100100101110000000000000000 B
b110100100101110000 m
b11000000010101100101100000001111 ;
b10001 :
#430
00
#440
b10110 -
10
b10111111101011000100011100000100 ;
b10010 :
