cva6-model-runs/tlb_traces/test_4/tlb_wave_pipeline.vcd
$date
	Tue Jan 23 15:27:18 2024
$end
$version
	Icarus Verilog
$end
$timescale
	1s
$end
$scope module tlb_tb $end
$var wire 32 ! cdata [31:0] $end
$var wire 1 " de_io_flush_i $end
$var wire 1 # de_io_lu_access_i $end
$var wire 1 $ de_io_lu_asid_i $end
$var wire 32 % de_io_lu_vaddr_i [31:0] $end
$var wire 31 & tdata [30:0] $end
$var wire 32 ' de_io_vaddr_to_be_flushed_i [31:0] $end
$var wire 63 ( de_io_update_i [62:0] $end
$var wire 1 ) de_io_lu_is_4M_o $end
$var wire 1 * de_io_lu_hit_o $end
$var wire 32 + de_io_lu_content_o [31:0] $end
$var wire 1 , de_io_asid_to_be_flushed_i $end
$var reg 32 - CLK_CYCLE [31:0] $end
$var reg 9 . asid [8:0] $end
$var reg 2 / choice [1:0] $end
$var reg 1 0 clk $end
$var reg 32 1 edata [31:0] $end
$var reg 1 2 reset $end
$var reg 1 , tb_io_asid_to_be_flushed_i $end
$var reg 1 3 tb_io_flush_i $end
$var reg 1 4 tb_io_lu_access_i $end
$var reg 1 5 tb_io_lu_asid_i $end
$var reg 32 6 tb_io_lu_vaddr_i [31:0] $end
$var reg 63 7 tb_io_update_i [62:0] $end
$var reg 32 8 tb_io_vaddr_to_be_flushed_i [31:0] $end
$var reg 20 9 vpn [19:0] $end
$var integer 32 : i [31:0] $end
$var integer 32 ; seed [31:0] $end
$scope module tlb_i $end
$var wire 1 , asid_to_be_flushed_i $end
$var wire 1 < asid_to_be_flushed_is0 $end
$var wire 1 0 clk_i $end
$var wire 1 " flush_i $end
$var wire 1 # lu_access_i $end
$var wire 1 $ lu_asid_i $end
$var wire 32 = lu_vaddr_i [31:0] $end
$var wire 128 > port_content_q_o [127:0] $end
$var wire 4 ? port_replace_en_o [3:0] $end
$var wire 124 @ port_tags_q_o [123:0] $end
$var wire 1 2 rst_ni $end
$var wire 63 A update_i [62:0] $end
$var wire 32 B vaddr_to_be_flushed_i [31:0] $end
$var wire 1 C vaddr_to_be_flushed_is0 $end
$var wire 31 D tdata [30:0] $end
$var wire 31 E tags_q_3 [30:0] $end
$var wire 31 F tags_q_2 [30:0] $end
$var wire 31 G tags_q_1 [30:0] $end
$var wire 31 H tags_q_0 [30:0] $end
$var wire 32 I content_q_3 [31:0] $end
$var wire 32 J content_q_2 [31:0] $end
$var wire 32 K content_q_1 [31:0] $end
$var wire 32 L content_q_0 [31:0] $end
$var wire 32 M cdata [31:0] $end
$var reg 128 N content_n [127:0] $end
$var reg 128 O content_q [127:0] $end
$var reg 32 P lu_content_o [31:0] $end
$var reg 4 Q lu_hit [3:0] $end
$var reg 1 * lu_hit_o $end
$var reg 1 ) lu_is_4M_o $end
$var reg 6 R plru_tree_n [5:0] $end
$var reg 6 S plru_tree_q [5:0] $end
$var reg 4 T replace_en [3:0] $end
$var reg 124 U tags_n [123:0] $end
$var reg 124 V tags_q [123:0] $end
$var reg 4 W vaddr_vpn0_match [3:0] $end
$var reg 4 X vaddr_vpn1_match [3:0] $end
$var reg 10 Y vpn0 [9:0] $end
$var reg 10 Z vpn1 [9:0] $end
$scope function countSetBits $end
$var reg 32 [ count [31:0] $end
$var reg 32 \ countSetBits [31:0] $end
$var reg 4 ] vector [3:0] $end
$scope begin sv2v_autoblock_9 $end
$var integer 32 ^ idx [31:0] $end
$upscope $end
$upscope $end
$scope begin p_assertions $end
$upscope $end
$scope begin plru_replacement $end
$scope begin sv2v_autoblock_3 $end
$var reg 32 _ i [31:0] $end
$scope begin sv2v_autoblock_4 $end
$var reg 32 ` idx_base [31:0] $end
$var reg 32 a new_index [31:0] $end
$var reg 32 b shift [31:0] $end
$scope begin sv2v_autoblock_5 $end
$var reg 32 c lvl [31:0] $end
$upscope $end
$upscope $end
$upscope $end
$scope begin sv2v_autoblock_6 $end
$var reg 32 d i [31:0] $end
$scope begin sv2v_autoblock_7 $end
$var reg 1 e en $end
$var reg 32 f idx_base [31:0] $end
$var reg 32 g new_index [31:0] $end
$var reg 32 h shift [31:0] $end
$scope begin sv2v_autoblock_8 $end
$var reg 32 i lvl [31:0] $end
$upscope $end
$upscope $end
$upscope $end
$upscope $end
$scope begin translation $end
$scope begin sv2v_autoblock_1 $end
$var reg 32 j i [31:0] $end
$upscope $end
$upscope $end
$scope begin update_flush $end
$scope begin sv2v_autoblock_2 $end
$var reg 32 k i [31:0] $end
$upscope $end
$upscope $end
$upscope $end
$scope task make_tlb_flush $end
$var reg 9 l asid [8:0] $end
$var reg 20 m vpn [19:0] $end
$upscope $end
$scope task make_tlb_lookup $end
$var reg 9 n asid [8:0] $end
$var reg 20 o vpn [19:0] $end
$upscope $end
$scope task make_tlb_update $end
$var reg 9 p asid [8:0] $end
$var reg 32 q entry_data [31:0] $end
$var reg 20 r vpn [19:0] $end
$upscope $end
$upscope $end
$enddefinitions $end
#0
$dumpvars
bx r
bx q
bx p
bx o
bx n
bx m
bx l
bx k
bx j
bx i
bx h
bx g
bx f
xe
bx d
bx c
bx b
bx a
bx `
bx _
bx ^
bx ]
bx \
bx [
bx Z
bx Y
bx X
bx W
bx V
bx U
bx T
bx S
bx R
bx Q
bx P
bx O
bx N
b0xxxxxxxxxxxxxxxxxxxxxxxxxxxxxx1 M
bx L
bx K
bx J
bx I
bx H
bx G
bx F
bx E
bx D
xC
bx B
bx A
bx @
bx ?
bx >
bx =
x<
b1001011111 ;
bx :
bx 9
bx 8
bx 7
bx 6
x5
x4
x3
12
bx 1
10
bx /
bx .
b0 -
x,
bx +
x*
x)
bx (
bx '
bx01 &
bx %
x$
x#
x"
bx !
$end
#10
00
#20
b1 ?
b1 T
b1 g
b1 h
b1 f
b10 i
0e
b100 d
b100 _
b0 R
b0 L
b0 K
b0 J
b0 I
b100 k
b0 N
b0 U
b100 j
0)
b0 +
b0 P
0*
b0 Q
b0 H
b0 G
b0 F
b0 E
b1 -
b0 S
b0 >
b0 O
b0 @
b0 V
10
02
#30
00
#40
b10 -
10
#50
00
#60
b11 -
10
b10110101110000010011101001101011 !
b10110101110000010011101001101011 1
b11111011101000000100 9
b110101110000010011100100000101 ;
b11111101110100000010001 &
b1 .
12
#70
00
#80
b100 -
b0 D
1C
1<
b100 j
b0 Z
b0 Y
b1111 X
b1111 W
b100 k
b1 M
10
b1111010111101110111011111110101 !
b1111010111101110111011111110101 1
b10011011111111010001101 &
b110111111110100011 9
b0 '
b0 8
b0 B
0,
1"
13
0$
05
b0 %
b0 =
b0 6
b0 (
b0 7
b0 A
b0 l
b0 m
b1 /
b11111010111101110111010000100000 ;
b0 :
#90
00
#100
b101 -
b100 k
b100 j
b11011111 Z
b1110100011 Y
10
b11011110010011111000010010111100 !
b11011110010011111000010010111100 1
b11001011010010101100001 &
b10010110100101011000 9
0"
03
1$
15
b110111111110100011000000000000 %
b110111111110100011000000000000 =
b110111111110100011000000000000 6
b1 n
b110111111110100011 o
b10 /
b1011110010011111000001010010111 ;
b1 :
#110
00
#120
b110 -
0C
0<
b0 X
b0 W
b100 k
b100 j
b0 Z
b0 Y
10
b10101011001110011100001001010110 !
b10101011001110011100001001010110 1
b10110100100100101000101 &
b1101001001001010001 9
b10010110100101011000000000000000 '
b10010110100101011000000000000000 8
b10010110100101011000000000000000 B
1,
1"
13
0$
05
b0 %
b0 =
b0 6
b1 l
b10010110100101011000 m
b11 /
b101011001110011100000010011010 ;
b10 :
#130
00
#140
b111 -
1C
b1111 X
b1111 W
b100 k
1<
10
b10101010011110000111010001010100 !
b10101010011110000111010001010100 1
b10111111001010010111101 &
b1111110010100101111 9
b0 '
b0 8
b0 B
0,
b0 l
b0 m
b1 /
b101010011110000111001000011001 ;
b11 :
#150
00
#160
b10101010011110000111010001010100 L
b1110 X
b1110 W
b100 j
b10111111001010010111101 H
b10101010011110000111010001010100 >
b10101010011110000111010001010100 O
b10111111001010010111101 @
b10111111001010010111101 V
b1000 -
b101010011110000111010001010100 D
b10101010011110000111010001010100 N
b10111111001010010111101 U
b100 k
b10111111001010010111101 M
10
b111001111101110111100001110 !
b111001111101110111100001110 1
b11010110110101000110001 &
b10101101101010001100 9
0"
03
b100111111001010010111100000000110101010011110000111010001010100 (
b100111111001010010111100000000110101010011110000111010001010100 7
b100111111001010010111100000000110101010011110000111010001010100 A
b10101010011110000111010001010100 q
b1 p
b1111110010100101111 r
b0 /
b10000111001111101110110111000100 ;
b100 :
#170
00
#180
b1001 -
b0 D
b100 j
b1010110110 Z
b1010001100 Y
b100 k
b1 M
10
b10010001100010110011100100100 !
b10010001100010110011100100100 1
b11101011111011010110001 &
b11010111110110101100 9
1$
15
b10101101101010001100000000000000 %
b10101101101010001100000000000000 =
b10101101101010001100000000000000 6
b0 (
b0 7
b0 A
b10101101101010001100 o
b10 /
b10010010001100010110010000001011 ;
b101 :
#190
00
#200
b10111111001010010111100 H
b10111111001010010111100 @
b10111111001010010111100 V
b1010 -
0C
0<
b0 X
b0 W
b10111111001010010111100 U
b100 k
b100 j
b0 Z
b0 Y
10
b10010001010110100111010000100010 !
b10010001010110100111010000100010 1
b11111001001111000101101 &
b11110010011110001011 9
b11010111110110101100000000000000 '
b11010111110110101100000000000000 8
b11010111110110101100000000000000 B
1,
1"
13
0$
05
b0 %
b0 =
b0 6
b1 l
b11010111110110101100 m
b11 /
b10001010110100111001000011110 ;
b110 :
#210
00
#220
b1011 -
1C
1<
b1110 X
b1110 W
b100 k
b100 j
b1111001001 Z
b1110001011 Y
10
b1101010010001110111001111010100 !
b1101010010001110111001111010100 1
b10111001010111111010001 &
b1110010101111110100 9
b0 '
b0 8
b0 B
0,
0"
03
1$
15
b11110010011110001011000000000000 %
b11110010011110001011000000000000 =
b11110010011110001011000000000000 6
b11110010011110001011 o
b10 /
b11101010010001110111000011101101 ;
b111 :
#230
00
#240
b1100 -
b100 k
b100 j
b0 Z
b0 Y
10
b10100111110100110011001001001111 !
b10100111110100110011001001001111 1
b10111011000100110000101 &
b1110110001001100001 9
1"
13
0$
05
b0 %
b0 =
b0 6
b0 l
b0 m
b1 /
b100111110100110011000000101000 ;
b1000 :
#250
00
#260
b1101 -
0C
b0 X
b0 W
b100 k
0<
10
b1010001100101001000111110100011 !
b1010001100101001000111110100011 1
b10110001101110100110101 &
b1100011011101001101 9
b1110110001001100001000000000000 '
b1110110001001100001000000000000 8
b1110110001001100001000000000000 B
1,
b1 l
b1110110001001100001 m
b11 /
b11010001100101001000110100111111 ;
b1001 :
#270
00
#280
b1010001100101001000111110100011 L
b100 j
b10110001101110100110101 H
b1010001100101001000111110100011 >
b1010001100101001000111110100011 O
b10110001101110100110101 @
b10110001101110100110101 V
b1110 -
b1010001100101001000111110100011 D
1C
1<
b1110 X
b1110 W
b1010001100101001000111110100011 N
b10110001101110100110101 U
b100 k
b10110001101110100110101 M
10
b1100111011101110001100111001110 !
b1100111011101110001100111001110 1
b11110101110001111011101 &
b11101011100011110111 9
b0 '
b0 8
b0 B
0,
0"
03
b100110001101110100110100000000101010001100101001000111110100011 (
b100110001101110100110100000000101010001100101001000111110100011 7
b100110001101110100110100000000101010001100101001000111110100011 A
b1010001100101001000111110100011 q
b1100011011101001101 r
b0 /
b11100111011101110001011001100010 ;
b1010 :
#290
00
#300
b100 j
b10110001101110100110100 H
b10110001101110100110100 @
b10110001101110100110100 V
b1111 -
b0 D
b10110001101110100110100 U
b100 k
b1 M
10
b1001110101100111010101110011101 !
b1001110101100111010101110011101 1
b10100110100001100000001 &
b1001101000011000000 9
1"
13
b0 (
b0 7
b0 A
b0 l
b0 m
b1 /
b11001110101100111010100110000001 ;
b1011 :
#310
00
#320
b10000 -
10
b10110100110110011100000001101001 !
b10110100110110011100000001101001 1
b10000101010101001011001 &
b1010101010010110 9
b110100110110011011111101001100 ;
b1100 :
#330
00
#340
b10110100110110011100000001101001 L
b100 j
b10000101010101001011001 H
b10110100110110011100000001101001 >
b10110100110110011100000001101001 O
b10000101010101001011001 @
b10000101010101001011001 V
b10001 -
b110100110110011100000001101001 D
b10110100110110011100000001101001 N
b10000101010101001011001 U
b100 k
b10000101010101001011001 M
10
b10101010111110111101010001010101 !
b10101010111110111101010001010101 1
b11101101110111100111001 &
b11011011101111001110 9
0"
03
b100000101010101001011000000000110110100110110011100000001101001 (
b100000101010101001011000000000110110100110110011100000001101001 7
b100000101010101001011000000000110110100110110011100000001101001 A
b10110100110110011100000001101001 q
b1010101010010110 r
b0 /
b101010111110111101001000110011 ;
b1101 :
#350
00
#360
b100 j
b10000101010101001011000 H
b10000101010101001011000 @
b10000101010101001011000 V
b10010 -
b0 D
0C
0<
b0 X
b0 W
b10000101010101001011000 U
b100 k
b1 M
10
b11100110101001100001001011001101 !
b11100110101001100001001011001101 1
b10001001110111001010101 &
b10011101110010101 9
b11011011101111001110000000000000 '
b11011011101111001110000000000000 8
b11011011101111001110000000000000 B
1,
1"
13
b0 (
b0 7
b0 A
b1 l
b11011011101111001110 m
b11 /
b1100110101001100001000101100110 ;
b1110 :
#370
00
#380
b10011 -
1C
1<
b1110 X
b1110 W
b100 k
b100 j
b1001110 Z
b1110010101 Y
10
b10011011010010100101000000110110 !
b10011011010010100101000000110110 1
b11110110111000011111101 &
b11101101110000111111 9
b0 '
b0 8
b0 B
0,
0"
03
1$
15
b10011101110010101000000000000 %
b10011101110010101000000000000 =
b10011101110010101000000000000 6
b10011101110010101 o
b10 /
b11011010010100100111111010101 ;
b1111 :
#390
00
#400
b10011011010010100101000000110110 L
b11110110111000011111101 H
b10011011010010100101000000110110 >
b10011011010010100101000000110110 O
b11110110111000011111101 @
b11110110111000011111101 V
b10100 -
b11011010010100101000000110110 D
b100 j
b0 Z
b0 Y
b10011011010010100101000000110110 N
b11110110111000011111101 U
b100 k
b11110110111000011111101 M
10
b11101010001010101110000011010100 !
b11101010001010101110000011010100 1
b11100000001101011100101 &
b11000000011010111001 9
0$
05
b0 %
b0 =
b0 6
b101110110111000011111100000000110011011010010100101000000110110 (
b101110110111000011111100000000110011011010010100101000000110110 7
b101110110111000011111100000000110011011010010100101000000110110 A
b10011011010010100101000000110110 q
b11101101110000111111 r
b0 /
b1101010001010101101111100110000 ;
b10000 :
#410
00
#420
b100 j
b11110110111000011111100 H
b11110110111000011111100 @
b11110110111000011111100 V
b10101 -
b0 D
b11110110111000011111100 U
b100 k
b1 M
10
b1011100111000111100100110111001 !
b1011100111000111100100110111001 1
b11110111011110111100001 &
b11101110111101111000 9
1"
13
b0 (
b0 7
b0 A
b0 l
b0 m
b1 /
b11011100111000111100011011100111 ;
b10001 :
#430
00
#440
b10110 -
10
b111010011001110000000111111100 ;
b10010 :
