cva6-model-runs/tlb_traces/test_11/tlb_wave_pipeline.vcd
$date
	Tue Jan 23 15:27:18 2024
$end
$version
	Icarus Verilog
$end
$timescale
	1s
$end
$scope module tlb_tb $end
$var wire 32 ! cdata [31:0] $end
$var wire 1 " de_io_flush_i $end
$var wire 1 # de_io_lu_access_i $end
$var wire 1 $ de_io_lu_asid_i $end
$var wire 32 % de_io_lu_vaddr_i [31:0] $end
$var wire 31 & tdata [30:0] $end
$var wire 32 ' de_io_vaddr_to_be_flushed_i [31:0] $end
$var wire 63 ( de_io_update_i [62:0] $end
$var wire 1 ) de_io_lu_is_4M_o $end
$var wire 1 * de_io_lu_hit_o $end
$var wire 32 + de_io_lu_content_o [31:0] $end
$var wire 1 , de_io_asid_to_be_flushed_i $end
$var reg 32 - CLK_CYCLE [31:0] $end
$var reg 9 . asid [8:0] $end
$var reg 2 / choice [1:0] $end
$var reg 1 0 clk $end
$var reg 32 1 edata [31:0] $end
$var reg 1 2 reset $end
$var reg 1 , tb_io_asid_to_be_flushed_i $end
$var reg 1 3 tb_io_flush_i $end
$var reg 1 4 tb_io_lu_access_i $end
$var reg 1 5 tb_io_lu_asid_i $end
$var reg 32 6 tb_io_lu_vaddr_i [31:0] $end
$var reg 63 7 tb_io_update_i [62:0] $end
$var reg 32 8 tb_io_vaddr_to_be_flushed_i [31:0] $end
$var reg 20 9 vpn [19:0] $end
$var integer 32 : i [31:0] $end
$var integer 32 ; seed [31:0] $end
$scope module tlb_i $end
$var wire 1 , asid_to_be_flushed_i $end
$var wire 1 < asid_to_be_flushed_is0 $end
$var wire 1 0 clk_i $end
$var wire 1 " flush_i $end
$var wire 1 # lu_access_i $end
$var wire 1 $ lu_asid_i $end
$var wire 32 = lu_vaddr_i [31:0] $end
$var wire 128 > port_content_q_o [127:0] $end
$var wire 4 ? port_replace_en_o [3:0] $end
$var wire 124 @ port_tags_q_o [123:0] $end
$var wire 1 2 rst_ni $end
$var wire 63 A update_i [62:0] $end
$var wire 32 B vaddr_to_be_flushed_i [31:0] $end
$var wire 1 C vaddr_to_be_flushed_is0 $end
$var wire 31 D tdata [30:0] $end
$var wire 31 E tags_q_3 [30:0] $end
$var wire 31 F tags_q_2 [30:0] $end
$var wire 31 G tags_q_1 [30:0] $end
$var wire 31 H tags_q_0 [30:0] $end
$var wire 32 I content_q_3 [31:0] $end
$var wire 32 J content_q_2 [31:0] $end
$var wire 32 K content_q_1 [31:0] $end
$var wire 32 L content_q_0 [31:0] $end
$var wire 32 M cdata [31:0] $end
$var reg 128 N content_n [127:0] $end
$var reg 128 O content_q [127:0] $end
$var reg 32 P lu_content_o [31:0] $end
$var reg 4 Q lu_hit [3:0] $end
$var reg 1 * lu_hit_o $end
$var reg 1 ) lu_is_4M_o $end
$var reg 6 R plru_tree_n [5:0] $end
$var reg 6 S plru_tree_q [5:0] $end
$var reg 4 T replace_en [3:0] $end
$var reg 124 U tags_n [123:0] $end
$var reg 124 V tags_q [123:0] $end
$var reg 4 W vaddr_vpn0_match [3:0] $end
$var reg 4 X vaddr_vpn1_match [3:0] $end
$var reg 10 Y vpn0 [9:0] $end
$var reg 10 Z vpn1 [9:0] $end
$scope function countSetBits $end
$var reg 32 [ count [31:0] $end
$var reg 32 \ countSetBits [31:0] $end
$var reg 4 ] vector [3:0] $end
$scope begin sv2v_autoblock_9 $end
$var integer 32 ^ idx [31:0] $end
$upscope $end
$upscope $end
$scope begin p_assertions $end
$upscope $end
$scope begin plru_replacement $end
$scope begin sv2v_autoblock_3 $end
$var reg 32 _ i [31:0] $end
$scope begin sv2v_autoblock_4 $end
$var reg 32 ` idx_base [31:0] $end
$var reg 32 a new_index [31:0] $end
$var reg 32 b shift [31:0] $end
$scope begin sv2v_autoblock_5 $end
$var reg 32 c lvl [31:0] $end
$upscope $end
$upscope $end
$upscope $end
$scope begin sv2v_autoblock_6 $end
$var reg 32 d i [31:0] $end
$scope begin sv2v_autoblock_7 $end
$var reg 1 e en $end
$var reg 32 f idx_base [31:0] $end
$var reg 32 g new_index [31:0] $end
$var reg 32 h shift [31:0] $end
$scope begin sv2v_autoblock_8 $end
$var reg 32 i lvl [31:0] $end
$upscope $end
$upscope $end
$upscope $end
$upscope $end
$scope begin translation $end
$scope begin sv2v_autoblock_1 $end
$var reg 32 j i [31:0] $end
$upscope $end
$upscope $end
$scope begin update_flush $end
$scope begin sv2v_autoblock_2 $end
$var reg 32 k i [31:0] $end
$upscope $end
$upscope $end
$upscope $end
$scope task make_tlb_flush $end
$var reg 9 l asid [8:0] $end
$var reg 20 m vpn [19:0] $end
$upscope $end
$scope task make_tlb_lookup $end
$var reg 9 n asid [8:0] $end
$var reg 20 o vpn [19:0] $end
$upscope $end
$scope task make_tlb_update $end
$var reg 9 p asid [8:0] $end
$var reg 32 q entry_data [31:0] $end
$var reg 20 r vpn [19:0] $end
$upscope $end
$upscope $end
$enddefinitions $end
#0
$dumpvars
bx r
bx q
bx p
bx o
bx n
bx m
bx l
bx k
bx j
bx i
bx h
bx g
bx f
xe
bx d
bx c
bx b
bx a
bx `
bx _
bx ^
bx ]
bx \
bx [
bx Z
bx Y
bx X
bx W
bx V
bx U
bx T
bx S
bx R
bx Q
bx P
bx O
bx N
b0xxxxxxxxxxxxxxxxxxxxxxxxxxxxxx1 M
bx L
bx K
bx J
bx I
bx H
bx G
bx F
bx E
bx D
xC
bx B
bx A
bx @
bx ?
bx >
bx =
x<
b1111011011 ;
bx :
bx 9
bx 8
bx 7
bx 6
x5
x4
x3
12
bx 1
10
bx /
bx .
b0 -
x,
bx +
x*
x)
bx (
bx '
bx01 &
bx %
x$
x#
x"
bx !
$end
#10
00
#20
b1 ?
b1 T
b1 g
b1 h
b1 f
b10 i
0e
b100 d
b100 _
b0 R
b0 L
b0 K
b0 J
b0 I
b100 k
b0 N
b0 U
b100 j
0)
b0 +
b0 P
0*
b0 Q
b0 H
b0 G
b0 F
b0 E
b1 -
b0 S
b0 >
b0 O
b0 @
b0 V
10
02
#30
00
#40
b10 -
10
#50
00
#60
b11 -
10
b11001001000100001001111010010010 !
b11001001000100001001111010010010 1
b11011000001000 9
b1001001000100001001110111100001 ;
b10000001101100000100001 &
b1 .
12
#70
00
#80
b11001001000100001001111010010010 L
b10000001101100000100001 H
b11001001000100001001111010010010 >
b11001001000100001001111010010010 O
b10000001101100000100001 @
b10000001101100000100001 V
b100 -
b1001001000100001001111010010010 D
1C
1<
b100 j
b0 Z
b0 Y
b11001001000100001001111010010010 N
b10000001101100000100001 U
b1110 X
b1110 W
b100 k
b10000001101100000100001 M
10
b101110101100000011010101011101 !
b101110101100000011010101011101 1
b11000000011100111101101 &
b10000000111001111011 9
b0 '
b0 8
b0 B
0,
0"
03
0$
05
b0 %
b0 =
b0 6
b100000001101100000100000000000111001001000100001001111010010010 (
b100000001101100000100000000000111001001000100001001111010010010 7
b100000001101100000100000000000111001001000100001001111010010010 A
b11001001000100001001111010010010 q
b1 p
b11011000001000 r
b0 /
b10101110101100000011001100101100 ;
b0 :
#90
00
#100
b100 j
b10000001101100000100000 H
b10000001101100000100000 @
b10000001101100000100000 V
b101 -
b0 D
b10000001101100000100000 U
b100 k
b1 M
10
b10101001100011111101110001010011 !
b10101001100011111101110001010011 1
b11111100010010011000101 &
b11111000100100110001 9
1"
13
b0 (
b0 7
b0 A
b0 l
b0 m
b1 /
b101001100011111101101110010011 ;
b1 :
#110
00
#120
b110 -
0C
b0 X
b0 W
b100 k
0<
10
b11010001000000000000000010100001 !
b11010001000000000000000010100001 1
b11000111111010000101101 &
b10001111110100001011 9
b11111000100100110001000000000000 '
b11111000100100110001000000000000 8
b11111000100100110001000000000000 B
1,
b1 l
b11111000100100110001 m
b11 /
b1010000111111111111111001000110 ;
b10 :
#130
00
#140
b111 -
1C
1<
b1110 X
b1110 W
b100 k
b100 j
b1000111111 Z
b100001011 Y
10
b10101011110111010000100001010111 !
b10101011110111010000100001010111 1
b10101000011000001000001 &
b1010000110000010000 9
b0 '
b0 8
b0 B
0,
0"
03
1$
15
b10001111110100001011000000000000 %
b10001111110100001011000000000000 =
b10001111110100001011000000000000 6
b1 n
b10001111110100001011 o
b10 /
b101011110111010000011000110101 ;
b11 :
#150
00
#160
b1000 -
0C
0<
b0 X
b0 W
b100 k
b100 j
b0 Z
b0 Y
10
b110011011000011011111101100110 !
b110011011000011011111101100110 1
b11011011111011010101001 &
b10110111110110101010 9
b1010000110000010000000000000000 '
b1010000110000010000000000000000 8
b1010000110000010000000000000000 B
1,
1"
13
0$
05
b0 %
b0 =
b0 6
b1010000110000010000 m
b11 /
b10110011011000011011110100010000 ;
b100 :
#170
00
#180
b1001 -
1C
b1110 X
b1110 W
b100 k
1<
10
b11100110110011100000010011001101 !
b11100110110011100000010011001101 1
b11101101101110000101001 &
b11011011011100001010 9
b0 '
b0 8
b0 B
0,
b0 l
b0 m
b1 /
b1100110110011100000001001000111 ;
b101 :
#190
00
#200
b1010 -
b100 k
b100 j
b1101101101 Z
b1100001010 Y
10
b10000000000100100001000000000000 !
b10000000000100100001000000000000 1
b10100001001111111000001 &
b1000010011111110000 9
0"
03
1$
15
b11011011011100001010000000000000 %
b11011011011100001010000000000000 =
b11011011011100001010000000000000 6
b11011011011100001010 o
b10 /
b100100000111000001010 ;
b110 :
#210
00
#220
b1011 -
b100 j
b100001001 Z
b1111110000 Y
10
b11000011001001100011001010000110 !
b11000011001001100011001010000110 1
b11101111010101000000101 &
b11011110101010000001 9
b1000010011111110000000000000000 %
b1000010011111110000000000000000 =
b1000010011111110000000000000000 6
b1000010011111110000 o
b1000011001001100011000001001001 ;
b111 :
#230
00
#240
b11000011001001100011001010000110 L
b11101111010101000000101 H
b11000011001001100011001010000110 >
b11000011001001100011001010000110 O
b11101111010101000000101 @
b11101111010101000000101 V
b1100 -
b1000011001001100011001010000110 D
b100 j
b0 Z
b0 Y
b11000011001001100011001010000110 N
b11101111010101000000101 U
b100 k
b11101111010101000000101 M
10
b10011101100110011011110000111011 !
b10011101100110011011110000111011 1
b11000011100011110000001 &
b10000111000111100000 9
0$
05
b0 %
b0 =
b0 6
b101101111010101000000100000000111000011001001100011001010000110 (
b101101111010101000000100000000111000011001001100011001010000110 7
b101101111010101000000100000000111000011001001100011001010000110 A
b11000011001001100011001010000110 q
b11011110101010000001 r
b0 /
b11101100110011011101110110100 ;
b1000 :
#250
00
#260
b10011101100110011011110000111011 L
b100 j
b11000011100011110000001 H
b10011101100110011011110000111011 >
b10011101100110011011110000111011 O
b11000011100011110000001 @
b11000011100011110000001 V
b1101 -
b11101100110011011110000111011 D
b10011101100110011011110000111011 N
b11000011100011110000001 U
b100 k
b11000011100011110000001 M
10
b1101011110011011000111111010111 !
b1101011110011011000111111010111 1
b10101000101111010000001 &
b1010001011110100000 9
b101000011100011110000000000000110011101100110011011110000111011 (
b101000011100011110000000000000110011101100110011011110000111011 7
b101000011100011110000000000000110011101100110011011110000111011 A
b10011101100110011011110000111011 q
b10000111000111100000 r
b11101011110011011000110010111011 ;
b1001 :
#270
00
#280
b1101011110011011000111111010111 L
b100 j
b10101000101111010000001 H
b1101011110011011000111111010111 >
b1101011110011011000111111010111 O
b10101000101111010000001 @
b10101000101111010000001 V
b1110 -
b1101011110011011000111111010111 D
b1101011110011011000111111010111 N
b10101000101111010000001 U
b100 k
b10101000101111010000001 M
10
b11111000000010110101111011110000 !
b11111000000010110101111011110000 1
b10010110010101010111001 &
b101100101010101110 9
b100101000101111010000000000000101101011110011011000111111010111 (
b100101000101111010000000000000101101011110011011000111111010111 7
b100101000101111010000000000000101101011110011011000111111010111 A
b1101011110011011000111111010111 q
b1010001011110100000 r
b1111000000010110101110010001110 ;
b1010 :
#290
00
#300
b1111 -
b0 D
b100 j
b10110010 Z
b1010101110 Y
b100 k
b1 M
10
b10110100111101101101001001101001 !
b10110100111101101101001001101001 1
b11100010101111001111001 &
b11000101011110011110 9
1$
15
b101100101010101110000000000000 %
b101100101010101110000000000000 =
b101100101010101110000000000000 6
b0 (
b0 7
b0 A
b101100101010101110 o
b10 /
b110100111101101101000000011101 ;
b1011 :
#310
00
#320
b10110100111101101101001001101001 L
b11100010101111001111001 H
b10110100111101101101001001101001 >
b10110100111101101101001001101001 O
b11100010101111001111001 @
b11100010101111001111001 V
b10000 -
b110100111101101101001001101001 D
b100 j
b0 Z
b0 Y
b10110100111101101101001001101001 N
b11100010101111001111001 U
b100 k
b11100010101111001111001 M
10
b1011100000110111111010110111000 !
b1011100000110111111010110111000 1
b11101110000111110101001 &
b11011100001111101010 9
0$
05
b0 %
b0 =
b0 6
b101100010101111001111000000000110110100111101101101001001101001 (
b101100010101111001111000000000110110100111101101101001001101001 7
b101100010101111001111000000000110110100111101101101001001101001 A
b10110100111101101101001001101001 q
b11000101011110011110 r
b0 /
b11011100000110111111001100011000 ;
b1100 :
#330
00
#340
b100 j
b11100010101111001111000 H
b11100010101111001111000 @
b11100010101111001111000 V
b10001 -
b0 D
b11100010101111001111000 U
b100 k
b1 M
10
b11111111011111001001000011111110 !
b11111111011111001001000011111110 1
b11000000011101010010101 &
b10000000111010100101 9
1"
13
b0 (
b0 7
b0 A
b1 /
b1111111011111001000111011101111 ;
b1101 :
#350
00
#360
b10010 -
10
b100000111111101000111101000001 !
b100000111111101000111101000001 1
b11110000111100011010101 &
b11100001111000110101 9
b10100000111111101000110111010010 ;
b1110 :
#370
00
#380
b10011 -
10
b11111101011111010101101011111010 !
b11111101011111010101101011111010 1
b10100100100111010110001 &
b1001001001110101100 9
b1111101011111010101100110110001 ;
b1111 :
#390
00
#400
b10100 -
10
b11001000101010101110100010010001 !
b11001000101010101110100010010001 1
b10100000000100010001001 &
b1000000001000100010 9
b1001000101010101110011100111100 ;
b10000 :
#410
00
#420
b10101 -
0C
b0 X
b0 W
b100 k
0<
10
b11001110111111101101111010011101 !
b11001110111111101101111010011101 1
b10101110000001110110101 &
b1011100000011101101 9
b1000000001000100010000000000000 '
b1000000001000100010000000000000 8
b1000000001000100010000000000000 B
1,
b1 l
b1000000001000100010 m
b11 /
b1001110111111101101110011100011 ;
b10001 :
#430
00
#440
b10110 -
10
b10000001100010110100011001000 ;
b10010 :
