cva6-model-runs/lsu_traces/su_traces/test_8/su_model_wave_pipeline.vcd
$date
	Mon Jan 22 08:30:08 2024
$end
$version
	Icarus Verilog
$end
$timescale
	1s
$end
$scope module store_unit_model_tb $end
$var wire 65 ! de_io_amo_resp_i [64:0] $end
$var wire 1 " de_io_amo_valid_commit_i $end
$var wire 1 # de_io_commit_i $end
$var wire 1 $ de_io_dtlb_hit_i $end
$var wire 65 % de_io_ex_i [64:0] $end
$var wire 1 & de_io_flush_i $end
$var wire 32 ' de_io_instr_i [31:0] $end
$var wire 1 ( de_io_instr_valid_i $end
$var wire 12 ) de_io_page_offset_i [11:0] $end
$var wire 35 * de_io_req_port_i [34:0] $end
$var wire 32 + de_io_result_o [31:0] $end
$var wire 1 , de_io_store_mem_resp_i $end
$var wire 1 - de_io_valid_i $end
$var wire 1 . de_io_valid_o $end
$var wire 32 / de_io_vaddr_o [31:0] $end
$var wire 1 0 de_io_translation_req_o $end
$var wire 3 1 de_io_trans_id_o [2:0] $end
$var wire 1 2 de_io_store_buffer_empty_o $end
$var wire 77 3 de_io_req_port_o [76:0] $end
$var wire 1 4 de_io_pop_st_o $end
$var wire 1 5 de_io_page_offset_matches_o $end
$var wire 34 6 de_io_paddr_i [33:0] $end
$var wire 1 7 de_io_no_st_pending_o $end
$var wire 85 8 de_io_lsu_ctrl_i [84:0] $end
$var wire 65 9 de_io_ex_o [64:0] $end
$var wire 1 : de_io_commit_ready_o $end
$var wire 135 ; de_io_amo_req_o [134:0] $end
$var reg 32 < CLK_CYCLE [31:0] $end
$var reg 1 = choice_core $end
$var reg 2 > choice_mem [1:0] $end
$var reg 1 ? clk $end
$var reg 32 @ data [31:0] $end
$var reg 12 A poffset [11:0] $end
$var reg 1 B reset $end
$var reg 2 C store_seen [1:0] $end
$var reg 1 D tb_io_commit_i $end
$var reg 32 E tb_io_instr_i [31:0] $end
$var reg 1 F tb_io_instr_valid_i $end
$var reg 85 G tb_io_lsu_ctrl_i [84:0] $end
$var reg 34 H tb_io_paddr_i [33:0] $end
$var reg 12 I tb_io_page_offset_i [11:0] $end
$var reg 35 J tb_io_req_port_i [34:0] $end
$var reg 1 K tb_io_store_mem_resp_i $end
$var reg 1 L tb_io_valid_i $end
$var reg 34 M vaddr [33:0] $end
$var integer 32 N i [31:0] $end
$var integer 32 O seed [31:0] $end
$scope module su_i $end
$var wire 1 P amo_buffer_ready $end
$var wire 1 Q amo_buffer_valid $end
$var wire 65 R amo_resp_i [64:0] $end
$var wire 1 " amo_valid_commit_i $end
$var wire 1 ? clk_i $end
$var wire 1 # commit_i $end
$var wire 1 $ dtlb_hit_i $end
$var wire 65 S ex_i [64:0] $end
$var wire 1 & flush_i $end
$var wire 85 T lsu_ctrl_i [84:0] $end
$var wire 34 U paddr_i [33:0] $end
$var wire 12 V page_offset_i [11:0] $end
$var wire 35 W req_port_i [34:0] $end
$var wire 32 X result_o [31:0] $end
$var wire 1 B rst_ni $end
$var wire 1 Y st_ready $end
$var wire 1 Z store_buffer_valid $end
$var wire 3 [ trans_id_o [2:0] $end
$var wire 1 - valid_i $end
$var wire 32 \ vaddr_o [31:0] $end
$var wire 8 ] store_state_o [7:0] $end
$var wire 1 ^ store_buffer_ready $end
$var wire 1 2 store_buffer_empty_o $end
$var wire 2 _ state_q_3 [1:0] $end
$var wire 2 ` state_q_2 [1:0] $end
$var wire 2 a state_q_1 [1:0] $end
$var wire 2 b state_q_0 [1:0] $end
$var wire 77 c req_port_o [76:0] $end
$var wire 1 5 page_offset_matches_o $end
$var wire 1 7 no_st_pending_o $end
$var wire 1 d instr_is_amo $end
$var wire 1 : commit_ready_o $end
$var wire 135 e amo_req_o [134:0] $end
$var reg 4 f amo_op_d [3:0] $end
$var reg 4 g amo_op_q [3:0] $end
$var reg 65 h ex_o [64:0] $end
$var reg 1 4 pop_st_o $end
$var reg 4 i st_be_n [3:0] $end
$var reg 4 j st_be_q [3:0] $end
$var reg 32 k st_data_n [31:0] $end
$var reg 32 l st_data_q [31:0] $end
$var reg 2 m st_data_size_n [1:0] $end
$var reg 2 n st_data_size_q [1:0] $end
$var reg 1 o st_valid $end
$var reg 1 p st_valid_without_flush $end
$var reg 2 q state_d [1:0] $end
$var reg 2 r state_q [1:0] $end
$var reg 3 s trans_id_n [2:0] $end
$var reg 3 t trans_id_q [2:0] $end
$var reg 1 0 translation_req_o $end
$var reg 1 . valid_o $end
$scope function ariane_pkg_data_align $end
$upscope $end
$scope function ariane_pkg_extract_transfer_size $end
$upscope $end
$scope function ariane_pkg_is_amo $end
$upscope $end
$scope module i_amo_buffer $end
$var wire 72 u amo_data_out [71:0] $end
$var wire 4 v amo_op_i [3:0] $end
$var wire 65 w amo_resp_i [64:0] $end
$var wire 1 x amo_valid $end
$var wire 1 " amo_valid_commit_i $end
$var wire 1 ? clk_i $end
$var wire 32 y data_i [31:0] $end
$var wire 2 z data_size_i [1:0] $end
$var wire 1 { flush_amo_buffer $end
$var wire 1 & flush_i $end
$var wire 34 | paddr_i [33:0] $end
$var wire 1 P ready_o $end
$var wire 1 B rst_ni $end
$var wire 1 Q valid_i $end
$var wire 1 7 no_st_pending_i $end
$var wire 135 } amo_req_o [134:0] $end
$var wire 72 ~ amo_data_in [71:0] $end
$upscope $end
$scope module store_buffer_i $end
$var wire 4 !" be_i [3:0] $end
$var wire 1 ? clk_i $end
$var wire 1 # commit_i $end
$var wire 32 "" data_i [31:0] $end
$var wire 2 #" data_size_i [1:0] $end
$var wire 1 & flush_i $end
$var wire 34 $" paddr_i [33:0] $end
$var wire 12 %" page_offset_i [11:0] $end
$var wire 35 &" req_port_i [34:0] $end
$var wire 1 B rst_ni $end
$var wire 1 2 store_buffer_empty_o $end
$var wire 1 '" sv2v_tmp_80AC7 [1:1] $end
$var wire 1 (" sv2v_tmp_A682E [1:1] $end
$var wire 1 )" sv2v_tmp_F170F [1:1] $end
$var wire 1 Z valid_i $end
$var wire 1 p valid_without_flush_i $end
$var wire 12 *" sv2v_tmp_9099D [12:1] $end
$var wire 4 +" sv2v_tmp_8DCF7 [4:1] $end
$var wire 22 ," sv2v_tmp_71805 [22:1] $end
$var wire 32 -" sv2v_tmp_6B7F3 [32:1] $end
$var wire 2 ." sv2v_tmp_51F0D [2:1] $end
$var wire 2 /" state_q_3 [1:0] $end
$var wire 2 0" state_q_2 [1:0] $end
$var wire 2 1" state_q_1 [1:0] $end
$var wire 2 2" state_q_0 [1:0] $end
$var reg 292 3" commit_queue_n [291:0] $end
$var reg 292 4" commit_queue_q [291:0] $end
$var reg 2 5" commit_read_pointer_n [1:0] $end
$var reg 2 6" commit_read_pointer_q [1:0] $end
$var reg 1 : commit_ready_o $end
$var reg 3 7" commit_status_cnt_n [2:0] $end
$var reg 3 8" commit_status_cnt_q [2:0] $end
$var reg 2 9" commit_write_pointer_n [1:0] $end
$var reg 2 :" commit_write_pointer_q [1:0] $end
$var reg 1 7 no_st_pending_o $end
$var reg 1 5 page_offset_matches_o $end
$var reg 1 ^ ready_o $end
$var reg 77 ;" req_port_o [76:0] $end
$var reg 292 <" speculative_queue_n [291:0] $end
$var reg 292 =" speculative_queue_q [291:0] $end
$var reg 2 >" speculative_read_pointer_n [1:0] $end
$var reg 2 ?" speculative_read_pointer_q [1:0] $end
$var reg 3 @" speculative_status_cnt_n [2:0] $end
$var reg 3 A" speculative_status_cnt_q [2:0] $end
$var reg 2 B" speculative_write_pointer_n [1:0] $end
$var reg 2 C" speculative_write_pointer_q [1:0] $end
$scope function sv2v_cast_79500 $end
$upscope $end
$scope begin core_if $end
$var reg 5 D" speculative_status_cnt [4:0] $end
$scope begin sv2v_autoblock_1 $end
$var reg 32 E" i [31:0] $end
$upscope $end
$upscope $end
$scope begin p_commit $end
$upscope $end
$scope begin p_spec $end
$upscope $end
$scope begin store_if $end
$var reg 5 F" commit_status_cnt [4:0] $end
$upscope $end
$scope begin sv2v_autoblock_2 $end
$var reg 2 G" _sv2v_jump [0:1] $end
$scope begin address_checker $end
$scope begin sv2v_autoblock_3 $end
$var reg 32 H" i [31:0] $end
$scope begin sv2v_autoblock_4 $end
$var reg 32 I" _sv2v_value_on_break [31:0] $end
$upscope $end
$upscope $end
$scope begin sv2v_autoblock_5 $end
$var reg 32 J" i [31:0] $end
$scope begin sv2v_autoblock_6 $end
$var reg 32 K" _sv2v_value_on_break [31:0] $end
$upscope $end
$upscope $end
$upscope $end
$upscope $end
$upscope $end
$scope begin store_control $end
$upscope $end
$upscope $end
$scope module su_model_i $end
$var wire 1 ? clk_i $end
$var wire 1 D commit_i $end
$var wire 32 L" instr_i [31:0] $end
$var wire 1 ( instr_valid_i $end
$var wire 12 M" page_offset_i [11:0] $end
$var wire 1 N" page_offset_matches_o $end
$var wire 1 B rst_ni $end
$var wire 1 , store_mem_resp_i $end
$var wire 1 O" ready_o $end
$var wire 8 P" port_store_instr_queue_state [7:0] $end
$var reg 32 Q" CLK_CYCLE [31:0] $end
$var reg 32 R" inner_instr_i [31:0] $end
$var reg 1 S" inner_instr_valid_i $end
$var reg 1 T" inner_store_mem_resp_i $end
$var reg 8 U" instr_i_pc [7:0] $end
$var reg 2 V" queue_commit_ptr [1:0] $end
$var reg 2 W" queue_serve_ptr [1:0] $end
$var reg 2 X" queue_store_ptr [1:0] $end
$var reg 32 Y" store_instr_i_queue_flatten_0 [31:0] $end
$var reg 8 Z" store_instr_i_queue_flatten_0_pc [7:0] $end
$var reg 32 [" store_instr_i_queue_flatten_1 [31:0] $end
$var reg 8 \" store_instr_i_queue_flatten_1_pc [7:0] $end
$var reg 32 ]" store_instr_i_queue_flatten_2 [31:0] $end
$var reg 8 ^" store_instr_i_queue_flatten_2_pc [7:0] $end
$var reg 32 _" store_instr_i_queue_flatten_3 [31:0] $end
$var reg 8 `" store_instr_i_queue_flatten_3_pc [7:0] $end
$var reg 2 a" store_instr_queue_state_flatten_0 [1:0] $end
$var reg 2 b" store_instr_queue_state_flatten_1 [1:0] $end
$var reg 2 c" store_instr_queue_state_flatten_2 [1:0] $end
$var reg 2 d" store_instr_queue_state_flatten_3 [1:0] $end
$upscope $end
$scope task lower_commit $end
$upscope $end
$scope task lower_memory_grant $end
$upscope $end
$scope task lower_store_request $end
$upscope $end
$scope task raise_commit $end
$upscope $end
$scope task raise_memory_grant $end
$upscope $end
$scope task raise_store_request $end
$var reg 32 e" data [31:0] $end
$var reg 32 f" vaddr [31:0] $end
$upscope $end
$scope task set_page_offset $end
$var reg 12 g" page_offset [11:0] $end
$upscope $end
$upscope $end
$enddefinitions $end
#0
$dumpvars
bx g"
bx f"
bx e"
bx d"
bx c"
bx b"
bx a"
bx `"
bx _"
bx ^"
bx ]"
bx \"
bx ["
bx Z"
bx Y"
bx X"
bx W"
bx V"
bx U"
xT"
xS"
bx R"
bx Q"
bx P"
xO"
xN"
bz M"
bx L"
b11 K"
b100 J"
b11 I"
b100 H"
b0 G"
b0xxx F"
bx E"
b0xxx D"
bx C"
bx B"
bx A"
bx @"
bx ?"
bx >"
bx ="
bx <"
bx01xxxxxx00 ;"
bx :"
bx 9"
bx 8"
bx 7"
bx 6"
bx 5"
bx 4"
bx 3"
bx 2"
bx 1"
bx 0"
bx /"
bx ."
bx -"
bx ,"
bx +"
bx *"
0)"
0("
1'"
b0 &"
bx %"
bx $"
bx #"
bx ""
bx !"
bx ~
b0zzzzzz000000000000000000000000000000zzzzzzzzzzzzzzzzzzzzzzzzzzzzzzzzzz00000000000000000000000000000000zzzzzzzzzzzzzzzzzzzzzzzzzzzzzzzz }
bx |
0{
bx z
bx y
zx
b0 w
bx v
bz u
b0 t
b0 s
bx r
bx q
0p
0o
bx n
b11 m
bx l
b0 k
bx j
b0 i
b0 h
bx g
b0 f
b0zzzzzz000000000000000000000000000000zzzzzzzzzzzzzzzzzzzzzzzzzzzzzzzzzz00000000000000000000000000000000zzzzzzzzzzzzzzzzzzzzzzzzzzzzzzzz e
0d
bx01xxxxxx00 c
bx b
bx a
bx `
bx _
x^
bx ]
b0 \
b0 [
0Z
xY
b0 X
b0 W
bx V
bx U
b0 T
b0 S
b0 R
0Q
zP
b1101100100 O
bx N
bx M
0L
xK
b0 J
bx I
bx H
b0 G
xF
bx E
0D
b0 C
1B
bx A
bx @
1?
bx >
x=
b0 <
b0zzzzzz000000000000000000000000000000zzzzzzzzzzzzzzzzzzzzzzzzzzzzzzzzzz00000000000000000000000000000000zzzzzzzzzzzzzzzzzzzzzzzzzzzzzzzz ;
x:
b0 9
b0 8
x7
bx 6
05
04
bx01xxxxxx00 3
x2
b0 1
00
b0 /
0.
0-
x,
b0 +
b0 *
bx )
x(
bx '
0&
b0 %
1$
0#
0"
b0 !
$end
#10
0?
#20
0N"
b0x0100000000 3
b0x0100000000 c
b0x0100000000 ;"
12
b11 K"
b100 J"
b11 I"
b100 H"
b0 7"
b0 3"
b0 9"
b0 5"
17
1:
b0 F"
b0 b
b0 2"
b0 a
b0 1"
b0 `
b0 0"
b0 ]
b0 _
b0 /"
b0 <"
b0 B"
b0 >"
b0 @"
1Y
1^
b0 D"
b0 q
b1 <
b0 8"
b0 :"
b0 *"
b0 ,"
b0 -"
b0 +"
b0 ."
b0 6"
b0 4"
b0 A"
b0 C"
b0 ?"
b0 ="
0T"
b0 R"
0S"
b0 U"
b0 V"
b0 W"
1O"
b0 X"
b0 d"
b0 c"
b0 b"
b0 a"
b0 `"
b0 ^"
b0 \"
b0 Z"
b0 _"
b0 ]"
b0 ["
b0 Y"
b0 P"
b0 Q"
b0 g
b0 v
b0 n
b0 z
b0 #"
b0xxxxxxxxxxxxxxxxxxxxxxxxxxxxxxxxxx0000000000000000000000000000000000 ~
b0 l
b0 y
b0 ""
b0 j
b0 !"
b0 r
1?
0B
#30
0?
#40
b10 <
1?
#50
0?
#60
bx R"
b1 Q"
b0xxxxxxxxxxxxxxxxxxxxxxxxxxxxxxxxxx0000000000000000000000000000000011 ~
b11 n
b11 z
b11 #"
b11 <
b11 K"
b100 J"
b11 I"
b100 H"
1?
1B
b10010101110 )
b10010101110 V
b10010101110 %"
b10010101110 I
b10010101110 g"
b0 >
0=
b10010101110 A
b10011011111100011011001000110111 @
b1110000011100100101100110000000111 M
b10101000010000100111100010110001 O
0(
0F
0,
0K
b0 N
#70
0?
#80
xN"
b1 @"
b1 D"
b1 B"
b10110000011001010010100101100111011110001111111111010110111100000101 <"
15
1Z
1p
1o
1.
b10 n
b10 z
b10 #"
b11101111000111111111101011011110 l
b11101111000111111111101011011110 y
b11101111000111111111101011011110 ""
b1 r
b10110000011001010010100101100 R"
1S"
b10 Q"
b100 <
b11 K"
b100 J"
b11 I"
b100 H"
b10 m
b11101111000111111111101011011110 k
b10110000011001010010100101100 /
b10110000011001010010100101100 \
14
10
b1 q
1?
b10100101000 )
b10100101000 V
b10100101000 %"
b10100101000 I
b10100101000 g"
1(
1F
b10110000011001010010100101100 '
b10110000011001010010100101100 L"
b10110000011001010010100101100 E
b10 C
b101100000110010100101001011001110111100011111111110101101111010 ~
b10110000011001010010100101100 6
b10110000011001010010100101100 H
b10110000011001010010100101100 U
b10110000011001010010100101100 |
b10110000011001010010100101100 $"
b1000101100000110010100101001011000111011110001111111111010110111100000001000100111000 8
b1000101100000110010100101001011000111011110001111111111010110111100000001000100111000 G
b1000101100000110010100101001011000111011110001111111111010110111100000001000100111000 T
1-
1L
b11101111000111111111101011011110 e"
b10110000011001010010100101100 f"
b10 >
1=
b10100101000 A
b11101111000111111111101011011110 @
b10110000011001010010100101100 M
b1100101010011110100000101101010 O
b1 N
#90
0?
#100
0Z
02
b11 ]
b11 b
b11 2"
b1 @"
b1 D"
b1 B"
b10110000011001010010100101100111011110001111111111010110111100000101 <"
b1 A"
b1 C"
b10110000011001010010100101100111011110001111111111010110111100000101 ="
0S"
b1 X"
b11 P"
1O"
b11 Q"
b11 n
b11 z
b11 #"
b101100000110010100101001011000000000000000000000000000000000011 ~
b0 l
b0 y
b0 ""
b0 r
b101 <
b1 U"
b11 K"
b100 J"
b11 I"
b100 H"
05
b11 m
b0 k
b0 q
04
0p
0o
0.
00
b0 /
b0 \
1?
b101101101 )
b101101101 V
b101101101 %"
b101101101 I
b101101101 g"
b1 C
b0 >
b101101101 A
b1010110010010010110010110101100 @
b1111101000001100111100010011010000 M
b11001100011001100110000101011111 O
0(
0F
0-
0L
b0 8
b0 G
b0 T
b10 N
#110
0?
#120
b10100101100000001011000001100101011101111000111111111101011011110x1100001000 3
b10100101100000001011000001100101011101111000111111111101011011110x1100001000 c
b10100101100000001011000001100101011101111000111111111101011011110x1100001000 ;"
07
b1 ]
b1 b
b1 2"
b1 8"
b1 :"
b10100101100 *"
b10110000011001010 ,"
b11101111000111111111101011011110 -"
b10 ."
b10110000011001010010100101100111011110001111111111010110111100000101 4"
b0 A"
b1 ?"
b10110000011001010010100101100111011110001111111111010110111100000100 ="
b1 V"
b1 P"
b100 Q"
b110 <
b11 a"
b10110000011001010010100101100 Y"
b11 K"
b100 J"
b11 I"
b100 H"
b10 7"
b10 F"
b10 9"
b10110000011001010010100101100111011110001111111111010110111100000101 3"
b111 @"
b11111 D"
b10 >"
b10110000011001010010100101100111011110001111111111010110111100000100 <"
1?
b11010110110 )
b11010110110 V
b11010110110 %"
b11010110110 I
b11010110110 g"
b0 C
1#
1D
b1 >
b11010110110 A
b1001001111100000111001110010011 @
b1111000010010011001100111010000100 M
b10010101101010011011100100000 O
b11 N
#130
0?
#140
b101 Q"
b111 <
b1 a"
b11 K"
b100 J"
b11 I"
b100 H"
b1 7"
b10100101100000001011000001100101011101111000111111111101011011110x1100001000 3
b10100101100000001011000001100101011101111000111111111101011011110x1100001000 c
b10100101100000001011000001100101011101111000111111111101011011110x1100001000 ;"
b1 9"
b1 F"
b1 >"
b0 @"
b0 D"
1?
b1000010111 )
b1000010111 V
b1000010111 %"
b1000010111 I
b1000010111 g"
0=
b1000010111 A
b1111001011011111010001111110010 @
b1111100110000010011100011011001100 M
b1010100100001101010100011111101 O
0#
0D
b100 N
#150
0?
#160
b110 Q"
b1000 <
b11 K"
b100 J"
b11 I"
b100 H"
1?
b11111110101 )
b11111110101 V
b11111110101 %"
b11111110101 I
b11111110101 g"
b11111110101 A
b11011110011011101011111010111100 @
b1110101111011001110010110001011110 M
b10000100110101110011111000000110 O
b101 N
#170
0?
#180
b111 Q"
b1001 <
b11 K"
b100 J"
b11 I"
b100 H"
1?
b1110011111 )
b1110011111 V
b1110011111 %"
b1110011111 I
b1110011111 g"
b1110011111 A
b11110111001000001100001011101110 @
b1100100010001111101100011001 M
b111100100111101111001100001011 O
b110 N
#190
0?
#200
b1 @"
b1 D"
b10 B"
b100001010101100110001001000010100010100001111011100100011100100001010000010110000011001010010100101100111011110001111111111010110111100000100 <"
1Z
1p
1o
1.
b10 n
b10 z
b10 #"
b1000101000011110111001000111001 l
b1000101000011110111001000111001 y
b1000101000011110111001000111001 ""
b1 r
b10000101010110011000100100001 R"
1S"
b1000 Q"
b1010 <
b11 K"
b100 J"
b11 I"
b100 H"
b10 m
b1000101000011110111001000111001 k
b10000101010110011000100100001 /
b10000101010110011000100100001 \
14
10
b1 q
1?
b111111010100 )
b111111010100 V
b111111010100 %"
b111111010100 I
b111111010100 g"
1(
1F
b10000101010110011000100100001 '
b10000101010110011000100100001 L"
b10000101010110011000100100001 E
b10 C
b100001010101100110001001000010100010100001111011100100011100110 ~
b10000101010110011000100100001 6
b10000101010110011000100100001 H
b10000101010110011000100100001 U
b10000101010110011000100100001 |
b10000101010110011000100100001 $"
b1000100001010101100110001001000010001110010100010100001111011100100000001000100111000 8
b1000100001010101100110001001000010001110010100010100001111011100100000001000100111000 G
b1000100001010101100110001001000010001110010100010100001111011100100000001000100111000 T
1-
1L
b111001010001010000111101110010 e"
b10000101010110011000100100001 f"
b10 >
1=
b111111010100 A
b111001010001010000111101110010 @
b10000101010110011000100100001 M
b10101000001010101101110011100 O
b111 N
#210
0?
#220
0Z
b10100101100000001011000001100101011101111000111111111101011011110x1100001000 3
b10100101100000001011000001100101011101111000111111111101011011110x1100001000 c
b10100101100000001011000001100101011101111000111111111101011011110x1100001000 ;"
b1101 ]
b11 a
b11 1"
b1 @"
b1 D"
b10 B"
b100001010101100110001001000010100010100001111011100100011100100001010000010110000011001010010100101100111011110001111111111010110111100000100 <"
b1 A"
b10 C"
b100001010101100110001001000010100010100001111011100100011100100001010000010110000011001010010100101100111011110001111111111010110111100000100 ="
0S"
b10 X"
b1101 P"
1O"
b1001 Q"
b11 n
b11 z
b11 #"
b100001010101100110001001000010000000000000000000000000000000011 ~
b0 l
b0 y
b0 ""
b0 r
b1011 <
b10 U"
b11 K"
b100 J"
b11 I"
b100 H"
b11 m
b0 k
b0 q
04
0p
0o
0.
00
b0 /
b0 \
1?
b1110000010 )
b1110000010 V
b1110000010 %"
b1110000010 I
b1110000010 g"
b1 C
b1 >
0=
b1110000010 A
b11100011101101101010001011000111 @
b1111110110100011010100100011101101 M
b11101010101001000101111100001001 O
0(
0F
0-
0L
b0 8
b0 G
b0 T
b1000 N
#230
0?
#240
b101 ]
b1 a
b1 1"
b10 8"
b10 :"
b100001010101100110001001000010100010100001111011100100011100100001010000010110000011001010010100101100111011110001111111111010110111100000101 4"
b0 A"
b10 ?"
b100001010101100110001001000010100010100001111011100100011100100001000000010110000011001010010100101100111011110001111111111010110111100000100 ="
b10 V"
b101 P"
b1010 Q"
b1100 <
b11 b"
b1 \"
b10000101010110011000100100001 ["
b11 K"
b100 J"
b11 I"
b100 H"
b11 7"
b11 F"
b11 9"
b100001010101100110001001000010100010100001111011100100011100100001010000010110000011001010010100101100111011110001111111111010110111100000101 3"
b10100101100000001011000001100101011101111000111111111101011011110x1100001000 3
b10100101100000001011000001100101011101111000111111111101011011110x1100001000 c
b10100101100000001011000001100101011101111000111111111101011011110x1100001000 ;"
b111 @"
b11111 D"
b11 >"
b100001010101100110001001000010100010100001111011100100011100100001000000010110000011001010010100101100111011110001111111111010110111100000100 <"
1?
b1110001011 )
b1110001011 V
b1110001011 %"
b1110001011 I
b1110001011 g"
b0 C
1#
1D
b0 >
1=
b1110001011 A
b1111111001110100110111111111110 @
b11101011111001001000100111010 M
b11111110011001101010000101100010 O
b1001 N
#250
0?
#260
b11 B"
b111111000011001101110001111101111101101111101000010000010100000010100000100001010101100110001001000010100010100001111011100100011100100001000000010110000011001010010100101100111011110001111111111010110111100000100 <"
1Z
1p
1o
1.
b1111110000110011011100011111 R"
1S"
b1011 Q"
b10 n
b10 z
b10 #"
b1111101101111101000010000010100 l
b1111101101111101000010000010100 y
b1111101101111101000010000010100 ""
b1 r
b1101 <
b1 b"
b11 K"
b100 J"
b11 I"
b100 H"
b10 m
b1111101101111101000010000010100 k
b1111110000110011011100011111 /
b1111110000110011011100011111 \
14
10
b1 q
b10 7"
b10100101100000001011000001100101011101111000111111111101011011110x1100001000 3
b10100101100000001011000001100101011101111000111111111101011011110x1100001000 c
b10100101100000001011000001100101011101111000111111111101011011110x1100001000 ;"
b10 9"
b10 F"
b10 >"
b1 @"
b1 D"
1?
b1110101110 )
b1110101110 V
b1110101110 %"
b1110101110 I
b1110101110 g"
1(
1F
b1111110000110011011100011111 '
b1111110000110011011100011111 L"
b1111110000110011011100011111 E
b10 C
b11111100001100110111000111110111110110111110100001000001010010 ~
b1111110000110011011100011111 6
b1111110000110011011100011111 H
b1111110000110011011100011111 U
b1111110000110011011100011111 |
b1111110000110011011100011111 $"
b1000011111100001100110111000111110101111101000010000010100011111010000001000100111000 8
b1000011111100001100110111000111110101111101000010000010100011111010000001000100111000 G
b1000011111100001100110111000111110101111101000010000010100011111010000001000100111000 T
1-
1L
b10111110100001000001010001111101 e"
b1111110000110011011100011111 f"
b1 >
b1110101110 A
b10111110100001000001010001111101 @
b1111110000110011011100011111 M
b11100110101011000110100001110111 O
0#
0D
b1010 N
#270
0?
#280
0Z
b10100101100000001011000001100101011101111000111111111101011011110x1100001000 3
b10100101100000001011000001100101011101111000111111111101011011110x1100001000 c
b10100101100000001011000001100101011101111000111111111101011011110x1100001000 ;"
b110101 ]
b11 `
b11 0"
b1 @"
b1 D"
b11 B"
b111111000011001101110001111101111101101111101000010000010100000010100000100001010101100110001001000010100010100001111011100100011100100001000000010110000011001010010100101100111011110001111111111010110111100000100 <"
b1 A"
b11 C"
b111111000011001101110001111101111101101111101000010000010100000010100000100001010101100110001001000010100010100001111011100100011100100001000000010110000011001010010100101100111011110001111111111010110111100000100 ="
b11 n
b11 z
b11 #"
b11111100001100110111000111110000000000000000000000000000000011 ~
b0 l
b0 y
b0 ""
b0 r
0S"
b11 X"
b110101 P"
1O"
b1100 Q"
b1110 <
b11 U"
b11 K"
b100 J"
b11 I"
b100 H"
b11 m
b0 k
b0 q
04
0p
0o
0.
00
b0 /
b0 \
1?
b10110011110 )
b10110011110 V
b10110011110 %"
b10110011110 I
b10110011110 g"
b1 C
b0 >
b10110011110 A
b11010110101011001010010010101101 @
b1100001110101001011010111000011 M
b1111000000000001000110011011000 O
0(
0F
0-
0L
b0 8
b0 G
b0 T
b1011 N
#290
0?
#300
b10101 ]
b1 `
b1 0"
b11 8"
b11 :"
b111111000011001101110001111101111101101111101000010000010100000010100000100001010101100110001001000010100010100001111011100100011100100001010000010110000011001010010100101100111011110001111111111010110111100000101 4"
b0 A"
b11 ?"
b111111000011001101110001111101111101101111101000010000010100000010000000100001010101100110001001000010100010100001111011100100011100100001000000010110000011001010010100101100111011110001111111111010110111100000100 ="
b11 V"
b10101 P"
b1101 Q"
b1111 <
b11 c"
b10 ^"
b1111110000110011011100011111 ]"
b11 K"
b100 J"
b11 I"
b100 H"
b100 7"
b100 F"
b0 9"
b111111000011001101110001111101111101101111101000010000010100000010100000100001010101100110001001000010100010100001111011100100011100100001010000010110000011001010010100101100111011110001111111111010110111100000101 3"
b10100101100000001011000001100101011101111000111111111101011011110x1100001000 3
b10100101100000001011000001100101011101111000111111111101011011110x1100001000 c
b10100101100000001011000001100101011101111000111111111101011011110x1100001000 ;"
b111 @"
b11111 D"
b0 >"
b111111000011001101110001111101111101101111101000010000010100000010000000100001010101100110001001000010100010100001111011100100011100100001000000010110000011001010010100101100111011110001111111111010110111100000100 <"
1?
b110101100100 )
b110101100100 V
b110101100100 %"
b110101100100 I
b110101100100 g"
b0 C
1#
1D
b1 >
0=
b110101100100 A
b11010000110010111100000110 @
b101100011011111100001101011000 M
b10101000111000101100011011010101 O
b1100 N
#310
0?
#320
b0 B"
b1000100001110000101100010001001100010001010001110010101110010000101000000111111000011001101110001111101111101101111101000010000010100000010000000100001010101100110001001000010100010100001111011100100011100100001000000010110000011001010010100101100111011110001111111111010110111100000100 <"
1Z
1p
1o
1.
b10 n
b10 z
b10 #"
b110001000101000111001010111001 l
b110001000101000111001010111001 y
b110001000101000111001010111001 ""
b1 r
b1000100001110000101100010001 R"
1S"
b1110 Q"
b10000 <
b1 c"
b11 K"
b100 J"
b11 I"
b100 H"
b10 m
b110001000101000111001010111001 k
b1000100001110000101100010001 /
b1000100001110000101100010001 \
14
10
b1 q
b11 7"
b10100101100000001011000001100101011101111000111111111101011011110x1100001000 3
b10100101100000001011000001100101011101111000111111111101011011110x1100001000 c
b10100101100000001011000001100101011101111000111111111101011011110x1100001000 ;"
b11 9"
b11 F"
b11 >"
b1 @"
b1 D"
1?
b10010111100 )
b10010111100 V
b10010111100 %"
b10010111100 I
b10010111100 g"
1(
1F
b1000100001110000101100010001 '
b1000100001110000101100010001 L"
b1000100001110000101100010001 E
b10 C
b10001000011100001011000100010011000100010100011100101011100110 ~
b1000100001110000101100010001 6
b1000100001110000101100010001 H
b1000100001110000101100010001 U
b1000100001110000101100010001 |
b1000100001110000101100010001 $"
b1000010001000011100001011000100010101110010011000100010100011100100000001000100111000 8
b1000010001000011100001011000100010101110010011000100010100011100100000001000100111000 G
b1000010001000011100001011000100010101110010011000100010100011100100000001000100111000 T
1-
1L
b10111001001100010001010001110010 e"
b1000100001110000101100010001 f"
b0 >
1=
b10010111100 A
b10111001001100010001010001110010 @
b1000100001110000101100010001 M
b111100001100010110011101111110 O
0#
0D
b1101 N
#330
0?
#340
0Z
b10100101100000001011000001100101011101111000111111111101011011110x1100001000 3
b10100101100000001011000001100101011101111000111111111101011011110x1100001000 c
b10100101100000001011000001100101011101111000111111111101011011110x1100001000 ;"
b11010101 ]
b11 _
b11 /"
b1 @"
b1 D"
b0 B"
b1000100001110000101100010001001100010001010001110010101110010000101000000111111000011001101110001111101111101101111101000010000010100000010000000100001010101100110001001000010100010100001111011100100011100100001000000010110000011001010010100101100111011110001111111111010110111100000100 <"
b1 A"
b0 C"
b1000100001110000101100010001001100010001010001110010101110010000101000000111111000011001101110001111101111101101111101000010000010100000010000000100001010101100110001001000010100010100001111011100100011100100001000000010110000011001010010100101100111011110001111111111010110111100000100 ="
0S"
b0 X"
b11010101 P"
0O"
b1111 Q"
b11 n
b11 z
b11 #"
b10001000011100001011000100010000000000000000000000000000000011 ~
b0 l
b0 y
b0 ""
b0 r
b10001 <
b100 U"
b11 K"
b100 J"
b11 I"
b100 H"
b11 m
b0 k
b0 q
04
0p
0o
0.
00
b0 /
b0 \
1?
b101100001110 )
b101100001110 V
b101100001110 %"
b101100001110 I
b101100001110 g"
b1 C
b1 >
0=
b101100001110 A
b1000100111011101011011110001001 @
b1110011101010011110100011000111010 M
b10001110100001100100110110100011 O
0(
0F
0-
0L
b0 8
b0 G
b0 T
b1110 N
#350
0?
